data/casb2/2nhit/averages/ch11/tek0000ALL.csv

Model,MSO4034B
Firmware Version,2.52

Waveform Type,ANALOG,
Point Format,Y,
Horizontal Units,s,
Horizontal Scale,2e-08,
Horizontal Delay,1.29557e-06,
Sample Interval,4e-10,
Record Length,10000,
Gating,16.7200% to 21.7300%,
Probe Attenuation,1,
Vertical Units,V,
Vertical Offset,0.0708,
Vertical Scale,0.02,
Vertical Position,-1.02,
,,
,,
,,
Label,,
TIME,CH1,CH3
-3.5630e-08,0.0892625,-0.00079375
-3.5230e-08,0.0891969,-0.000715625
-3.4830e-08,0.0892344,-0.000659375
-3.4430e-08,0.0892469,-0.000715625
-3.4030e-08,0.0893031,-0.00069375
-3.3630e-08,0.0892906,-0.000765625
-3.3230e-08,0.0892906,-0.00071875
-3.2830e-08,0.0891906,-0.000825
-3.2430e-08,0.0891406,-0.000853125
-3.2030e-08,0.0891281,-0.000796875
-3.1630e-08,0.0892063,-0.000753125
-3.1230e-08,0.0892312,-0.00071875
-3.0830e-08,0.0892719,-0.0006875
-3.0430e-08,0.0893063,-0.0006875
-3.0030e-08,0.0892938,-0.00071875
-2.9630e-08,0.0892781,-0.0006625
-2.9230e-08,0.0891813,-0.000746875
-2.8830e-08,0.089175,-0.000809375
-2.8430e-08,0.0891875,-0.0007875
-2.8030e-08,0.0892187,-0.00080625
-2.7630e-08,0.0892844,-0.000715625
-2.7230e-08,0.0893031,-0.000815625
-2.6830e-08,0.0893219,-0.000665625
-2.6430e-08,0.0892563,-0.000709375
-2.6030e-08,0.0892344,-0.000653125
-2.5630e-08,0.0892656,-0.0007
-2.5230e-08,0.0892594,-0.000715625
-2.4830e-08,0.0892531,-0.000740625
-2.4430e-08,0.0892469,-0.000753125
-2.4030e-08,0.089225,-0.000771875
-2.3630e-08,0.0891219,-0.00103125
-2.3230e-08,0.0890937,-0.00119063
-2.2830e-08,0.0891813,-0.00100625
-2.2430e-08,0.0891625,-0.000690625
-2.2030e-08,0.08925,-0.000425
-2.1630e-08,0.089225,-0.000446875
-2.1230e-08,0.0892406,-0.000534375
-2.0830e-08,0.0892906,-0.00061875
-2.0430e-08,0.0892938,-0.00065625
-2.0030e-08,0.0892219,-0.00075
-1.9630e-08,0.0891219,-0.000778125
-1.9230e-08,0.089125,-0.0007625
-1.8830e-08,0.0892781,-0.000746875
-1.8430e-08,0.0893188,-0.000853125
-1.8030e-08,0.0892969,-0.00079375
-1.7630e-08,0.0892594,-0.0007125
-1.7230e-08,0.0891563,-0.000634375
-1.6830e-08,0.0891438,-0.000725
-1.6430e-08,0.0892125,-0.00079375
-1.6030e-08,0.089275,-0.00075
-1.5630e-08,0.0892,-0.000721875
-1.5230e-08,0.0892063,-0.000775
-1.4830e-08,0.0892344,-0.00076875
-1.4430e-08,0.0892656,-0.000859375
-1.4030e-08,0.0892563,-0.000740625
-1.3630e-08,0.0892469,-0.00070625
-1.3230e-08,0.0892156,-0.00078125
-1.2830e-08,0.0892437,-0.000721875
-1.2430e-08,0.0892437,-0.00059375
-1.2030e-08,0.0892219,-0.00063125
-1.1630e-08,0.0892,-0.000796875
-1.1230e-08,0.0892437,-0.0008625
-1.0830e-08,0.0892375,-0.000775
-1.0430e-08,0.0892281,-0.0006875
-1.0030e-08,0.0892125,-0.000578125
-9.6300e-09,0.089175,-0.000596875
-9.2300e-09,0.0891906,-0.0005125
-8.8300e-09,0.0892719,-0.000784375
-8.4300e-09,0.0892938,-0.00118125
-8.0300e-09,0.0892156,-0.0011375
-7.6300e-09,0.0891875,-0.000578125
-7.2300e-09,0.0890688,-0.000384375
-6.8300e-09,0.0891219,-0.00061875
-6.4300e-09,0.0892406,-0.00096875
-6.0300e-09,0.089275,-0.00109687
-5.6300e-09,0.0892688,-0.00118437
-5.2300e-09,0.0892187,-0.00090625
-4.8300e-09,0.08925,-0.00035
-4.4300e-09,0.0892406,-6.25e-06
-4.0300e-09,0.0892844,-5.9375e-05
-3.6300e-09,0.0892531,-0.000340625
-3.2300e-09,0.0892719,-0.0007375
-2.8300e-09,0.0892312,-0.000934375
-2.4300e-09,0.0892406,-0.00113125
-2.0300e-09,0.0892656,-0.0009625
-1.6300e-09,0.0892406,0.00039375
-1.2300e-09,0.0893188,0.0052875
-8.3000e-10,0.0892625,0.0137781
-4.3000e-10,0.0892719,0.0224781
-3.0000e-11,0.0893094,0.0296594
3.7000e-10,0.08925,0.0359
7.7000e-10,0.0892281,0.0416094
1.1700e-09,0.0892156,0.0466344
1.5700e-09,0.0891469,0.0503219
1.9700e-09,0.0891125,0.05285
2.3700e-09,0.0892187,0.0539375
2.7700e-09,0.0891906,0.0535625
3.1700e-09,0.08925,0.0522531
3.5700e-09,0.0892437,0.0508094
3.9700e-09,0.0892437,0.0496406
4.3700e-09,0.0892125,0.0486906
4.7700e-09,0.0891688,0.0485406
5.1700e-09,0.0891625,0.04925
5.5700e-09,0.0891656,0.0503469
5.9700e-09,0.089225,0.0516719
6.3700e-09,0.0892875,0.0529188
6.7700e-09,0.0892594,0.05415
7.1700e-09,0.08915,0.0547594
7.5700e-09,0.0890875,0.0548531
7.9700e-09,0.0891062,0.0544875
8.3700e-09,0.0891969,0.0541219
8.7700e-09,0.089275,0.0543156
9.1700e-09,0.0893156,0.0542188
9.5700e-09,0.0893156,0.0536281
9.9700e-09,0.0892844,0.0525969
1.0370e-08,0.0892344,0.0524719
1.0770e-08,0.0893031,0.0531
1.1170e-08,0.0891375,0.0534281
1.1570e-08,0.08915,0.0536781
1.1970e-08,0.0891125,0.0538719
1.2370e-08,0.0891344,0.054175
1.2770e-08,0.0891969,0.05365
1.3170e-08,0.0891875,0.050975
1.3570e-08,0.0891156,0.0443687
1.3970e-08,0.0891438,0.03445
1.4370e-08,0.0891656,0.0246969
1.4770e-08,0.0892375,0.0164906
1.5170e-08,0.0891969,0.0103688
1.5570e-08,0.0892063,0.00682187
1.5970e-08,0.0891719,0.00571875
1.6370e-08,0.0892437,0.00614375
1.6770e-08,0.0892375,0.00610313
1.7170e-08,0.0892844,0.00529375
1.7570e-08,0.0893188,0.00400625
1.7970e-08,0.0893031,0.00329375
1.8370e-08,0.0893188,0.00285
1.8770e-08,0.0893,0.00240625
1.9170e-08,0.0893281,0.00215625
1.9570e-08,0.0892781,0.00179375
1.9970e-08,0.0892938,0.00154375
2.0370e-08,0.089325,0.00141875
2.0770e-08,0.0892375,0.00136563
2.1170e-08,0.0892094,0.00117188
2.1570e-08,0.0891125,0.000759375
2.1970e-08,0.0890719,0.000575
2.2370e-08,0.0892312,0.000428125
2.2770e-08,0.0892344,0.000246875
2.3170e-08,0.0892312,-0.000215625
2.3570e-08,0.0892375,-0.000778125
2.3970e-08,0.0890813,-0.0012375
2.4370e-08,0.089075,-0.000928125
2.4770e-08,0.0891438,-0.000365625
2.5170e-08,0.0893219,-0.000128125
2.5570e-08,0.0895,7.1875e-05
2.5970e-08,0.0894937,0.000259375
2.6370e-08,0.089425,0.000478125
2.6770e-08,0.0893,0.00046875
2.7170e-08,0.0892688,2.1875e-05
2.7570e-08,0.0892938,-0.000378125
2.7970e-08,0.0898031,-0.0006
2.8370e-08,0.0913344,-0.0007375
2.8770e-08,0.0944094,-0.0008
2.9170e-08,0.0989813,-0.000871875
2.9570e-08,0.104409,-0.00096875
2.9970e-08,0.110175,-0.000896875
3.0370e-08,0.115534,-0.000871875
3.0770e-08,0.1201,-0.0009625
3.1170e-08,0.123866,-0.00096875
3.1570e-08,0.126966,-0.00074375
3.1970e-08,0.129372,-0.000478125
3.2370e-08,0.130966,-0.000440625
3.2770e-08,0.131862,-0.000546875
3.3170e-08,0.132119,-0.00058125
3.3570e-08,0.131966,-0.000703125
3.3970e-08,0.131763,-0.00069375
3.4370e-08,0.131697,-0.00068125
3.4770e-08,0.131834,-0.000725
3.5170e-08,0.132228,-0.000815625
3.5570e-08,0.133022,-0.00083125
3.5970e-08,0.134075,-0.00095625
3.6370e-08,0.135238,-0.000790625
3.6770e-08,0.136109,-0.0009
3.7170e-08,0.136766,-0.000865625
3.7570e-08,0.137088,-0.0009
3.7970e-08,0.137084,-0.000846875
3.8370e-08,0.137125,-0.000771875
3.8770e-08,0.137056,-0.000725
3.9170e-08,0.136947,-0.000840625
3.9570e-08,0.136844,-0.0009875
3.9970e-08,0.136644,-0.00109375
4.0370e-08,0.1366,-0.0010625
4.0770e-08,0.136634,-0.00080625
4.1170e-08,0.13675,-0.000290625
4.1570e-08,0.136903,-0.0001875
4.1970e-08,0.1371,-0.000921875
4.2370e-08,0.136872,-0.00151563
4.2770e-08,0.135778,-0.0013125
4.3170e-08,0.133288,-0.000884375
4.3570e-08,0.129109,-0.000528125
4.3970e-08,0.123519,-0.000415625
4.4370e-08,0.117169,-0.000615625
4.4770e-08,0.111134,-0.0012
4.5170e-08,0.106141,-0.00192188
4.5570e-08,0.102794,-0.002
4.5970e-08,0.100875,-0.001475
4.6370e-08,0.0998281,-0.00090625
4.6770e-08,0.0990562,-0.000621875
4.7170e-08,0.09805,-0.000434375
4.7570e-08,0.0967156,-0.0004
4.7970e-08,0.0953469,-0.000396875
4.8370e-08,0.0941469,-0.000678125
4.8770e-08,0.0932906,-0.000884375
4.9170e-08,0.0929688,-0.00106875
4.9570e-08,0.0927094,-0.00123438
4.9970e-08,0.0926656,-0.00119688
5.0370e-08,0.0924219,-0.00100312
5.0770e-08,0.0919094,-0.000625
5.1170e-08,0.0912531,-0.000240625
5.1570e-08,0.0906281,-0.0003875
5.1970e-08,0.0900781,-0.00078125
5.2370e-08,0.0896531,-0.000921875
5.2770e-08,0.0893531,-0.00088125
5.3170e-08,0.0891813,-0.000934375
5.3570e-08,0.0889469,-0.0011
5.3970e-08,0.0888969,-0.00101563
5.4370e-08,0.0889719,-0.00084375
5.4770e-08,0.0893344,-0.0007375
5.5170e-08,0.0897063,-0.00078125
5.5570e-08,0.0899875,-0.000815625
5.5970e-08,0.089925,-0.0007
5.6370e-08,0.089675,-0.000734375
5.6770e-08,0.0892531,-0.0008125
5.7170e-08,0.0888719,-0.0009
5.7570e-08,0.0885688,-0.000875
5.7970e-08,0.0885563,-0.00086875
5.8370e-08,0.0886313,-0.000959375
5.8770e-08,0.089,-0.00100938
5.9170e-08,0.0894063,-0.0010125
5.9570e-08,0.0897625,-0.000796875
5.9970e-08,0.0897531,-0.00063125
6.0370e-08,0.0893281,-0.000559375
6.0770e-08,0.0886656,-0.00075625
6.1170e-08,0.0879313,-0.000865625
6.1570e-08,0.0874344,-0.000990625
6.1970e-08,0.0875406,-0.000921875
6.2370e-08,0.0878344,-0.000975
6.2770e-08,0.0883969,-0.000846875
6.3170e-08,0.088825,-0.00085
6.3570e-08,0.0890594,-0.000834375
6.3970e-08,0.0888719,-0.000815625
6.4370e-08,0.0885781,-0.000759375
6.4770e-08,0.0881625,-0.000753125
6.5170e-08,0.0879281,-0.000778125
6.5570e-08,0.0879219,-0.0008125
6.5970e-08,0.0881188,-0.00099375
6.6370e-08,0.0883813,-0.00106875
6.6770e-08,0.08865,-0.00093125
6.7170e-08,0.08875,-0.000884375
6.7570e-08,0.0888687,-0.000753125
6.7970e-08,0.0888969,-0.000696875
6.8370e-08,0.0889406,-0.000659375
6.8770e-08,0.0888156,-0.000715625
6.9170e-08,0.0886813,-0.000796875
6.9570e-08,0.0885781,-0.000946875
6.9970e-08,0.0885156,-0.00104375
7.0370e-08,0.0886594,-0.00090625
7.0770e-08,0.0888531,-0.000821875
7.1170e-08,0.0889531,-0.000771875
7.1570e-08,0.0889094,-0.000721875
7.1970e-08,0.088775,-0.000578125
7.2370e-08,0.0885906,-0.000628125
7.2770e-08,0.0885313,-0.000821875
7.3170e-08,0.0886281,-0.001
7.3570e-08,0.0888031,-0.00103437
7.3970e-08,0.0890281,-0.00091875
7.4370e-08,0.0890156,-0.000878125
7.4770e-08,0.0888938,-0.000740625
7.5170e-08,0.0886062,-0.00069375
7.5570e-08,0.0884219,-0.0006375
7.5970e-08,0.0884063,-0.00069375
7.6370e-08,0.0886406,-0.000853125
7.6770e-08,0.0891438,-0.000946875
7.7170e-08,0.0894438,-0.000884375
7.7570e-08,0.0896563,-0.00086875
7.7970e-08,0.0896187,-0.000859375
7.8370e-08,0.089375,-0.000871875
7.8770e-08,0.0891625,-0.00083125
7.9170e-08,0.0889719,-0.000653125
7.9570e-08,0.08895,-0.00065
7.9970e-08,0.0890094,-0.000834375
8.0370e-08,0.0892281,-0.000846875
8.0770e-08,0.0893188,-0.00089375
8.1170e-08,0.0895031,-0.000778125
8.1570e-08,0.0894906,-0.0008625
8.1970e-08,0.0893906,-0.000875
8.2370e-08,0.0891875,-0.000821875
8.2770e-08,0.0889937,-0.000775
8.3170e-08,0.0888906,-0.000771875
8.3570e-08,0.088875,-0.000825
8.3970e-08,0.0889375,-0.000740625
8.4370e-08,0.0890063,-0.00078125
8.4770e-08,0.0890469,-0.0008125
8.5170e-08,0.08905,-0.0008375
8.5570e-08,0.0891563,-0.000834375
8.5970e-08,0.089125,-0.000853125
8.6370e-08,0.0891406,-0.000803125
8.6770e-08,0.0890719,-0.000853125
8.7170e-08,0.0889438,-0.00091875
8.7570e-08,0.0888938,-0.00075625
8.7970e-08,0.0887312,-0.000734375
8.8370e-08,0.0887656,-0.000690625
8.8770e-08,0.0887875,-0.000728125
8.9170e-08,0.0888781,-0.000825
8.9570e-08,0.0890031,-0.000828125
8.9970e-08,0.0890375,-0.00085625
9.0370e-08,0.0889438,-0.000915625
9.0770e-08,0.0888719,-0.000890625
9.1170e-08,0.0887281,-0.000890625
9.1570e-08,0.0887187,-0.0007875
9.1970e-08,0.0887281,-0.00075
9.2370e-08,0.0887469,-0.000771875
9.2770e-08,0.0888125,-0.00076875
9.3170e-08,0.0888,-0.0008
9.3570e-08,0.0888562,-0.000815625
9.3970e-08,0.0888781,-0.00086875
9.4370e-08,0.0888938,-0.000921875
9.4770e-08,0.08885,-0.000765625
9.5170e-08,0.0887656,-0.00076875
9.5570e-08,0.088675,-0.000840625
9.5970e-08,0.088675,-0.000790625
9.6370e-08,0.0886969,-0.00071875
9.6770e-08,0.0887688,-0.000728125
9.7170e-08,0.0888094,-0.00081875
9.7570e-08,0.0887406,-0.0009125
9.7970e-08,0.0887563,-0.000853125
9.8370e-08,0.0886781,-0.00078125
9.8770e-08,0.0886563,-0.000778125
9.9170e-08,0.0886281,-0.00083125
9.9570e-08,0.0885813,-0.000859375
9.9970e-08,0.088575,-0.00081875
1.0037e-07,0.088675,-0.00069375
1.0077e-07,0.0886375,-0.0008125
1.0117e-07,0.0888437,-0.000821875
1.0157e-07,0.0888813,-0.000775
1.0197e-07,0.0888719,-0.000753125
1.0237e-07,0.0889531,-0.0007375
1.0277e-07,0.08885,-0.000803125
1.0317e-07,0.0887,-0.0008375
1.0357e-07,0.088625,-0.000840625
1.0397e-07,0.0886187,-0.000840625
1.0437e-07,0.0886531,-0.000884375
1.0477e-07,0.0887875,-0.000853125
1.0517e-07,0.0888313,-0.000715625
1.0557e-07,0.0888469,-0.00074375
1.0597e-07,0.0887719,-0.00076875
1.0637e-07,0.0887312,-0.000828125
1.0677e-07,0.088725,-0.000740625
1.0717e-07,0.0886625,-0.00075625
1.0757e-07,0.0886469,-0.000828125
1.0797e-07,0.0886406,-0.0009
1.0837e-07,0.08865,-0.000884375
1.0877e-07,0.0886844,-0.000821875
1.0917e-07,0.0887656,-0.000709375
1.0957e-07,0.08875,-0.00078125
1.0997e-07,0.088725,-0.000746875
1.1037e-07,0.0887094,-0.000734375
1.1077e-07,0.0886625,-0.000725
1.1117e-07,0.0886313,-0.000765625
1.1157e-07,0.0885844,-0.00085
1.1197e-07,0.0886281,-0.00081875
1.1237e-07,0.0885969,-0.000746875
1.1277e-07,0.0885781,-0.0007875
1.1317e-07,0.0887094,-0.0007375
1.1357e-07,0.0886062,-0.000828125
1.1397e-07,0.0886125,-0.000715625
1.1437e-07,0.0886219,-0.00071875
1.1477e-07,0.0886375,-0.000828125
1.1517e-07,0.0886375,-0.000815625
1.1557e-07,0.0886469,-0.00079375
1.1597e-07,0.0886563,-0.00075
1.1637e-07,0.0886031,-0.0007625
1.1677e-07,0.0886156,-0.000871875
1.1717e-07,0.0886219,-0.000875
1.1757e-07,0.0886688,-0.00079375
1.1797e-07,0.0886719,-0.000653125
1.1837e-07,0.0886594,-0.000790625
1.1877e-07,0.0886281,-0.000778125
1.1917e-07,0.0885937,-0.0007625
1.1957e-07,0.0886781,-0.00071875
1.1997e-07,0.0886438,-0.0008125
1.2037e-07,0.0886281,-0.00080625
1.2077e-07,0.0885937,-0.000821875
1.2117e-07,0.0885406,-0.000790625
1.2157e-07,0.0885906,-0.00081875
1.2197e-07,0.0886125,-0.000871875
1.2237e-07,0.0886,-0.00080625
1.2277e-07,0.0886031,-0.000765625
1.2317e-07,0.0886625,-0.000715625
1.2357e-07,0.0886719,-0.00080625
1.2397e-07,0.0885813,-0.00084375
1.2437e-07,0.0886219,-0.000834375
1.2477e-07,0.0886406,-0.0007625
1.2517e-07,0.0885781,-0.00081875
1.2557e-07,0.0886062,-0.00088125
1.2597e-07,0.0887438,-0.000775
1.2637e-07,0.0886719,-0.000746875
1.2677e-07,0.0887063,-0.00071875
1.2717e-07,0.0886813,-0.000784375
1.2757e-07,0.0886469,-0.000828125
1.2797e-07,0.0886688,-0.00075
1.2837e-07,0.0886187,-0.00073125
1.2877e-07,0.0886469,-0.00081875
1.2917e-07,0.0886219,-0.00080625
1.2957e-07,0.0887,-0.0008125
1.2997e-07,0.0886531,-0.000828125
1.3037e-07,0.0886187,-0.00081875
1.3077e-07,0.0886313,-0.000821875
1.3117e-07,0.0885875,-0.000796875
1.3157e-07,0.0885844,-0.000740625
1.3197e-07,0.0885844,-0.000709375
1.3237e-07,0.0886656,-0.00074375
1.3277e-07,0.0886125,-0.0008125
1.3317e-07,0.0886219,-0.00078125
1.3357e-07,0.0886031,-0.000784375
1.3397e-07,0.0885063,-0.000840625
1.3437e-07,0.0885875,-0.0008
1.3477e-07,0.0885563,-0.000796875
1.3517e-07,0.0886125,-0.0007375
1.3557e-07,0.0886594,-0.00075
1.3597e-07,0.0886969,-0.000778125
1.3637e-07,0.0887031,-0.000828125
1.3677e-07,0.088675,-0.000740625
1.3717e-07,0.0886469,-0.000778125
1.3757e-07,0.0886156,-0.00075
1.3797e-07,0.0885969,-0.0008375
1.3837e-07,0.0885281,-0.00086875
1.3877e-07,0.0886844,-0.000725
1.3917e-07,0.0886406,-0.00079375
1.3957e-07,0.0886969,-0.0008125
1.3997e-07,0.0887,-0.0007625
1.4037e-07,0.08865,-0.000715625
1.4077e-07,0.0886281,-0.000746875
1.4117e-07,0.0885906,-0.000821875
1.4157e-07,0.0886125,-0.00083125
1.4197e-07,0.0886156,-0.000753125
1.4237e-07,0.0886469,-0.000734375
1.4277e-07,0.0885625,-0.00085
1.4317e-07,0.0885906,-0.000859375
1.4357e-07,0.0886375,-0.000828125
1.4397e-07,0.0886281,-0.00075
1.4437e-07,0.0886281,-0.0007375
1.4477e-07,0.0886094,-0.000828125
1.4517e-07,0.0886313,-0.00075
1.4557e-07,0.0886281,-0.00071875
1.4597e-07,0.0886344,-0.000725
1.4637e-07,0.0885875,-0.000790625
1.4677e-07,0.0885625,-0.000871875
1.4717e-07,0.0885469,-0.000796875
1.4757e-07,0.0885906,-0.0007875
1.4797e-07,0.0885844,-0.00078125
1.4837e-07,0.0886156,-0.000853125
1.4877e-07,0.0886344,-0.000803125
1.4917e-07,0.0886531,-0.000675
1.4957e-07,0.0885469,-0.000725
1.4997e-07,0.0886313,-0.000734375
1.5037e-07,0.0886594,-0.0007875
1.5077e-07,0.0885781,-0.000771875
1.5117e-07,0.0885969,-0.000775
1.5157e-07,0.0887531,-0.00079375
1.5197e-07,0.0886656,-0.000878125
1.5237e-07,0.088675,-0.000771875
1.5277e-07,0.0886375,-0.000725
1.5317e-07,0.0886344,-0.0008
1.5357e-07,0.0886938,-0.000815625
1.5397e-07,0.0887219,-0.000759375
1.5437e-07,0.0886906,-0.0007
1.5477e-07,0.0886187,-0.000721875
1.5517e-07,0.0886656,-0.000759375
1.5557e-07,0.0886375,-0.0008375
1.5597e-07,0.088625,-0.0008625
1.5637e-07,0.0886406,-0.00078125
1.5677e-07,0.0885625,-0.000828125
1.5717e-07,0.0885219,-0.000859375
1.5757e-07,0.088575,-0.000746875
1.5797e-07,0.0886469,-0.0007
1.5837e-07,0.0886438,-0.000684375
1.5877e-07,0.088625,-0.000734375
1.5917e-07,0.0885719,-0.00073125
1.5957e-07,0.0885094,-0.0007875
1.5997e-07,0.0885313,-0.00075
1.6037e-07,0.0885469,-0.000828125
1.6077e-07,0.0886125,-0.00085
1.6117e-07,0.0886406,-0.0008
1.6157e-07,0.0887063,-0.00074375
1.6197e-07,0.0886719,-0.0007625
1.6237e-07,0.088675,-0.00079375
1.6277e-07,0.0887063,-0.0007375
1.6317e-07,0.0886688,-0.000684375
1.6357e-07,0.0886125,-0.000728125
1.6397e-07,0.0885188,-0.0008625
1.6437e-07,0.0886094,-0.000746875

