data/casb2/2nhit/averages/ch19/tek0000ALL.csv

Model,MSO4034B
Firmware Version,2.52

Waveform Type,ANALOG,
Point Format,Y,
Horizontal Units,s,
Horizontal Scale,2e-08,
Horizontal Delay,1.29557e-06,
Sample Interval,4e-10,
Record Length,10000,
Gating,16.7200% to 21.7300%,
Probe Attenuation,1,
Vertical Units,V,
Vertical Offset,0.0708,
Vertical Scale,0.02,
Vertical Position,-1.02,
,,
,,
,,
Label,,
TIME,CH1,CH3
-3.5630e-08,0.0889563,-0.0007125
-3.5230e-08,0.0889469,-0.000725
-3.4830e-08,0.0888562,-0.000646875
-3.4430e-08,0.0888469,-0.000725
-3.4030e-08,0.088925,-0.000715625
-3.3630e-08,0.08895,-0.000753125
-3.3230e-08,0.0888625,-0.000753125
-3.2830e-08,0.0888906,-0.000784375
-3.2430e-08,0.0888844,-0.00083125
-3.2030e-08,0.0889125,-0.00083125
-3.1630e-08,0.0889313,-0.00069375
-3.1230e-08,0.0889188,-0.0006625
-3.0830e-08,0.08895,-0.000690625
-3.0430e-08,0.088925,-0.0007
-3.0030e-08,0.0889344,-0.000734375
-2.9630e-08,0.0889563,-0.000753125
-2.9230e-08,0.0889063,-0.000703125
-2.8830e-08,0.0888938,-0.00076875
-2.8430e-08,0.0889469,-0.0007625
-2.8030e-08,0.0888125,-0.000784375
-2.7630e-08,0.0889,-0.00070625
-2.7230e-08,0.0888531,-0.00074375
-2.6830e-08,0.0889344,-0.000709375
-2.6430e-08,0.0889531,-0.000665625
-2.6030e-08,0.0890125,-0.000665625
-2.5630e-08,0.0890031,-0.0007125
-2.5230e-08,0.0889219,-0.000775
-2.4830e-08,0.0888687,-0.0007875
-2.4430e-08,0.0888469,-0.00076875
-2.4030e-08,0.0888094,-0.000740625
-2.3630e-08,0.0888469,-0.000896875
-2.3230e-08,0.0888656,-0.0011625
-2.2830e-08,0.0889563,-0.00104063
-2.2430e-08,0.0890344,-0.00075
-2.2030e-08,0.0889563,-0.00041875
-2.1630e-08,0.0888719,-0.00036875
-2.1230e-08,0.088875,-0.000478125
-2.0830e-08,0.0889438,-0.000621875
-2.0430e-08,0.0889406,-0.000659375
-2.0030e-08,0.0888469,-0.000759375
-1.9630e-08,0.0887187,-0.000734375
-1.9230e-08,0.0887875,-0.000725
-1.8830e-08,0.0889156,-0.000753125
-1.8430e-08,0.088925,-0.000796875
-1.8030e-08,0.0889625,-0.00078125
-1.7630e-08,0.0889063,-0.000665625
-1.7230e-08,0.0888687,-0.0007
-1.6830e-08,0.0888406,-0.00074375
-1.6430e-08,0.0888156,-0.00075
-1.6030e-08,0.0889406,-0.0007375
-1.5630e-08,0.0890594,-0.000734375
-1.5230e-08,0.0890125,-0.000809375
-1.4830e-08,0.0890031,-0.00080625
-1.4430e-08,0.0889281,-0.0007625
-1.4030e-08,0.0888875,-0.000659375
-1.3630e-08,0.0888969,-0.000671875
-1.3230e-08,0.0888719,-0.000753125
-1.2830e-08,0.0889563,-0.00071875
-1.2430e-08,0.0889281,-0.000640625
-1.2030e-08,0.0889438,-0.0006625
-1.1630e-08,0.0888781,-0.000828125
-1.1230e-08,0.0888531,-0.000834375
-1.0830e-08,0.0888031,-0.000775
-1.0430e-08,0.0888469,-0.000665625
-1.0030e-08,0.0889313,-0.00059375
-9.6300e-09,0.0888594,-0.000534375
-9.2300e-09,0.0888719,-0.00048125
-8.8300e-09,0.0888719,-0.000728125
-8.4300e-09,0.0889313,-0.00112813
-8.0300e-09,0.0889937,-0.00128438
-7.6300e-09,0.0889812,-0.000671875
-7.2300e-09,0.0889531,-0.00038125
-6.8300e-09,0.0888719,-0.00063125
-6.4300e-09,0.088925,-0.0009125
-6.0300e-09,0.0889625,-0.0010625
-5.6300e-09,0.0889375,-0.00115
-5.2300e-09,0.089025,-0.000946875
-4.8300e-09,0.089,-0.000409375
-4.4300e-09,0.0889219,-4.375e-05
-4.0300e-09,0.0889188,-1.875e-05
-3.6300e-09,0.0888969,-0.0002625
-3.2300e-09,0.0889,-0.000728125
-2.8300e-09,0.0888625,-0.000940625
-2.4300e-09,0.0887625,-0.0011375
-2.0300e-09,0.0888281,-0.000975
-1.6300e-09,0.0887344,0.00040625
-1.2300e-09,0.0887969,0.00528438
-8.3000e-10,0.0888687,0.0137719
-4.3000e-10,0.0889125,0.022425
-3.0000e-11,0.0889531,0.0296063
3.7000e-10,0.0889188,0.0358219
7.7000e-10,0.0889438,0.0415969
1.1700e-09,0.0888969,0.0465125
1.5700e-09,0.0888906,0.0501094
1.9700e-09,0.0889219,0.0525562
2.3700e-09,0.0889063,0.0536156
2.7700e-09,0.0889188,0.0533062
3.1700e-09,0.0889406,0.0519406
3.5700e-09,0.0889969,0.0505094
3.9700e-09,0.089025,0.0493813
4.3700e-09,0.0889875,0.0484906
4.7700e-09,0.0889875,0.0482937
5.1700e-09,0.0889625,0.0489781
5.5700e-09,0.0887938,0.0502187
5.9700e-09,0.0888594,0.0514937
6.3700e-09,0.0889031,0.0526719
6.7700e-09,0.0890063,0.0538719
7.1700e-09,0.0889906,0.0545031
7.5700e-09,0.0889563,0.0544969
7.9700e-09,0.0888906,0.0541906
8.3700e-09,0.0888219,0.0539625
8.7700e-09,0.0888844,0.0541063
9.1700e-09,0.0888906,0.0540531
9.5700e-09,0.088925,0.0533969
9.9700e-09,0.0889563,0.052525
1.0370e-08,0.0889219,0.0523531
1.0770e-08,0.0889719,0.0528125
1.1170e-08,0.0889781,0.0531094
1.1570e-08,0.0889531,0.053425
1.1970e-08,0.0888719,0.053725
1.2370e-08,0.0888875,0.0539
1.2770e-08,0.0889687,0.0535
1.3170e-08,0.0889313,0.0507594
1.3570e-08,0.0888281,0.0441156
1.3970e-08,0.0887906,0.0342937
1.4370e-08,0.088875,0.0244719
1.4770e-08,0.0889125,0.0162937
1.5170e-08,0.0889094,0.0102781
1.5570e-08,0.0888781,0.00680625
1.5970e-08,0.0888906,0.00577188
1.6370e-08,0.0889625,0.00623438
1.6770e-08,0.0890094,0.00645312
1.7170e-08,0.0889656,0.005725
1.7570e-08,0.0889625,0.00454063
1.7970e-08,0.088975,0.003775
1.8370e-08,0.0889125,0.00323438
1.8770e-08,0.08885,0.002875
1.9170e-08,0.0888063,0.002475
1.9570e-08,0.0888437,0.00209375
1.9970e-08,0.0888031,0.00170625
2.0370e-08,0.0889219,0.00149688
2.0770e-08,0.089025,0.00140313
2.1170e-08,0.0890188,0.00116562
2.1570e-08,0.08895,0.000759375
2.1970e-08,0.0888281,0.000571875
2.2370e-08,0.0887719,0.00045
2.2770e-08,0.0888281,0.000234375
2.3170e-08,0.0888063,-0.00018125
2.3570e-08,0.0889563,-0.000721875
2.3970e-08,0.0888969,-0.0011
2.4370e-08,0.08885,-0.00080625
2.4770e-08,0.0888,-0.00024375
2.5170e-08,0.0887813,-4.0625e-05
2.5570e-08,0.0889719,0.00011875
2.5970e-08,0.0890937,0.00025
2.6370e-08,0.0891656,0.00046875
2.6770e-08,0.089175,0.00046875
2.7170e-08,0.0890469,1.5625e-05
2.7570e-08,0.0889687,-0.000296875
2.7970e-08,0.0890031,-0.0005
2.8370e-08,0.0894094,-0.000609375
2.8770e-08,0.0904563,-0.000671875
2.9170e-08,0.0926531,-0.000815625
2.9570e-08,0.0964,-0.00085625
2.9970e-08,0.101275,-0.000790625
3.0370e-08,0.106341,-0.00075
3.0770e-08,0.111247,-0.000878125
3.1170e-08,0.115603,-0.00108438
3.1570e-08,0.119431,-0.001125
3.1970e-08,0.122903,-0.00100938
3.2370e-08,0.125769,-0.000978125
3.2770e-08,0.127847,-0.001
3.3170e-08,0.129284,-0.000990625
3.3570e-08,0.129959,-0.00094375
3.3970e-08,0.130297,-0.000865625
3.4370e-08,0.130419,-0.0008375
3.4770e-08,0.130606,-0.00090625
3.5170e-08,0.130738,-0.000990625
3.5570e-08,0.131194,-0.00105313
3.5970e-08,0.131812,-0.00109063
3.6370e-08,0.132812,-0.0009625
3.6770e-08,0.133756,-0.00106562
3.7170e-08,0.134656,-0.00099375
3.7570e-08,0.135294,-0.00095
3.7970e-08,0.135622,-0.000903125
3.8370e-08,0.1358,-0.00075
3.8770e-08,0.135991,-0.00075625
3.9170e-08,0.136097,-0.000828125
3.9570e-08,0.136216,-0.00088125
3.9970e-08,0.136156,-0.000971875
4.0370e-08,0.135931,-0.0009875
4.0770e-08,0.135837,-0.000640625
4.1170e-08,0.135816,-0.000128125
4.1570e-08,0.135897,2.5e-05
4.1970e-08,0.136022,-0.00051875
4.2370e-08,0.136188,-0.00119375
4.2770e-08,0.136059,-0.00120938
4.3170e-08,0.135356,-0.000821875
4.3570e-08,0.133513,-0.000521875
4.3970e-08,0.130175,-0.00040625
4.4370e-08,0.1255,-0.00053125
4.4770e-08,0.119903,-0.00109687
4.5170e-08,0.114466,-0.00183438
4.5570e-08,0.109566,-0.00199375
4.5970e-08,0.105828,-0.00155938
4.6370e-08,0.103316,-0.00100938
4.6770e-08,0.101703,-0.000671875
4.7170e-08,0.100584,-0.000484375
4.7570e-08,0.0993531,-0.000340625
4.7970e-08,0.0980781,-0.00040625
4.8370e-08,0.0965312,-0.000578125
4.8770e-08,0.0950187,-0.000878125
4.9170e-08,0.0940281,-0.00101563
4.9570e-08,0.0932531,-0.00133125
4.9970e-08,0.0928219,-0.001275
5.0370e-08,0.0926531,-0.00110313
5.0770e-08,0.0924281,-0.000765625
5.1170e-08,0.09215,-0.000328125
5.1570e-08,0.091675,-0.000359375
5.1970e-08,0.0910469,-0.000790625
5.2370e-08,0.0904438,-0.000996875
5.2770e-08,0.0900313,-0.0009625
5.3170e-08,0.0896344,-0.00095625
5.3570e-08,0.0893594,-0.0011
5.3970e-08,0.0890531,-0.0011
5.4370e-08,0.0888875,-0.00088125
5.4770e-08,0.088925,-0.000778125
5.5170e-08,0.0890563,-0.000821875
5.5570e-08,0.0893188,-0.000728125
5.5970e-08,0.0895281,-0.000684375
5.6370e-08,0.0896219,-0.000684375
5.6770e-08,0.0894969,-0.000796875
5.7170e-08,0.0893063,-0.0008625
5.7570e-08,0.0890063,-0.000884375
5.7970e-08,0.0886844,-0.000884375
5.8370e-08,0.0883844,-0.000896875
5.8770e-08,0.08825,-0.000971875
5.9170e-08,0.0883219,-0.00095625
5.9570e-08,0.088675,-0.00084375
5.9970e-08,0.0891813,-0.000640625
6.0370e-08,0.0894438,-0.00058125
6.0770e-08,0.0894531,-0.000684375
6.1170e-08,0.08905,-0.000803125
6.1570e-08,0.0884,-0.000965625
6.1970e-08,0.0878656,-0.000946875
6.2370e-08,0.0873562,-0.000978125
6.2770e-08,0.0873094,-0.000825
6.3170e-08,0.0876,-0.0007875
6.3570e-08,0.088,-0.000834375
6.3970e-08,0.0884344,-0.000775
6.4370e-08,0.0885313,-0.000746875
6.4770e-08,0.0884656,-0.000675
6.5170e-08,0.0882906,-0.000675
6.5570e-08,0.0880188,-0.000725
6.5970e-08,0.0877438,-0.000903125
6.6370e-08,0.0876125,-0.00098125
6.6770e-08,0.0876656,-0.000965625
6.7170e-08,0.0877656,-0.00089375
6.7570e-08,0.0881156,-0.000759375
6.7970e-08,0.088525,-0.000665625
6.8370e-08,0.088725,-0.0005875
6.8770e-08,0.0887406,-0.000646875
6.9170e-08,0.0887094,-0.000721875
6.9570e-08,0.0885281,-0.000909375
6.9970e-08,0.0883063,-0.000975
7.0370e-08,0.0880875,-0.000915625
7.0770e-08,0.088125,-0.0008625
7.1170e-08,0.0882125,-0.000846875
7.1570e-08,0.08845,-0.000746875
7.1970e-08,0.08865,-0.000571875
7.2370e-08,0.0886187,-0.000634375
7.2770e-08,0.0885563,-0.000759375
7.3170e-08,0.0884844,-0.000971875
7.3570e-08,0.0884625,-0.00101563
7.3970e-08,0.0885344,-0.000909375
7.4370e-08,0.0885438,-0.000871875
7.4770e-08,0.0886656,-0.000721875
7.5170e-08,0.0885313,-0.000715625
7.5570e-08,0.0882938,-0.000596875
7.5970e-08,0.0880406,-0.00071875
7.6370e-08,0.0881,-0.000840625
7.6770e-08,0.0884188,-0.000925
7.7170e-08,0.0887094,-0.000890625
7.7570e-08,0.0890375,-0.000871875
7.7970e-08,0.0892531,-0.000865625
7.8370e-08,0.0892469,-0.000828125
7.8770e-08,0.0890438,-0.00075
7.9170e-08,0.0888719,-0.00068125
7.9570e-08,0.0887531,-0.00064375
7.9970e-08,0.0886656,-0.000765625
8.0370e-08,0.0887187,-0.00083125
8.0770e-08,0.0888094,-0.000821875
8.1170e-08,0.0889906,-0.000865625
8.1570e-08,0.0890781,-0.000865625
8.1970e-08,0.0890594,-0.00085625
8.2370e-08,0.0889031,-0.00074375
8.2770e-08,0.0888188,-0.000725
8.3170e-08,0.0887813,-0.00076875
8.3570e-08,0.0887063,-0.000778125
8.3970e-08,0.0887219,-0.000746875
8.4370e-08,0.0887531,-0.0008
8.4770e-08,0.0888437,-0.00083125
8.5170e-08,0.0889094,-0.000828125
8.5570e-08,0.0888938,-0.0008625
8.5970e-08,0.0888344,-0.00079375
8.6370e-08,0.0887969,-0.00078125
8.6770e-08,0.0888875,-0.000821875
8.7170e-08,0.0888719,-0.00089375
8.7570e-08,0.0889094,-0.00075
8.7970e-08,0.0887719,-0.0007625
8.8370e-08,0.0886844,-0.0007125
8.8770e-08,0.0885875,-0.000765625
8.9170e-08,0.0885438,-0.000821875
8.9570e-08,0.0885969,-0.000825
8.9970e-08,0.08865,-0.00085625
9.0370e-08,0.0887,-0.000878125
9.0770e-08,0.0887063,-0.0009
9.1170e-08,0.0886563,-0.000871875
9.1570e-08,0.0885813,-0.00073125
9.1970e-08,0.0884938,-0.0007
9.2370e-08,0.0884687,-0.00070625
9.2770e-08,0.08845,-0.000740625
9.3170e-08,0.0884875,-0.000759375
9.3570e-08,0.0885344,-0.0008
9.3970e-08,0.0886469,-0.00093125
9.4370e-08,0.0886625,-0.000875
9.4770e-08,0.0886906,-0.0007625
9.5170e-08,0.0886406,-0.000746875
9.5570e-08,0.0885313,-0.000721875
9.5970e-08,0.0885,-0.000715625
9.6370e-08,0.0884656,-0.000703125
9.6770e-08,0.0884781,-0.000728125
9.7170e-08,0.0884938,-0.000771875
9.7570e-08,0.0885,-0.00083125
9.7970e-08,0.0885313,-0.000825
9.8370e-08,0.0885406,-0.000840625
9.8770e-08,0.0885406,-0.0008125
9.9170e-08,0.0885313,-0.00081875
9.9570e-08,0.0884656,-0.00078125
9.9970e-08,0.0884156,-0.000803125
1.0037e-07,0.0884406,-0.00069375
1.0077e-07,0.0883906,-0.0007375
1.0117e-07,0.0884438,-0.000778125
1.0157e-07,0.0884844,-0.0007625
1.0197e-07,0.0884313,-0.0007875
1.0237e-07,0.0884969,-0.000775
1.0277e-07,0.0883781,-0.00084375
1.0317e-07,0.088375,-0.000834375
1.0357e-07,0.0884063,-0.000790625
1.0397e-07,0.0884313,-0.000796875
1.0437e-07,0.0884188,-0.000821875
1.0477e-07,0.0883844,-0.0007875
1.0517e-07,0.088425,-0.000690625
1.0557e-07,0.0884469,-0.0007
1.0597e-07,0.088425,-0.000790625
1.0637e-07,0.0884375,-0.000778125
1.0677e-07,0.0884406,-0.000765625
1.0717e-07,0.0884156,-0.0007625
1.0757e-07,0.0884375,-0.0008
1.0797e-07,0.088425,-0.000859375
1.0837e-07,0.0883625,-0.000878125
1.0877e-07,0.0883344,-0.00078125
1.0917e-07,0.0883813,-0.000734375
1.0957e-07,0.0883688,-0.000759375
1.0997e-07,0.0884125,-0.000771875
1.1037e-07,0.0884281,-0.00078125
1.1077e-07,0.0884281,-0.0007375
1.1117e-07,0.0883906,-0.000784375
1.1157e-07,0.0884,-0.000840625
1.1197e-07,0.0883094,-0.000734375
1.1237e-07,0.0882844,-0.000765625
1.1277e-07,0.0882906,-0.000825
1.1317e-07,0.0884063,-0.00076875
1.1357e-07,0.08845,-0.0007875
1.1397e-07,0.0884875,-0.00074375
1.1437e-07,0.0884469,-0.000684375
1.1477e-07,0.0884031,-0.00084375
1.1517e-07,0.0883906,-0.000809375
1.1557e-07,0.0883188,-0.00081875
1.1597e-07,0.08835,-0.000740625
1.1637e-07,0.0884406,-0.000784375
1.1677e-07,0.0883469,-0.00080625
1.1717e-07,0.0883375,-0.000825
1.1757e-07,0.0883063,-0.000746875
1.1797e-07,0.0883781,-0.000753125
1.1837e-07,0.0883063,-0.00076875
1.1877e-07,0.0882813,-0.000821875
1.1917e-07,0.0883625,-0.000765625
1.1957e-07,0.0883688,-0.000740625
1.1997e-07,0.0882813,-0.00075625
1.2037e-07,0.0882469,-0.00075
1.2077e-07,0.0883,-0.00079375
1.2117e-07,0.0883531,-0.00078125
1.2157e-07,0.0883313,-0.000784375
1.2197e-07,0.0883562,-0.00076875
1.2237e-07,0.0883562,-0.000825
1.2277e-07,0.088375,-0.000703125
1.2317e-07,0.0884844,-0.000671875
1.2357e-07,0.0884281,-0.000784375
1.2397e-07,0.08835,-0.000803125
1.2437e-07,0.0883344,-0.000775
1.2477e-07,0.0882969,-0.000740625
1.2517e-07,0.0882969,-0.0007875
1.2557e-07,0.0883188,-0.000859375
1.2597e-07,0.0884344,-0.000771875
1.2637e-07,0.0884406,-0.000765625
1.2677e-07,0.0884313,-0.00070625
1.2717e-07,0.0883844,-0.00075
1.2757e-07,0.0884125,-0.00081875
1.2797e-07,0.0883656,-0.0007375
1.2837e-07,0.0882594,-0.00076875
1.2877e-07,0.0882219,-0.00083125
1.2917e-07,0.0881938,-0.000875
1.2957e-07,0.0883344,-0.00085625
1.2997e-07,0.0883844,-0.000821875
1.3037e-07,0.0884156,-0.000775
1.3077e-07,0.0884281,-0.0007375
1.3117e-07,0.0884156,-0.00075625
1.3157e-07,0.0883,-0.00079375
1.3197e-07,0.088325,-0.000759375
1.3237e-07,0.0882969,-0.000784375
1.3277e-07,0.0883437,-0.000790625
1.3317e-07,0.0883719,-0.00079375
1.3357e-07,0.0883781,-0.00078125
1.3397e-07,0.0883313,-0.000796875
1.3437e-07,0.0883562,-0.0008
1.3477e-07,0.0883594,-0.00079375
1.3517e-07,0.0883844,-0.00070625
1.3557e-07,0.0883219,-0.000721875
1.3597e-07,0.0883,-0.00075625
1.3637e-07,0.0882844,-0.000778125
1.3677e-07,0.0883375,-0.000709375
1.3717e-07,0.0883188,-0.000746875
1.3757e-07,0.0883406,-0.00075
1.3797e-07,0.0883688,-0.00083125
1.3837e-07,0.0882125,-0.0008375
1.3877e-07,0.0883719,-0.000703125
1.3917e-07,0.088325,-0.000740625
1.3957e-07,0.0883437,-0.000778125
1.3997e-07,0.0883531,-0.000715625
1.4037e-07,0.0883844,-0.00073125
1.4077e-07,0.0883906,-0.0007375
1.4117e-07,0.0883906,-0.000790625
1.4157e-07,0.0883437,-0.0007875
1.4197e-07,0.0882625,-0.00076875
1.4237e-07,0.0882688,-0.000771875
1.4277e-07,0.0882,-0.000821875
1.4317e-07,0.0882969,-0.00080625
1.4357e-07,0.0883688,-0.000734375
1.4397e-07,0.0884125,-0.000728125
1.4437e-07,0.0883625,-0.0007875
1.4477e-07,0.0883125,-0.0008375
1.4517e-07,0.0883031,-0.0007625
1.4557e-07,0.0882375,-0.000690625
1.4597e-07,0.0882156,-0.000771875
1.4637e-07,0.0882813,-0.000796875
1.4677e-07,0.08825,-0.00085625
1.4717e-07,0.0882906,-0.00075625
1.4757e-07,0.0883406,-0.000753125
1.4797e-07,0.08825,-0.00080625
1.4837e-07,0.0882656,-0.000778125
1.4877e-07,0.0883594,-0.00075
1.4917e-07,0.0883375,-0.0007375
1.4957e-07,0.0882906,-0.000790625
1.4997e-07,0.0882969,-0.00076875
1.5037e-07,0.0883219,-0.000759375
1.5077e-07,0.0883906,-0.000771875
1.5117e-07,0.0884125,-0.000828125
1.5157e-07,0.0884812,-0.000740625
1.5197e-07,0.0883562,-0.000859375
1.5237e-07,0.0883156,-0.00074375
1.5277e-07,0.0882969,-0.00073125
1.5317e-07,0.0882969,-0.000734375
1.5357e-07,0.0883875,-0.0008
1.5397e-07,0.0883813,-0.00075625
1.5437e-07,0.0883094,-0.000753125
1.5477e-07,0.0883,-0.000728125
1.5517e-07,0.0882938,-0.000809375
1.5557e-07,0.0881906,-0.00085625
1.5597e-07,0.0881906,-0.000746875
1.5637e-07,0.0882531,-0.000778125
1.5677e-07,0.0882531,-0.00080625
1.5717e-07,0.0882625,-0.000821875
1.5757e-07,0.0882594,-0.00078125
1.5797e-07,0.0882875,-0.000725
1.5837e-07,0.088375,-0.00071875
1.5877e-07,0.0884563,-0.00075
1.5917e-07,0.0884031,-0.000771875
1.5957e-07,0.0883344,-0.00075
1.5997e-07,0.0882906,-0.000725
1.6037e-07,0.0883156,-0.000746875
1.6077e-07,0.0882813,-0.00078125
1.6117e-07,0.0883219,-0.000725
1.6157e-07,0.0883719,-0.000703125
1.6197e-07,0.088425,-0.00068125
1.6237e-07,0.0883844,-0.000759375
1.6277e-07,0.0883219,-0.0007
1.6317e-07,0.0884438,-0.000634375
1.6357e-07,0.0883406,-0.0007375
1.6397e-07,0.0882344,-0.00089375
1.6437e-07,0.0883094,-0.000790625

