casb1/risetimes/latest2/ch9.csv

Model,MSO4034B
Firmware Version,2.52

Waveform Type,ANALOG,,
Point Format,Y,,
Horizontal Units,s,,
Horizontal Scale,4e-07,,
Horizontal Delay,3e-08,,
Sample Interval,4e-10,,
Record Length,10000,,
Gating,49.1100% to 51.6100%,,
Probe Attenuation,1,,
Vertical Units,V,,
Vertical Offset,0,,
Vertical Scale,0.02,,
Vertical Position,-4.98,,
,,,
,,,
,,,
Label,,,
TIME,CH1,CH3,CH4
-5.6000e-09,0.0530938,0.0395031,-0.00789063
-5.2000e-09,0.0531375,0.0394797,-0.00776562
-4.8000e-09,0.0530375,0.0395,-0.00778125
-4.4000e-09,0.0530719,0.0395172,-0.0078125
-4.0000e-09,0.0531938,0.0395484,-0.007625
-3.6000e-09,0.0530875,0.0395078,-0.00746875
-3.2000e-09,0.0529844,0.0394656,-0.0079375
-2.8000e-09,0.0532156,0.0395484,-0.00717188
-2.4000e-09,0.0531094,0.0395062,-0.00754688
-2.0000e-09,0.0531063,0.0394562,-0.00779688
-1.6000e-09,0.0530219,0.0394531,-0.0078125
-1.2000e-09,0.0531125,0.0395031,-0.00796875
-8.0000e-10,0.0531188,0.0395203,-0.00785938
-4.0000e-10,0.0532156,0.0395313,0.0150625
0.0000e+00,0.0530594,0.0394734,0.124703
4.0000e-10,0.053125,0.0395125,0.29375
8.0000e-10,0.0531469,0.0394906,0.412
1.2000e-09,0.053125,0.0395031,0.457203
1.6000e-09,0.0529906,0.0394875,0.470094
2.0000e-09,0.0531281,0.0395281,0.478984
2.4000e-09,0.053075,0.0395375,0.483375
2.8000e-09,0.0531094,0.0395359,0.483328
3.2000e-09,0.0531,0.0394922,0.481313
3.6000e-09,0.0531781,0.0395422,0.480266
4.0000e-09,0.0531406,0.0395406,0.479563
4.4000e-09,0.0531438,0.0395406,0.480156
4.8000e-09,0.053075,0.0395531,0.48125
5.2000e-09,0.0531688,0.0395672,0.481766
5.6000e-09,0.0530813,0.0395109,0.481719
6.0000e-09,0.0531625,0.0395766,0.482797
6.4000e-09,0.0530906,0.0395172,0.48275
6.8000e-09,0.053125,0.0395422,0.483156
7.2000e-09,0.053125,0.0395297,0.483266
7.6000e-09,0.0531313,0.0395219,0.483313
8.0000e-09,0.0530469,0.0395297,0.483125
8.4000e-09,0.0530688,0.0395453,0.483062
8.8000e-09,0.0531594,0.0395406,0.483547
9.2000e-09,0.0530531,0.0395078,0.484531
9.6000e-09,0.0529906,0.0394609,0.486828
1.0000e-08,0.0531813,0.0395266,0.484203
1.0400e-08,0.0530875,0.0395219,0.476656
1.0800e-08,0.0531313,0.0394578,0.471797
1.1200e-08,0.0530281,0.0394859,0.473766
1.1600e-08,0.0531094,0.0394875,0.477219
1.2000e-08,0.0531188,0.0394984,0.479078
1.2400e-08,0.0531531,0.0395375,0.480016
1.2800e-08,0.0530156,0.0394875,0.480047
1.3200e-08,0.0530656,0.0395281,0.479812
1.3600e-08,0.0531375,0.0395422,0.479484
1.4000e-08,0.0530531,0.0394688,0.479187
1.4400e-08,0.0529969,0.0394422,0.479234
1.4800e-08,0.0531188,0.0395125,0.478516
1.5200e-08,0.0530625,0.0394922,0.477219
1.5600e-08,0.0531031,0.0395125,0.477297
1.6000e-08,0.0530281,0.0395031,0.478422
1.6400e-08,0.0531344,0.03955,0.479031
1.6800e-08,0.0531406,0.0395109,0.476484
1.7200e-08,0.0531156,0.0395109,0.474703
1.7600e-08,0.0530719,0.0395031,0.474094
1.8000e-08,0.0531625,0.0395422,0.474844
1.8400e-08,0.0531375,0.0395156,0.474516
1.8800e-08,0.0532594,0.0395922,0.475109
1.9200e-08,0.0531813,0.0395406,0.4745
1.9600e-08,0.0531906,0.0395672,0.474187
2.0000e-08,0.0531094,0.0395281,0.474031
2.0400e-08,0.0531313,0.0395266,0.473313
2.0800e-08,0.0530563,0.0394922,0.472609
2.1200e-08,0.0530813,0.0395016,0.472469
2.1600e-08,0.0531281,0.0395266,0.472328
2.2000e-08,0.0531094,0.0394875,0.471812
2.2400e-08,0.0529781,0.0394688,0.471344
2.2800e-08,0.0531281,0.0395344,0.471391
2.3200e-08,0.05315,0.0395687,0.47075
2.3600e-08,0.0531375,0.039525,0.470422
2.4000e-08,0.0530188,0.0394828,0.469859
2.4400e-08,0.0530781,0.0395563,0.469953
2.4800e-08,0.0531125,0.0395172,0.469594
2.5200e-08,0.0531625,0.0395328,0.469344
2.5600e-08,0.0530375,0.0394922,0.468875
2.6000e-08,0.0531,0.0395344,0.468531
2.6400e-08,0.0531719,0.0395094,0.468266
2.6800e-08,0.0531344,0.0395094,0.468078
2.7200e-08,0.0530875,0.0394891,0.468031
2.7600e-08,0.0531875,0.0394953,0.467859
2.8000e-08,0.0531188,0.0395203,0.467266
2.8400e-08,0.053125,0.0395031,0.467141
2.8800e-08,0.0530906,0.0395016,0.466391
2.9200e-08,0.0531281,0.0395719,0.466766
2.9600e-08,0.0531438,0.0395391,0.466187
3.0000e-08,0.0531344,0.0395047,0.46575
3.0400e-08,0.0530625,0.0395203,0.465156
3.0800e-08,0.0531625,0.0395438,0.465109
3.1200e-08,0.0530906,0.0394641,0.464562
3.1600e-08,0.0532,0.0395609,0.465016
3.2000e-08,0.0531469,0.0395031,0.464281
3.2400e-08,0.0531469,0.0395313,0.464047
3.2800e-08,0.0530906,0.0395062,0.464031
3.3200e-08,0.0531313,0.0394969,0.463969
3.3600e-08,0.0530469,0.0395047,0.463938
3.4000e-08,0.0530688,0.0394938,0.463875
3.4400e-08,0.0531188,0.0395219,0.463625
3.4800e-08,0.0530813,0.0394859,0.463406
3.5200e-08,0.0529594,0.0394781,0.463203
3.5600e-08,0.0532719,0.0395313,0.463141
3.6000e-08,0.0531531,0.039525,0.462344
3.6400e-08,0.0531375,0.0395172,0.462
3.6800e-08,0.0529906,0.0394844,0.4615
3.7200e-08,0.0531031,0.0395156,0.461578
3.7600e-08,0.0530969,0.0395281,0.461016
3.8000e-08,0.0531406,0.039525,0.460828
3.8400e-08,0.05305,0.0395125,0.460141
3.8800e-08,0.053125,0.0395469,0.460016
3.9200e-08,0.0531781,0.0395531,0.460078
3.9600e-08,0.0531375,0.0395281,0.459828
4.0000e-08,0.0530438,0.0395078,0.459703
4.0400e-08,0.0531125,0.0395203,0.459437
4.0800e-08,0.0531156,0.0395219,0.459453
4.1200e-08,0.053075,0.0395109,0.459125
4.1600e-08,0.053025,0.0395047,0.458813
4.2000e-08,0.0531406,0.0395406,0.459047
4.2400e-08,0.0531688,0.0395219,0.458734
4.2800e-08,0.0532125,0.0395359,0.458187
4.3200e-08,0.0531031,0.0395094,0.457625
4.3600e-08,0.0531469,0.0395578,0.457672
4.4000e-08,0.0531938,0.0395016,0.457016
4.4400e-08,0.0543125,0.0396094,0.457313
4.4800e-08,0.0585313,0.0398797,0.456578
4.5200e-08,0.0697281,0.0409438,0.456281
4.5600e-08,0.0904063,0.0435203,0.456234
4.6000e-08,0.119403,0.0482719,0.456109
4.6400e-08,0.150572,0.0554703,0.456031
4.6800e-08,0.176163,0.0647078,0.455891
4.7200e-08,0.190013,0.0746219,0.455562
4.7600e-08,0.190594,0.0832875,0.455437
4.8000e-08,0.182166,0.0892094,0.455203
4.8400e-08,0.171369,0.0918328,0.454594
4.8800e-08,0.163859,0.0912578,0.4545
4.9200e-08,0.161556,0.0887906,0.452797
4.9600e-08,0.162697,0.0857531,0.420281
5.0000e-08,0.164319,0.0831469,0.296156
5.0400e-08,0.163988,0.0814672,0.131141
5.0800e-08,0.161494,0.0803906,0.0260937
5.1200e-08,0.158178,0.0793922,-0.0152188
5.1600e-08,0.156091,0.0782188,-0.0308594
5.2000e-08,0.156606,0.0769078,-0.0387344
5.2400e-08,0.1593,0.0756547,-0.0423437
5.2800e-08,0.162934,0.0750094,-0.0429688
5.3200e-08,0.165841,0.0751938,-0.0410625
5.3600e-08,0.166669,0.0760328,-0.0395156
5.4000e-08,0.165506,0.0771563,-0.0399531
5.4400e-08,0.163125,0.078,-0.0402031
5.4800e-08,0.161059,0.0783734,-0.0408125
5.5200e-08,0.160213,0.0780813,-0.0418906
5.5600e-08,0.160938,0.0774703,-0.0428594
5.6000e-08,0.162366,0.0768406,-0.0436563
5.6400e-08,0.163659,0.0766141,-0.04375
5.6800e-08,0.163881,0.0767266,-0.0441719
5.7200e-08,0.1632,0.0771406,-0.0439375
5.7600e-08,0.162025,0.0774875,-0.0442344
5.8000e-08,0.161188,0.0776703,-0.0444219
5.8400e-08,0.160903,0.0774578,-0.0444531
5.8800e-08,0.161416,0.07705,-0.0449688
5.9200e-08,0.1622,0.076675,-0.0472813
5.9600e-08,0.162803,0.0763719,-0.0481875
6.0000e-08,0.163072,0.0765313,-0.0456719
6.0400e-08,0.162609,0.0767844,-0.0394375
6.0800e-08,0.161922,0.0770875,-0.0363906
6.1200e-08,0.161447,0.0773438,-0.0388125
6.1600e-08,0.161163,0.0772828,-0.0421875
6.2000e-08,0.161153,0.0770938,-0.0436719
6.2400e-08,0.161244,0.0767891,-0.0440312
6.2800e-08,0.161525,0.076575,-0.0444375
6.3200e-08,0.161472,0.0764531,-0.0448281
6.3600e-08,0.161431,0.0765281,-0.0441406
6.4000e-08,0.161156,0.0766422,-0.045
6.4400e-08,0.161113,0.0768,-0.0446875
6.4800e-08,0.161075,0.0768813,-0.0442188
6.5200e-08,0.16115,0.0767906,-0.043875
6.5600e-08,0.161316,0.0766438,-0.04425
6.6000e-08,0.161356,0.0765219,-0.0458906
6.6400e-08,0.161334,0.0764391,-0.0450469
6.6800e-08,0.161181,0.0764766,-0.0431563
6.7200e-08,0.160972,0.0765359,-0.0428594
6.7600e-08,0.160756,0.0766734,-0.0426719
6.8000e-08,0.160563,0.0766891,-0.0433125
6.8400e-08,0.160431,0.0766078,-0.0434688
6.8800e-08,0.160303,0.0764703,-0.0437656
6.9200e-08,0.16035,0.0763547,-0.0434063
6.9600e-08,0.160309,0.0761734,-0.0436719
7.0000e-08,0.160338,0.0761656,-0.0429844
7.0400e-08,0.160081,0.0761344,-0.0434063
7.0800e-08,0.159988,0.0761984,-0.0429844
7.1200e-08,0.159834,0.0762453,-0.0434531
7.1600e-08,0.159763,0.0762484,-0.0432969
7.2000e-08,0.159672,0.0762156,-0.0430156
7.2400e-08,0.159581,0.0761156,-0.0427969
7.2800e-08,0.159669,0.0760844,-0.042625
7.3200e-08,0.159475,0.0759922,-0.0432344
7.3600e-08,0.159344,0.0759375,-0.0432813
7.4000e-08,0.159388,0.0760047,-0.0425625
7.4400e-08,0.15915,0.0759875,-0.0424844
7.4800e-08,0.159141,0.0759797,-0.0426875
7.5200e-08,0.158994,0.0759141,-0.042875
7.5600e-08,0.159,0.0758672,-0.0426094
7.6000e-08,0.15885,0.0757859,-0.042625
7.6400e-08,0.158828,0.0757531,-0.0423594
7.6800e-08,0.158688,0.0756734,-0.042625
7.7200e-08,0.158603,0.0756594,-0.0425
7.7600e-08,0.158544,0.0756969,-0.0421875
7.8000e-08,0.158388,0.0756469,-0.0422344
7.8400e-08,0.158281,0.0756109,-0.0424844
7.8800e-08,0.158238,0.0755875,-0.0421563
7.9200e-08,0.158106,0.0755031,-0.042375
7.9600e-08,0.158,0.0754359,-0.0420312
8.0000e-08,0.157806,0.0754141,-0.0423906
8.0400e-08,0.157834,0.0754156,-0.0416719
8.0800e-08,0.157653,0.0754203,-0.0414688
8.1200e-08,0.157556,0.0753875,-0.0417031
8.1600e-08,0.157563,0.0753734,-0.0420469
8.2000e-08,0.157472,0.0753422,-0.0417187
8.2400e-08,0.157366,0.0752687,-0.0420781
8.2800e-08,0.157384,0.0752656,-0.0414063
8.3200e-08,0.157244,0.0752234,-0.0418594
8.3600e-08,0.157222,0.0752109,-0.0416719
8.4000e-08,0.156963,0.0751281,-0.0419063
8.4400e-08,0.156866,0.0751438,-0.0416563
8.4800e-08,0.156803,0.0750969,-0.0418437
8.5200e-08,0.156753,0.0750313,-0.0417344
8.5600e-08,0.156741,0.0750141,-0.0410156
8.6000e-08,0.156681,0.0749719,-0.0414063
8.6400e-08,0.156459,0.0749188,-0.0410938
8.6800e-08,0.1565,0.0749047,-0.0411719
8.7200e-08,0.156319,0.0748516,-0.0414063
8.7600e-08,0.156106,0.074825,-0.0415469
8.8000e-08,0.156053,0.0747984,-0.0414219
8.8400e-08,0.155975,0.0747953,-0.041
8.8800e-08,0.155869,0.0747359,-0.04125
8.9200e-08,0.155881,0.0747172,-0.0411875
8.9600e-08,0.155644,0.0746703,-0.0414219
9.0000e-08,0.15565,0.0746375,-0.0410156
9.0400e-08,0.1556,0.0746516,-0.0409063
9.0800e-08,0.155497,0.0745969,-0.0410625
9.1200e-08,0.155359,0.0745875,-0.0409844
9.1600e-08,0.155284,0.0745688,-0.0409375
9.2000e-08,0.155259,0.0744828,-0.0411719
9.2400e-08,0.1551,0.0744469,-0.0410312
9.2800e-08,0.154859,0.0743703,-0.0413281
9.3200e-08,0.154997,0.0743797,-0.0405781
9.3600e-08,0.154866,0.0743156,-0.0410156
9.4000e-08,0.154531,0.0742813,-0.0410156

