data/sno+/CASB-N120/tek0022ALL.csv

Model,MSO4034B
Firmware Version,2.52

Waveform Type,ANALOG,,
Point Format,Y,,
Horizontal Units,s,,
Horizontal Scale,2e-08,,
Horizontal Delay,9.3157e-07,,
Sample Interval,4e-10,,
Record Length,10000,,
Gating,25.3700% to 30.3700%,,
Probe Attenuation,1,,
Vertical Units,V,,
Vertical Offset,0,,
Vertical Scale,0.01,,
Vertical Position,-1.9,,
,,,
,,,
,,,
Label,,,
TIME,CH1,CH3,CH4
-5.3630e-08,0.000596875,0.000290625,0.00035
-5.3230e-08,0.000642187,0.000178125,0.000379687
-5.2830e-08,0.0009,0.000110938,0.000451562
-5.2430e-08,0.00107187,0.000223438,0.000384375
-5.2030e-08,0.00115156,0.000360938,0.000254687
-5.1630e-08,0.00102187,0.000453125,9.375e-05
-5.1230e-08,0.000928125,0.00036875,6.09375e-05
-5.0830e-08,0.000910938,0.0002375,4.53125e-05
-5.0430e-08,0.00071875,0.000198438,0.000221875
-5.0030e-08,0.000759375,0.000103125,0.000315625
-4.9630e-08,0.000782812,0.000228125,0.000221875
-4.9230e-08,0.000825,0.000195312,5.625e-05
-4.8830e-08,0.00084375,0.000246875,-4.21875e-05
-4.8430e-08,0.000782812,0.000304688,-0.000198437
-4.8030e-08,0.000703125,0.000310938,-0.000279688
-4.7630e-08,0.000548437,0.000278125,-0.0001375
-4.7230e-08,0.00045,0.000115625,-5.46875e-05
-4.6830e-08,0.00030625,-1.5625e-06,3.125e-06
-4.6430e-08,0.000398437,-0.000123437,7.34375e-05
-4.6030e-08,0.000551562,-0.0001625,0.000170312
-4.5630e-08,0.000689062,-3.59375e-05,0.00023125
-4.5230e-08,0.000725,0.000164063,7.8125e-05
-4.4830e-08,0.000626562,0.000321875,-5.3125e-05
-4.4430e-08,0.000604687,0.000401563,-0.0002625
-4.4030e-08,0.000685937,0.00034375,-0.00028125
-4.3630e-08,0.000829687,0.000282812,-8.125e-05
-4.3230e-08,0.00101406,0.000240625,0.000278125
-4.2830e-08,0.001075,0.0003375,0.000571875
-4.2430e-08,0.00107031,0.00039375,0.00065625
-4.2030e-08,0.00108281,0.000365625,0.000579687
-4.1630e-08,0.00100937,0.000295313,0.000278125
-4.1230e-08,0.000970312,0.000159375,-8.28125e-05
-4.0830e-08,0.000973438,0.000126563,-0.000271875
-4.0430e-08,0.0010125,0.0002625,-0.000285937
-4.0030e-08,0.00099375,0.00029375,-0.000126562
-3.9630e-08,0.000834375,0.000265625,0.000104687
-3.9230e-08,0.0006625,0.000271875,0.000364062
-3.8830e-08,0.0007,0.000271875,0.00031875
-3.8430e-08,0.000570312,0.000190625,0.000123438
-3.8030e-08,0.000346875,-1.40625e-05,-0.000290625
-3.7630e-08,0.000226562,-0.000110938,-0.000514063
-3.7230e-08,0.0003,-6.875e-05,-0.000484375
-3.6830e-08,0.000434375,-4.84375e-05,-0.0001875
-3.6430e-08,0.0006,2.8125e-05,0.00014375
-3.6030e-08,0.00073125,0.000189062,0.000507812
-3.5630e-08,0.000764062,0.000371875,0.000660938
-3.5230e-08,0.000754688,0.000473438,0.000407813
-3.4830e-08,0.00075625,0.000320313,0.00015625
-3.4430e-08,0.00071875,0.000273438,3.125e-06
-3.4030e-08,0.00070625,0.000220313,-0.000139063
-3.3630e-08,0.000926562,0.000276563,-9.6875e-05
-3.3230e-08,0.0011,0.0003,0.000109375
-3.2830e-08,0.00105937,0.00041875,0.000334375
-3.2430e-08,0.000896875,0.00041875,0.00058125
-3.2030e-08,0.000829687,0.000370313,0.000639062
-3.1630e-08,0.00081875,0.000278125,0.000365625
-3.1230e-08,0.000823437,0.000123437,5e-05
-3.0830e-08,0.000746875,0.000114063,-0.0002875
-3.0430e-08,0.000628125,0.000185938,-0.000423438
-3.0030e-08,0.000584375,0.00010625,-0.000395313
-2.9630e-08,0.000573437,0.00015625,-0.000323437
-2.9230e-08,0.000523437,0.00024375,-0.000125
-2.8830e-08,0.000267187,0.000309375,0.000135937
-2.8430e-08,4.53125e-05,0.000242187,0.000257812
-2.8030e-08,-4.53125e-05,6.09375e-05,9.84375e-05
-2.7630e-08,7.1875e-05,-4.21875e-05,-0.000171875
-2.7230e-08,0.000507812,1.5625e-05,-0.000375
-2.6830e-08,0.00115,0.00010625,-0.00033125
-2.6430e-08,0.00180937,0.0002625,-0.000204688
-2.6030e-08,0.00229219,0.000303125,5.15625e-05
-2.5630e-08,0.00221719,0.00034375,0.000160937
-2.5230e-08,0.00179844,0.000226562,0.000226562
-2.4830e-08,0.00117031,0.000132813,0.000371875
-2.4430e-08,0.000457812,9.375e-05,0.000501563
-2.4030e-08,-0.000126562,0.000170312,0.000453125
-2.3630e-08,-0.000467188,0.000298437,0.00025
-2.3230e-08,-0.000448438,0.00049375,0.000103125
-2.2830e-08,-8.90625e-05,0.000509375,-1.09375e-05
-2.2430e-08,0.000509375,0.0002875,7.8125e-05
-2.2030e-08,0.00111094,0.000173437,-1.5625e-06
-2.1630e-08,0.00161562,0.000159375,5.78125e-05
-2.1230e-08,0.00177187,0.000259375,8.75e-05
-2.0830e-08,0.00162187,0.000190625,0.000173437
-2.0430e-08,0.00125781,0.000223438,0.000189062
-2.0030e-08,0.000925,0.000298437,0.00014375
-1.9630e-08,0.00063125,0.000360938,-1.875e-05
-1.9230e-08,0.000357812,0.000323437,-0.000210938
-1.8830e-08,0.000151562,0.000101562,-0.000360938
-1.8430e-08,0.000189062,-9.53125e-05,-0.000407813
-1.8030e-08,0.000228125,-0.000132813,-0.000307813
-1.7630e-08,0.00031875,-0.000145313,-0.000154688
-1.7230e-08,0.000503125,-2.1875e-05,7.5e-05
-1.6830e-08,0.000532813,0.000195312,0.00011875
-1.6430e-08,0.000532813,0.000354688,0.000279688
-1.6030e-08,0.000445312,0.000378125,0.000326562
-1.5630e-08,0.0004375,0.000346875,0.000157812
-1.5230e-08,0.00065,0.000248437,0.000209375
-1.4830e-08,0.000910938,0.000179688,0.000254687
-1.4430e-08,0.00117812,0.000229687,0.000221875
-1.4030e-08,0.00141094,0.000278125,0.000332812
-1.3630e-08,0.00150781,0.00035625,0.000504687
-1.3230e-08,0.00158125,0.00035625,0.00046875
-1.2830e-08,0.00147187,0.000339063,0.000315625
-1.2430e-08,0.00127812,0.0002875,0.000189062
-1.2030e-08,0.000870312,0.000315625,5.3125e-05
-1.1630e-08,0.000632812,0.000290625,-0.000159375
-1.1230e-08,0.00035,0.00028125,-0.000196875
-1.0830e-08,0.000120312,0.00014375,-0.000176563
-1.0430e-08,1.5625e-05,0.000114063,-7.34375e-05
-1.0030e-08,9.375e-05,2.5e-05,7.65625e-05
-9.6300e-09,0.000285937,-1.5625e-06,0.000151563
-9.2300e-09,0.000473437,-0.000159375,0.000135937
-8.8300e-09,0.000728125,-0.00034375,9.84375e-05
-8.4300e-09,0.000775,-0.00031875,-0.000175
-8.0300e-09,0.000707812,-1.40625e-05,-0.000296875
-7.6300e-09,0.000595313,0.000395312,-0.000278125
-7.2300e-09,0.000526562,0.0008,-0.00015
-6.8300e-09,0.000346875,0.00100781,6.25e-05
-6.4300e-09,0.000235937,0.000942188,0.000259375
-6.0300e-09,0.000367187,0.000698438,0.000315625
-5.6300e-09,0.000428125,0.0004125,0.00028125
-5.2300e-09,0.000657812,0.000210937,0.00010625
-4.8300e-09,0.000778125,0.000125,-6.875e-05
-4.4300e-09,0.0009125,4.6875e-05,-0.000275
-4.0300e-09,0.000984375,-2.03125e-05,-0.000217188
-3.6300e-09,0.00106562,-5.15625e-05,3.90625e-05
-3.2300e-09,0.00107031,0.000121875,0.000385937
-2.8300e-09,0.000879688,0.000396875,0.000696875
-2.4300e-09,0.000721875,0.000514062,0.000698437
-2.0300e-09,0.0007875,0.000539063,0.000370313
-1.6300e-09,0.00146875,0.000303125,-0.000178125
-1.2300e-09,0.00400156,0.000114063,-0.000525
-8.3000e-10,0.00883281,-0.000115625,-0.000654688
-4.3000e-10,0.0163687,-0.000223438,-0.000442187
-3.0000e-11,0.0261328,-0.00018125,-0.0001625
3.7000e-10,0.0370859,-0.000165625,0.000135937
7.7000e-10,0.0472547,-8.125e-05,0.000298437
1.1700e-09,0.0551578,0.000121875,0.000295312
1.5700e-09,0.0595734,0.000289063,0.000296875
1.9700e-09,0.0599172,0.000457813,0.000373438
2.3700e-09,0.0565766,0.000401563,0.000465625
2.7700e-09,0.0502828,0.000251563,0.000585937
3.1700e-09,0.042725,-3.90625e-05,0.000604687
3.5700e-09,0.0351406,-0.00019375,0.000490625
3.9700e-09,0.0287016,-0.000185938,0.000209375
4.3700e-09,0.0244453,1.25e-05,-0.000101562
4.7700e-09,0.0225719,0.000270313,-0.000398438
5.1700e-09,0.0232922,0.0003625,-0.000539062
5.5700e-09,0.0262766,0.000460938,-0.000620313
5.9700e-09,0.0311953,0.000473438,-0.00029375
6.3700e-09,0.0368891,0.000521875,-1.875e-05
6.7700e-09,0.0426312,0.000617188,0.000270312
7.1700e-09,0.0469703,0.000628125,0.000285937
7.5700e-09,0.049625,0.000582812,0.000196875
7.9700e-09,0.05005,0.000459375,4.84375e-05
8.3700e-09,0.0483109,0.000217188,-5.625e-05
8.7700e-09,0.0449625,3.28125e-05,-0.000123438
9.1700e-09,0.0408203,-9.84375e-05,-0.000154688
9.5700e-09,0.0366453,-0.000198437,-0.000254687
9.9700e-09,0.0333766,-5e-05,-0.00025625
1.0370e-08,0.0314016,0.0001375,-0.000325
1.0770e-08,0.0306656,0.000375,-0.000348437
1.1170e-08,0.0311766,0.000520313,-0.000264063
1.1570e-08,0.03255,0.000601562,-0.000159375
1.1970e-08,0.0344672,0.000509375,-4.21875e-05
1.2370e-08,0.0364016,0.0003375,-8.125e-05
1.2770e-08,0.0380937,0.000120312,3.75e-05
1.3170e-08,0.0389437,8.75e-05,0.000123438
1.3570e-08,0.0392094,0.000145313,0.000232812
1.3970e-08,0.0387313,0.000301562,0.000465625
1.4370e-08,0.0377453,0.00030625,0.000682812
1.4770e-08,0.0365188,2.65625e-05,0.00089375
1.5170e-08,0.0355297,-0.000364062,0.000804687
1.5570e-08,0.0349297,-0.000717188,0.000509375
1.5970e-08,0.0347906,-0.000728125,7.96875e-05
1.6370e-08,0.0351984,-0.000739063,-0.000304688
1.6770e-08,0.0357937,-0.000610938,-0.000542187
1.7170e-08,0.0365469,-0.00059375,-0.000690625
1.7570e-08,0.0371469,-0.000659375,-0.000653125
1.7970e-08,0.0375672,-0.000704688,-0.000346875
1.8370e-08,0.0374922,-0.0007625,9.84375e-05
1.8770e-08,0.0374672,-0.000826562,0.00061875
1.9170e-08,0.0372281,-0.000592187,0.000757812
1.9570e-08,0.0370984,-0.000478125,0.000690625
1.9970e-08,0.0369328,-0.000189063,0.000357812
2.0370e-08,0.0369453,-1.5625e-06,6.25e-05
2.0770e-08,0.0368828,-1.40625e-05,-0.0002
2.1170e-08,0.0367938,-0.000229687,-0.000315625
2.1570e-08,0.0365922,-0.000370313,-0.0004625
2.1970e-08,0.0365328,-0.000579688,-0.000342188
2.2370e-08,0.0364422,-0.000446875,-0.000135938
2.2770e-08,0.0364047,-0.000164063,0.000164062
2.3170e-08,0.0363703,0.000709375,0.000323437
2.3570e-08,0.0361734,0.00247656,0.000315625
2.3970e-08,0.0359984,0.00517031,9.84375e-05
2.4370e-08,0.0359922,0.008625,-2.65625e-05
2.4770e-08,0.0361438,0.0129109,-0.000185938
2.5170e-08,0.0363813,0.0176812,-0.000182813
2.5570e-08,0.036775,0.0227625,-0.000148438
2.5970e-08,0.0372688,0.0274234,0.000214063
2.6370e-08,0.0375172,0.0313422,0.000854687
2.6770e-08,0.0377094,0.0343203,0.00215781
2.7170e-08,0.0377203,0.0360594,0.00445312
2.7570e-08,0.0375531,0.0364703,0.00804062
2.7970e-08,0.0373453,0.0358297,0.0130906
2.8370e-08,0.0372297,0.0342516,0.0195078
2.8770e-08,0.0371094,0.0322703,0.0266297
2.9170e-08,0.0371,0.0304891,0.0334
2.9570e-08,0.0371828,0.0292781,0.0389906
2.9970e-08,0.0373156,0.0288969,0.0425
3.0370e-08,0.0373047,0.0293828,0.0436281
3.0770e-08,0.0372875,0.0304141,0.0423094
3.1170e-08,0.0371781,0.0317484,0.0392078
3.1570e-08,0.0372469,0.0331797,0.0352578
3.1970e-08,0.0374359,0.0345922,0.0313016
3.2370e-08,0.0376203,0.0358109,0.0280375
3.2770e-08,0.0376906,0.0365609,0.0257344
3.3170e-08,0.0378172,0.0367359,0.0246109
3.3570e-08,0.0377766,0.0363156,0.0244797
3.3970e-08,0.0377219,0.0355688,0.0254547
3.4370e-08,0.0375078,0.0345219,0.0274
3.4770e-08,0.0372953,0.0335328,0.0301688
3.5170e-08,0.0368609,0.0327969,0.0334969
3.5570e-08,0.0364391,0.0322797,0.036575
3.5970e-08,0.0358187,0.0320703,0.0387562
3.6370e-08,0.0352219,0.0321797,0.0396922
3.6770e-08,0.0344563,0.0323969,0.0391953
3.7170e-08,0.0336578,0.0326031,0.03755
3.7570e-08,0.0326,0.0328813,0.0351938
3.7970e-08,0.0317828,0.0329,0.0324172
3.8370e-08,0.0314406,0.0329531,0.0300469
3.8770e-08,0.031725,0.0329781,0.0286703
3.9170e-08,0.0327875,0.033175,0.0285766
3.9570e-08,0.0341672,0.03335,0.0295484
3.9970e-08,0.0358844,0.0334891,0.0312344
4.0370e-08,0.0375266,0.0334859,0.0332531
4.0770e-08,0.0389234,0.0333828,0.0349391
4.1170e-08,0.0399375,0.0332328,0.0360375
4.1570e-08,0.0403844,0.0332031,0.036425
4.1970e-08,0.0403047,0.0332141,0.0360094
4.2370e-08,0.0397906,0.0332609,0.0348813
4.2770e-08,0.0386703,0.0332594,0.0334781
4.3170e-08,0.0375094,0.0332219,0.0319719
4.3570e-08,0.0364453,0.033,0.0306203
4.3970e-08,0.0354641,0.0329578,0.0298156
4.4370e-08,0.0349156,0.0329594,0.02945
4.4770e-08,0.0347844,0.0331875,0.0294578
4.5170e-08,0.0349453,0.0332344,0.029625
4.5570e-08,0.0355203,0.0333734,0.0296656
4.5970e-08,0.0363984,0.0335094,0.0299188
4.6370e-08,0.0372641,0.0336875,0.0308219
4.6770e-08,0.0380516,0.033675,0.0322609
4.7170e-08,0.0384984,0.033475,0.0337641
4.7570e-08,0.0387375,0.0332641,0.03485
4.7970e-08,0.0387359,0.0331156,0.0353188
4.8370e-08,0.0384625,0.0331141,0.0351984
4.8770e-08,0.0379953,0.0332844,0.0348172
4.9170e-08,0.0375016,0.0335109,0.0347672
4.9570e-08,0.0370812,0.0338281,0.0354609
4.9970e-08,0.0367141,0.0342531,0.0369937
5.0370e-08,0.0365422,0.0345047,0.0394437
5.0770e-08,0.0366484,0.0346438,0.0427063
5.1170e-08,0.0369906,0.0345094,0.0464516
5.1570e-08,0.0372281,0.0338047,0.0501687
5.1970e-08,0.0374297,0.0322422,0.05365
5.2370e-08,0.0375156,0.0296578,0.0566656
5.2770e-08,0.0374797,0.0261859,0.0591297
5.3170e-08,0.0374984,0.0221797,0.0607406
5.3570e-08,0.0373797,0.0180391,0.0614125
5.3970e-08,0.0372375,0.0141734,0.0610859
5.4370e-08,0.0370984,0.0108813,0.0598906
5.4770e-08,0.0368656,0.00835312,0.0583609
5.5170e-08,0.0367984,0.006675,0.0570172
5.5570e-08,0.0367734,0.005925,0.0563984
5.5970e-08,0.0368125,0.00571563,0.056725
5.6370e-08,0.0368266,0.00604219,0.0581422
5.6770e-08,0.0369375,0.0065,0.0598609
5.7170e-08,0.0369453,0.00699844,0.0614609
5.7570e-08,0.0371453,0.0073625,0.0624938
5.7970e-08,0.0373625,0.00741406,0.0630125
5.8370e-08,0.0375188,0.00697188,0.0630688
5.8770e-08,0.0376797,0.00624688,0.0630578
5.9170e-08,0.0377609,0.00513594,0.0628375
5.9570e-08,0.0378219,0.00381094,0.0627063
5.9970e-08,0.0379687,0.00253281,0.0625891
6.0370e-08,0.0380453,0.00164063,0.0624453
6.0770e-08,0.0382125,0.00117969,0.0622531
6.1170e-08,0.0381875,0.00118438,0.0620891
6.1570e-08,0.0380156,0.00128437,0.0617016
6.1970e-08,0.0378094,0.00150156,0.0612859
6.2370e-08,0.0375609,0.00172656,0.0612063
6.2770e-08,0.0372859,0.00196875,0.0612969
6.3170e-08,0.0370766,0.00224531,0.0616563
6.3570e-08,0.0368422,0.00256719,0.0621734
6.3970e-08,0.0367609,0.00262344,0.0625922
6.4370e-08,0.0366812,0.00259688,0.0629203
6.4770e-08,0.0368094,0.00230625,0.0628797
6.5170e-08,0.0369312,0.00205625,0.0623891
6.5570e-08,0.0369375,0.00169688,0.0614594
6.5970e-08,0.0370656,0.00142187,0.0601188
6.6370e-08,0.0371187,0.00110469,0.0586891
6.6770e-08,0.0372359,0.0009875,0.0576453
6.7170e-08,0.0373125,0.000928125,0.0573828
6.7570e-08,0.0373234,0.000992188,0.0579359
6.7970e-08,0.0373453,0.00126875,0.0591406
6.8370e-08,0.0374188,0.00153438,0.0605219
6.8770e-08,0.037425,0.00156719,0.0616938
6.9170e-08,0.0375687,0.00148438,0.0626234
6.9570e-08,0.03765,0.0013875,0.0633438
6.9970e-08,0.0377484,0.00140469,0.0640453
7.0370e-08,0.0377609,0.00145312,0.0647141
7.0770e-08,0.0377922,0.00151875,0.06495
7.1170e-08,0.0377641,0.00157344,0.0646797
7.1570e-08,0.0377141,0.00139531,0.0637906
7.1970e-08,0.0376531,0.00124062,0.0623812
7.2370e-08,0.0375828,0.00107344,0.0609937
7.2770e-08,0.0375109,0.00101094,0.0600344
7.3170e-08,0.0375188,0.00104063,0.0599203
7.3570e-08,0.0375109,0.00100625,0.0605219
7.3970e-08,0.0375438,0.0010625,0.0613891
7.4370e-08,0.0374469,0.001125,0.0621984
7.4770e-08,0.0372734,0.00119219,0.0625969
7.5170e-08,0.0371313,0.00108438,0.0628609
7.5570e-08,0.0369047,0.000925,0.0629234
7.5970e-08,0.0367766,0.000732813,0.0630453
7.6370e-08,0.0366781,0.000645313,0.0629766
7.6770e-08,0.0366,0.000657812,0.0628313
7.7170e-08,0.0365375,0.000723438,0.0619828
7.7570e-08,0.0363656,0.000925,0.060425
7.7970e-08,0.0363187,0.0009875,0.0583094
7.8370e-08,0.0363141,0.000998437,0.0557875
7.8770e-08,0.0364578,0.00101094,0.0529813
7.9170e-08,0.0369437,0.000960937,0.0505516
7.9570e-08,0.0372672,0.00102969,0.0483391
7.9970e-08,0.0375109,0.00119688,0.0464
8.0370e-08,0.0377547,0.00128437,0.0447094
8.0770e-08,0.0376922,0.00130469,0.0428672
8.1170e-08,0.0375953,0.00119063,0.0411781
8.1570e-08,0.0374469,0.00101406,0.0397953
8.1970e-08,0.0372547,0.000857813,0.0391688
8.2370e-08,0.0371063,0.000796875,0.0394656
8.2770e-08,0.0369125,0.000773438,0.0403016
8.3170e-08,0.036725,0.000742188,0.0410078
8.3570e-08,0.0366625,0.000742188,0.0409891
8.3970e-08,0.0365391,0.000685938,0.0399781
8.4370e-08,0.0364016,0.00070625,0.0383859
8.4770e-08,0.0363094,0.000690625,0.0365734
8.5170e-08,0.0362859,0.00061875,0.0352172
8.5570e-08,0.036475,0.000635938,0.0344344
8.5970e-08,0.0366203,0.000551562,0.0343016
8.6370e-08,0.0367969,0.000635938,0.0346734
8.6770e-08,0.0369078,0.000782813,0.0351234
8.7170e-08,0.0369562,0.000964063,0.0354281
8.7570e-08,0.03695,0.00106406,0.0353875
8.7970e-08,0.0369125,0.00101563,0.0351906
8.8370e-08,0.0371516,0.000895313,0.0347891
8.8770e-08,0.0372641,0.00080625,0.0345094
8.9170e-08,0.0375594,0.000873438,0.0345172
8.9570e-08,0.0379063,0.000876563,0.0346531
8.9970e-08,0.0383547,0.0009125,0.0346781
9.0370e-08,0.0388203,0.00078125,0.0344578
9.0770e-08,0.0390313,0.000692187,0.0337891
9.1170e-08,0.0381375,0.000632813,0.0329484
9.1570e-08,0.03545,0.000723438,0.0320703
9.1970e-08,0.0303016,0.00069375,0.0313641
9.2370e-08,0.0230422,0.00073125,0.0309594
9.2770e-08,0.0144547,0.000773438,0.0310062
9.3170e-08,0.00554062,0.0007375,0.0314047
9.3570e-08,-0.0024625,0.000740625,0.0319719
9.3970e-08,-0.0084125,0.000540625,0.032525
9.4370e-08,-0.0114672,0.000289063,0.0328453
9.4770e-08,-0.0114688,-3.90625e-05,0.0329359
9.5170e-08,-0.00871406,-0.00028125,0.0328625
9.5570e-08,-0.00386406,-0.000495312,0.032625
9.5970e-08,0.00224844,-0.000621875,0.0325391
9.6370e-08,0.00811719,-0.000678125,0.0324266
9.6770e-08,0.0128578,-0.000789062,0.0323578
9.7170e-08,0.0154859,-0.00110469,0.0324
9.7570e-08,0.0157953,-0.00135156,0.0324094
9.7970e-08,0.0137875,-0.00154531,0.0323875
9.8370e-08,0.0101469,-0.00139375,0.0324109
9.8770e-08,0.00540156,-0.000954688,0.0322984
9.9170e-08,0.000482812,-0.000348438,0.0322594
9.9570e-08,-0.00359063,0.00011875,0.0320547
9.9970e-08,-0.00624375,0.000476563,0.0318391
1.0037e-07,-0.0071125,0.000679688,0.0317422
1.0077e-07,-0.00644375,0.000848438,0.0318609
1.0117e-07,-0.00467656,0.0010375,0.0321016
1.0157e-07,-0.00218594,0.000945313,0.0324859
1.0197e-07,0.000292187,0.000898438,0.0328672
1.0237e-07,0.00243125,0.000746875,0.0328797
1.0277e-07,0.00385,0.000478125,0.0324109
1.0317e-07,0.00439687,0.000314062,0.0316781
1.0357e-07,0.00408281,0.000120312,0.031025
1.0397e-07,0.00333125,-2.8125e-05,0.0306516
1.0437e-07,0.0024125,-0.000151563,0.0308656
1.0477e-07,0.00147031,-3.75e-05,0.0314078
1.0517e-07,0.00088125,0.000171875,0.0322219
1.0557e-07,0.000492187,0.0004,0.0327531
1.0597e-07,0.000379687,0.000692187,0.0329266
1.0637e-07,0.000467187,0.000915625,0.0327078
1.0677e-07,0.000820312,0.00100313,0.0319703
1.0717e-07,0.00126406,0.000975,0.0313094
1.0757e-07,0.00172812,0.00090625,0.0308844
1.0797e-07,0.00204219,0.000895313,0.0309203
1.0837e-07,0.00207187,0.000903125,0.0312172
1.0877e-07,0.00197656,0.000871875,0.0316641
1.0917e-07,0.00165625,0.000842188,0.0320062
1.0957e-07,0.0012875,0.000723438,0.0321906
1.0997e-07,0.00111406,0.000654687,0.0322687
1.1037e-07,0.000928125,0.0006875,0.0321203
1.1077e-07,0.000753125,0.0007625,0.0316219
1.1117e-07,0.000515625,0.000834375,0.0309125
1.1157e-07,0.00033125,0.000871875,0.0302078
1.1197e-07,0.000195312,0.000829688,0.0301
1.1237e-07,-5.46875e-05,0.000742188,0.0302891
1.1277e-07,-9.6875e-05,0.000484375,0.0307047
1.1317e-07,-0.000123438,0.000335938,0.0312719
1.1357e-07,9.375e-06,0.00011875,0.0317844
1.1397e-07,0.000228125,-2.5e-05,0.0318844
1.1437e-07,0.000504687,6.25e-05,0.0315391
1.1477e-07,0.000764062,0.000198438,0.0308078
1.1517e-07,0.001125,0.000446875,0.0301594
1.1557e-07,0.00126719,0.00071875,0.0298172
1.1597e-07,0.00131875,0.000859375,0.0299813
1.1637e-07,0.00137187,0.000784375,0.0306844
1.1677e-07,0.00135937,0.000598438,0.0314813
1.1717e-07,0.00132969,0.000521875,0.0320469
1.1757e-07,0.00120937,0.00053125,0.0322703
1.1797e-07,0.00105625,0.000553125,0.0320563
1.1837e-07,0.000860937,0.000529687,0.0316266
1.1877e-07,0.000592187,0.00044375,0.0312656
1.1917e-07,0.00049375,0.00025,0.0306703
1.1957e-07,0.000476562,0.000254688,0.0296531
1.1997e-07,0.000510937,0.00038125,0.0276969
1.2037e-07,0.0003625,0.000554688,0.0243156
1.2077e-07,0.000229687,0.00069375,0.0194875
1.2117e-07,0.000146875,0.000770313,0.0135625
1.2157e-07,-4.0625e-05,0.00074375,0.00708906
1.2197e-07,-0.000346875,0.000715625,0.00117187
1.2237e-07,-0.000345313,0.00066875,-0.00338906
1.2277e-07,-0.000407813,0.000565625,-0.00600156
1.2317e-07,-0.000215625,0.000534375,-0.00670156
1.2357e-07,-8.4375e-05,0.000626563,-0.00551875
1.2397e-07,8.28125e-05,0.000832813,-0.00309375
1.2437e-07,0.00015625,0.00126875,4.84375e-05
1.2477e-07,0.000303125,0.001875,0.0032375
