casb2/risetimes/fft/tek0003CH1.csv

Model,MSO4034B
Firmware Version,2.52

Waveform Type,ANALOG
Point Format,Y
Horizontal Units,s
Horizontal Scale,2e-08
Horizontal Delay,2.76e-08
Sample Interval,4e-10
Record Length,10000
Gating,47.4900% to 52.500%
Probe Attenuation,1
Vertical Units,V
Vertical Offset,0.053
Vertical Scale,0.01
Vertical Position,-0.06
,
,
,
Label,
TIME,CH1
-7.2800e-08,0.0668
-7.2400e-08,0.066
-7.2000e-08,0.0652
-7.1600e-08,0.0644
-7.1200e-08,0.0648
-7.0800e-08,0.0652
-7.0400e-08,0.0652
-7.0000e-08,0.0652
-6.9600e-08,0.0656
-6.9200e-08,0.0656
-6.8800e-08,0.0656
-6.8400e-08,0.0656
-6.8000e-08,0.0652
-6.7600e-08,0.0648
-6.7200e-08,0.0648
-6.6800e-08,0.0656
-6.6400e-08,0.066
-6.6000e-08,0.0656
-6.5600e-08,0.0652
-6.5200e-08,0.0648
-6.4800e-08,0.0644
-6.4400e-08,0.0648
-6.4000e-08,0.0648
-6.3600e-08,0.0656
-6.3200e-08,0.0656
-6.2800e-08,0.066
-6.2400e-08,0.066
-6.2000e-08,0.066
-6.1600e-08,0.0656
-6.1200e-08,0.0632
-6.0800e-08,0.0636
-6.0400e-08,0.0656
-6.0000e-08,0.068
-5.9600e-08,0.068
-5.9200e-08,0.0656
-5.8800e-08,0.0636
-5.8400e-08,0.0628
-5.8000e-08,0.064
-5.7600e-08,0.066
-5.7200e-08,0.0672
-5.6800e-08,0.0676
-5.6400e-08,0.066
-5.6000e-08,0.064
-5.5600e-08,0.0632
-5.5200e-08,0.0628
-5.4800e-08,0.0636
-5.4400e-08,0.0656
-5.4000e-08,0.0684
-5.3600e-08,0.0696
-5.3200e-08,0.0696
-5.2800e-08,0.068
-5.2400e-08,0.0656
-5.2000e-08,0.0636
-5.1600e-08,0.0636
-5.1200e-08,0.0632
-5.0800e-08,0.0636
-5.0400e-08,0.0644
-5.0000e-08,0.0656
-4.9600e-08,0.0668
-4.9200e-08,0.066
-4.8800e-08,0.066
-4.8400e-08,0.0648
-4.8000e-08,0.0636
-4.7600e-08,0.0644
-4.7200e-08,0.0644
-4.6800e-08,0.0648
-4.6400e-08,0.0648
-4.6000e-08,0.0652
-4.5600e-08,0.0656
-4.5200e-08,0.0668
-4.4800e-08,0.066
-4.4400e-08,0.0652
-4.4000e-08,0.0652
-4.3600e-08,0.0648
-4.3200e-08,0.0652
-4.2800e-08,0.0652
-4.2400e-08,0.0652
-4.2000e-08,0.0644
-4.1600e-08,0.064
-4.1200e-08,0.064
-4.0800e-08,0.0644
-4.0400e-08,0.0656
-4.0000e-08,0.0664
-3.9600e-08,0.0664
-3.9200e-08,0.0664
-3.8800e-08,0.066
-3.8400e-08,0.0652
-3.8000e-08,0.0652
-3.7600e-08,0.0652
-3.7200e-08,0.0648
-3.6800e-08,0.0648
-3.6400e-08,0.0656
-3.6000e-08,0.066
-3.5600e-08,0.0652
-3.5200e-08,0.0648
-3.4800e-08,0.0648
-3.4400e-08,0.0648
-3.4000e-08,0.0652
-3.3600e-08,0.0652
-3.3200e-08,0.0648
-3.2800e-08,0.0652
-3.2400e-08,0.0644
-3.2000e-08,0.0636
-3.1600e-08,0.0636
-3.1200e-08,0.0636
-3.0800e-08,0.0636
-3.0400e-08,0.0644
-3.0000e-08,0.0652
-2.9600e-08,0.0664
-2.9200e-08,0.0664
-2.8800e-08,0.0668
-2.8400e-08,0.0656
-2.8000e-08,0.0652
-2.7600e-08,0.0648
-2.7200e-08,0.064
-2.6800e-08,0.064
-2.6400e-08,0.0644
-2.6000e-08,0.064
-2.5600e-08,0.0652
-2.5200e-08,0.0656
-2.4800e-08,0.0668
-2.4400e-08,0.0668
-2.4000e-08,0.0664
-2.3600e-08,0.0664
-2.3200e-08,0.0652
-2.2800e-08,0.0652
-2.2400e-08,0.0644
-2.2000e-08,0.0644
-2.1600e-08,0.0644
-2.1200e-08,0.064
-2.0800e-08,0.064
-2.0400e-08,0.0648
-2.0000e-08,0.0664
-1.9600e-08,0.0664
-1.9200e-08,0.066
-1.8800e-08,0.0644
-1.8400e-08,0.064
-1.8000e-08,0.066
-1.7600e-08,0.0676
-1.7200e-08,0.0672
-1.6800e-08,0.0652
-1.6400e-08,0.0632
-1.6000e-08,0.0624
-1.5600e-08,0.0632
-1.5200e-08,0.0636
-1.4800e-08,0.0652
-1.4400e-08,0.0652
-1.4000e-08,0.066
-1.3600e-08,0.0652
-1.3200e-08,0.0648
-1.2800e-08,0.064
-1.2400e-08,0.0632
-1.2000e-08,0.0624
-1.1600e-08,0.062
-1.1200e-08,0.0632
-1.0800e-08,0.0648
-1.0400e-08,0.0668
-1.0000e-08,0.068
-9.6000e-09,0.068
-9.2000e-09,0.0676
-8.8000e-09,0.0668
-8.4000e-09,0.0652
-8.0000e-09,0.0648
-7.6000e-09,0.0636
-7.2000e-09,0.0632
-6.8000e-09,0.0644
-6.4000e-09,0.0652
-6.0000e-09,0.066
-5.6000e-09,0.0668
-5.2000e-09,0.0672
-4.8000e-09,0.066
-4.4000e-09,0.066
-4.0000e-09,0.0644
-3.6000e-09,0.0648
-3.2000e-09,0.0656
-2.8000e-09,0.0656
-2.4000e-09,0.066
-2.0000e-09,0.0656
-1.6000e-09,0.0652
-1.2000e-09,0.0644
-8.0000e-10,0.0648
-4.0000e-10,0.0652
-0.0000e+00,0.0652
4.0000e-10,0.0656
8.0000e-10,0.066
1.2000e-09,0.0648
1.6000e-09,0.0648
2.0000e-09,0.064
2.4000e-09,0.0644
2.8000e-09,0.0652
3.2000e-09,0.066
3.6000e-09,0.066
4.0000e-09,0.0648
4.4000e-09,0.0636
4.8000e-09,0.0636
5.2000e-09,0.0644
5.6000e-09,0.0652
6.0000e-09,0.0664
6.4000e-09,0.0668
6.8000e-09,0.066
7.2000e-09,0.0644
7.6000e-09,0.0636
8.0000e-09,0.0632
8.4000e-09,0.0632
8.8000e-09,0.064
9.2000e-09,0.066
9.6000e-09,0.0664
1.0000e-08,0.0672
1.0400e-08,0.066
1.0800e-08,0.0644
1.1200e-08,0.0632
1.1600e-08,0.062
1.2000e-08,0.0628
1.2400e-08,0.064
1.2800e-08,0.0652
1.3200e-08,0.0656
1.3600e-08,0.066
1.4000e-08,0.066
1.4400e-08,0.0652
1.4800e-08,0.0652
1.5200e-08,0.0644
1.5600e-08,0.064
1.6000e-08,0.0632
1.6400e-08,0.0636
1.6800e-08,0.0636
1.7200e-08,0.0644
1.7600e-08,0.0652
1.8000e-08,0.0656
1.8400e-08,0.0652
1.8800e-08,0.0656
1.9200e-08,0.066
1.9600e-08,0.0656
2.0000e-08,0.0648
2.0400e-08,0.0652
2.0800e-08,0.0656
2.1200e-08,0.0652
2.1600e-08,0.0648
2.2000e-08,0.0636
2.2400e-08,0.064
2.2800e-08,0.066
2.3200e-08,0.0672
2.3600e-08,0.0676
2.4000e-08,0.066
2.4400e-08,0.064
2.4800e-08,0.064
2.5200e-08,0.0648
2.5600e-08,0.0668
2.6000e-08,0.0668
2.6400e-08,0.0668
2.6800e-08,0.066
2.7200e-08,0.0652
2.7600e-08,0.0652
2.8000e-08,0.0648
2.8400e-08,0.0648
2.8800e-08,0.0652
2.9200e-08,0.0672
2.9600e-08,0.068
3.0000e-08,0.0676
3.0400e-08,0.0668
3.0800e-08,0.0652
3.1200e-08,0.0636
3.1600e-08,0.0632
3.2000e-08,0.0632
3.2400e-08,0.0644
3.2800e-08,0.0656
3.3200e-08,0.0668
3.3600e-08,0.0672
3.4000e-08,0.0664
3.4400e-08,0.0652
3.4800e-08,0.0636
3.5200e-08,0.0624
3.5600e-08,0.0632
3.6000e-08,0.064
3.6400e-08,0.0652
3.6800e-08,0.0676
3.7200e-08,0.0676
3.7600e-08,0.0672
3.8000e-08,0.0656
3.8400e-08,0.0644
3.8800e-08,0.0632
3.9200e-08,0.0632
3.9600e-08,0.0636
4.0000e-08,0.0648
4.0400e-08,0.066
4.0800e-08,0.066
4.1200e-08,0.0652
4.1600e-08,0.0648
4.2000e-08,0.0644
4.2400e-08,0.0648
4.2800e-08,0.0656
4.3200e-08,0.0652
4.3600e-08,0.066
4.4000e-08,0.066
4.4400e-08,0.0672
4.4800e-08,0.066
4.5200e-08,0.0652
4.5600e-08,0.0636
4.6000e-08,0.064
4.6400e-08,0.064
4.6800e-08,0.064
4.7200e-08,0.0652
4.7600e-08,0.066
4.8000e-08,0.0668
4.8400e-08,0.0672
4.8800e-08,0.0656
4.9200e-08,0.0648
4.9600e-08,0.0636
5.0000e-08,0.0628
5.0400e-08,0.0628
5.0800e-08,0.0636
5.1200e-08,0.0648
5.1600e-08,0.0656
5.2000e-08,0.0656
5.2400e-08,0.0656
5.2800e-08,0.0656
5.3200e-08,0.0664
5.3600e-08,0.0664
5.4000e-08,0.0652
5.4400e-08,0.0648
5.4800e-08,0.064
5.5200e-08,0.0652
5.5600e-08,0.0652
5.6000e-08,0.0656
5.6400e-08,0.0656
5.6800e-08,0.0664
5.7200e-08,0.0672
5.7600e-08,0.0664
5.8000e-08,0.0656
5.8400e-08,0.0636
5.8800e-08,0.062
5.9200e-08,0.0628
5.9600e-08,0.0644
6.0000e-08,0.0656
6.0400e-08,0.0668
6.0800e-08,0.0668
6.1200e-08,0.0668
6.1600e-08,0.066
6.2000e-08,0.0652
6.2400e-08,0.0644
6.2800e-08,0.0636
6.3200e-08,0.0632
6.3600e-08,0.0644
6.4000e-08,0.0648
6.4400e-08,0.0644
6.4800e-08,0.0648
6.5200e-08,0.0668
6.5600e-08,0.068
6.6000e-08,0.0684
6.6400e-08,0.0672
6.6800e-08,0.0656
6.7200e-08,0.0632
6.7600e-08,0.0628
6.8000e-08,0.0632
6.8400e-08,0.0648
6.8800e-08,0.0652
6.9200e-08,0.066
6.9600e-08,0.0664
7.0000e-08,0.066
7.0400e-08,0.0656
7.0800e-08,0.0644
7.1200e-08,0.0636
7.1600e-08,0.0632
7.2000e-08,0.0624
7.2400e-08,0.0628
7.2800e-08,0.0636
7.3200e-08,0.0656
7.3600e-08,0.0664
7.4000e-08,0.0664
7.4400e-08,0.066
7.4800e-08,0.0652
7.5200e-08,0.0652
7.5600e-08,0.0656
7.6000e-08,0.0664
7.6400e-08,0.0656
7.6800e-08,0.0648
7.7200e-08,0.064
7.7600e-08,0.064
7.8000e-08,0.0652
7.8400e-08,0.0664
7.8800e-08,0.0664
7.9200e-08,0.0652
7.9600e-08,0.0644
8.0000e-08,0.0652
8.0400e-08,0.066
8.0800e-08,0.0664
8.1200e-08,0.0656
8.1600e-08,0.064
8.2000e-08,0.064
8.2400e-08,0.0648
8.2800e-08,0.0652
8.3200e-08,0.0656
8.3600e-08,0.0664
8.4000e-08,0.0668
8.4400e-08,0.0668
8.4800e-08,0.0668
8.5200e-08,0.0656
8.5600e-08,0.064
8.6000e-08,0.062
8.6400e-08,0.0612
8.6800e-08,0.0624
8.7200e-08,0.0652
8.7600e-08,0.0664
8.8000e-08,0.0676
8.8400e-08,0.066
8.8800e-08,0.066
8.9200e-08,0.0652
8.9600e-08,0.0652
9.0000e-08,0.0652
9.0400e-08,0.0644
9.0800e-08,0.0644
9.1200e-08,0.064
9.1600e-08,0.0644
9.2000e-08,0.0648
9.2400e-08,0.0656
9.2800e-08,0.0652
9.3200e-08,0.0652
9.3600e-08,0.0652
9.4000e-08,0.066
9.4400e-08,0.0652
9.4800e-08,0.064
9.5200e-08,0.0636
9.5600e-08,0.0632
9.6000e-08,0.0652
9.6400e-08,0.0664
9.6800e-08,0.0664
9.7200e-08,0.0664
9.7600e-08,0.0656
9.8000e-08,0.0648
9.8400e-08,0.0648
9.8800e-08,0.0652
9.9200e-08,0.0656
9.9600e-08,0.0652
1.0000e-07,0.064
1.0040e-07,0.0636
1.0080e-07,0.0648
1.0120e-07,0.0656
1.0160e-07,0.0664
1.0200e-07,0.0668
1.0240e-07,0.0664
1.0280e-07,0.0668
1.0320e-07,0.066
1.0360e-07,0.066
1.0400e-07,0.0648
1.0440e-07,0.064
1.0480e-07,0.064
1.0520e-07,0.064
1.0560e-07,0.0648
1.0600e-07,0.0668
1.0640e-07,0.0684
1.0680e-07,0.0684
1.0720e-07,0.0664
1.0760e-07,0.0636
1.0800e-07,0.062
1.0840e-07,0.0632
1.0880e-07,0.0644
1.0920e-07,0.066
1.0960e-07,0.066
1.1000e-07,0.0668
1.1040e-07,0.0664
1.1080e-07,0.0656
1.1120e-07,0.0652
1.1160e-07,0.0652
1.1200e-07,0.0652
1.1240e-07,0.066
1.1280e-07,0.066
1.1320e-07,0.0652
1.1360e-07,0.0652
1.1400e-07,0.064
1.1440e-07,0.064
1.1480e-07,0.0644
1.1520e-07,0.0644
1.1560e-07,0.0648
1.1600e-07,0.0656
1.1640e-07,0.066
1.1680e-07,0.0672
1.1720e-07,0.0668
1.1760e-07,0.066
1.1800e-07,0.064
1.1840e-07,0.0628
1.1880e-07,0.064
1.1920e-07,0.0656
1.1960e-07,0.0664
1.2000e-07,0.0668
1.2040e-07,0.0664
1.2080e-07,0.0664
1.2120e-07,0.0664
1.2160e-07,0.0652
1.2200e-07,0.0632
1.2240e-07,0.0612
1.2280e-07,0.0612
1.2320e-07,0.0628
1.2360e-07,0.0652
1.2400e-07,0.0668
1.2440e-07,0.068
1.2480e-07,0.0664
1.2520e-07,0.0656
1.2560e-07,0.064
1.2600e-07,0.064
1.2640e-07,0.0636
1.2680e-07,0.0636
1.2720e-07,0.0632

