casb2/risetimes/fft/tek0000MTH.csv

Model,MSO4034B
Firmware Version,2.52

Waveform Type,ANALOG
Point Format,Y
Horizontal Units,Hz
Horizontal Scale,1.25e+08
Horizontal Delay,6.25e+08
Sample Interval,125000
Record Length,10000
Gating,0.0% to 98.8900%
Probe Attenuation,1
Vertical Units,dB
Vertical Offset,0
Vertical Scale,20
Vertical Position,3
,
,
,
Label,
FREQUENCY,"MATH<FFT(CH1, HANNING, LOGRMS)>"
0.0000e+00,-20.8687
1.2500e+05,-22.375
2.5000e+05,-23.8781
3.7500e+05,-66.4281
5.0000e+05,-108.978
6.2500e+05,-111.222
7.5000e+05,-113.463
8.7500e+05,-121.075
1.0000e+06,-128.688
1.1250e+06,-124.966
1.2500e+06,-121.244
1.3750e+06,-130.725
1.5000e+06,-140.203
1.6250e+06,-131.762
1.7500e+06,-123.322
1.8750e+06,-124.559
2.0000e+06,-125.797
2.1250e+06,-121.763
2.2500e+06,-117.728
2.3750e+06,-117.069
2.5000e+06,-116.406
2.6250e+06,-117.131
2.7500e+06,-117.853
2.8750e+06,-119.769
3.0000e+06,-121.684
3.1250e+06,-119.444
3.2500e+06,-117.2
3.3750e+06,-118.328
3.5000e+06,-119.456
3.6250e+06,-120.234
3.7500e+06,-121.013
3.8750e+06,-119.722
4.0000e+06,-118.431
4.1250e+06,-117.403
4.2500e+06,-116.372
4.3750e+06,-117
4.5000e+06,-117.628
4.6250e+06,-118.416
4.7500e+06,-119.203
4.8750e+06,-117.884
5.0000e+06,-116.562
5.1250e+06,-115.912
5.2500e+06,-115.263
5.3750e+06,-116.359
5.5000e+06,-117.456
5.6250e+06,-117.041
5.7500e+06,-116.622
5.8750e+06,-118.206
6.0000e+06,-119.791
6.1250e+06,-120.562
6.2500e+06,-121.334
6.3750e+06,-120.622
6.5000e+06,-119.906
6.6250e+06,-119.941
6.7500e+06,-119.972
6.8750e+06,-122.228
7.0000e+06,-124.484
7.1250e+06,-125.028
7.2500e+06,-125.572
7.3750e+06,-123.128
7.5000e+06,-120.684
7.6250e+06,-120.028
7.7500e+06,-119.372
7.8750e+06,-119.409
8.0000e+06,-119.447
8.1250e+06,-121.256
8.2500e+06,-123.066
8.3750e+06,-124.241
8.5000e+06,-125.416
8.6250e+06,-123.606
8.7500e+06,-121.794
8.8750e+06,-120.444
9.0000e+06,-119.091
9.1250e+06,-118.838
9.2500e+06,-118.584
9.3750e+06,-120.834
9.5000e+06,-123.081
9.6250e+06,-124.019
9.7500e+06,-124.953
9.8750e+06,-124.509
1.0000e+07,-124.066
1.0125e+07,-125.209
1.0250e+07,-126.353
1.0375e+07,-131.859
1.0500e+07,-137.366
1.0625e+07,-130.275
1.0750e+07,-123.181
1.0875e+07,-122.878
1.1000e+07,-122.572
1.1125e+07,-120.675
1.1250e+07,-118.775
1.1375e+07,-117.469
1.1500e+07,-116.159
1.1625e+07,-112.534
1.1750e+07,-108.906
1.1875e+07,-105.628
1.2000e+07,-102.35
1.2125e+07,-105.981
1.2250e+07,-109.613
1.2375e+07,-114.928
1.2500e+07,-120.244
1.2625e+07,-120.884
1.2750e+07,-121.522
1.2875e+07,-121.272
1.3000e+07,-121.022
1.3125e+07,-120.35
1.3250e+07,-119.678
1.3375e+07,-119.075
1.3500e+07,-118.472
1.3625e+07,-121.309
1.3750e+07,-124.147
1.3875e+07,-123.287
1.4000e+07,-122.428
1.4125e+07,-119.584
1.4250e+07,-116.741
1.4375e+07,-115.356
1.4500e+07,-113.969
1.4625e+07,-114.609
1.4750e+07,-115.25
1.4875e+07,-116.106
1.5000e+07,-116.963
1.5125e+07,-117.334
1.5250e+07,-117.706
1.5375e+07,-118.034
1.5500e+07,-118.363
1.5625e+07,-118.438
1.5750e+07,-118.509
1.5875e+07,-120.744
1.6000e+07,-122.978
1.6125e+07,-125.3
1.6250e+07,-127.619
1.6375e+07,-124.494
1.6500e+07,-121.366
1.6625e+07,-120.263
1.6750e+07,-119.159
1.6875e+07,-119.5
1.7000e+07,-119.841
1.7125e+07,-120.384
1.7250e+07,-120.925
1.7375e+07,-122.478
1.7500e+07,-124.028
1.7625e+07,-123.616
1.7750e+07,-123.203
1.7875e+07,-127.325
1.8000e+07,-131.447
1.8125e+07,-128.594
1.8250e+07,-125.737
1.8375e+07,-122.581
1.8500e+07,-119.425
1.8625e+07,-119.566
1.8750e+07,-119.706
1.8875e+07,-119.741
1.9000e+07,-119.772
1.9125e+07,-118.509
1.9250e+07,-117.244
1.9375e+07,-117.159
1.9500e+07,-117.072
1.9625e+07,-119.638
1.9750e+07,-122.203
1.9875e+07,-124.481
2.0000e+07,-126.759
2.0125e+07,-124.362
2.0250e+07,-121.966
2.0375e+07,-121.378
2.0500e+07,-120.787
2.0625e+07,-121.297
2.0750e+07,-121.803
2.0875e+07,-120.906
2.1000e+07,-120.009
2.1125e+07,-120.094
2.1250e+07,-120.175
2.1375e+07,-122.256
2.1500e+07,-124.338
2.1625e+07,-133.003
2.1750e+07,-141.666
2.1875e+07,-137.784
2.2000e+07,-133.9
2.2125e+07,-132.441
2.2250e+07,-130.978
2.2375e+07,-125.925
2.2500e+07,-120.869
2.2625e+07,-119.744
2.2750e+07,-118.619
2.2875e+07,-123.447
2.3000e+07,-128.275
2.3125e+07,-128.584
2.3250e+07,-128.891
2.3375e+07,-130.609
2.3500e+07,-132.325
2.3625e+07,-123.866
2.3750e+07,-115.403
2.3875e+07,-114.403
2.4000e+07,-113.4
2.4125e+07,-116.941
2.4250e+07,-120.481
2.4375e+07,-122.275
2.4500e+07,-124.069
2.4625e+07,-122.122
2.4750e+07,-120.172
2.4875e+07,-120.319
2.5000e+07,-120.466
2.5125e+07,-122.009
2.5250e+07,-123.55
2.5375e+07,-122.853
2.5500e+07,-122.156
2.5625e+07,-121.666
2.5750e+07,-121.172
2.5875e+07,-120.916
2.6000e+07,-120.656
2.6125e+07,-121.581
2.6250e+07,-122.506
2.6375e+07,-121.853
2.6500e+07,-121.2
2.6625e+07,-121.606
2.6750e+07,-122.013
2.6875e+07,-120.684
2.7000e+07,-119.353
2.7125e+07,-119.634
2.7250e+07,-119.912
2.7375e+07,-119.162
2.7500e+07,-118.412
2.7625e+07,-120.769
2.7750e+07,-123.122
2.7875e+07,-122.025
2.8000e+07,-120.925
2.8125e+07,-122.141
2.8250e+07,-123.356
2.8375e+07,-122.959
2.8500e+07,-122.559
2.8625e+07,-124.031
2.8750e+07,-125.503
2.8875e+07,-123.103
2.9000e+07,-120.703
2.9125e+07,-120.75
2.9250e+07,-120.794
2.9375e+07,-120.453
2.9500e+07,-120.109
2.9625e+07,-120.013
2.9750e+07,-119.916
2.9875e+07,-121.828
3.0000e+07,-123.741
3.0125e+07,-124.831
3.0250e+07,-125.922
3.0375e+07,-123.525
3.0500e+07,-121.125
3.0625e+07,-121.516
3.0750e+07,-121.903
3.0875e+07,-122.472
3.1000e+07,-123.041
3.1125e+07,-122.669
3.1250e+07,-122.297
3.1375e+07,-121.591
3.1500e+07,-120.881
3.1625e+07,-120.666
3.1750e+07,-120.45
3.1875e+07,-120.659
3.2000e+07,-120.869
3.2125e+07,-119.869
3.2250e+07,-118.869
3.2375e+07,-119.766
3.2500e+07,-120.659
3.2625e+07,-123.578
3.2750e+07,-126.497
3.2875e+07,-124.809
3.3000e+07,-123.122
3.3125e+07,-120.822
3.3250e+07,-118.519
3.3375e+07,-117.731
3.3500e+07,-116.944
3.3625e+07,-119.616
3.3750e+07,-122.287
3.3875e+07,-122.722
3.4000e+07,-123.153
3.4125e+07,-120.453
3.4250e+07,-117.753
3.4375e+07,-117.425
3.4500e+07,-117.094
3.4625e+07,-117.744
3.4750e+07,-118.391
3.4875e+07,-119.072
3.5000e+07,-119.753
3.5125e+07,-119.422
3.5250e+07,-119.088
3.5375e+07,-119.119
3.5500e+07,-119.15
3.5625e+07,-114.322
3.5750e+07,-109.491
3.5875e+07,-106.475
3.6000e+07,-103.459
3.6125e+07,-107.912
3.6250e+07,-112.366
3.6375e+07,-114.659
3.6500e+07,-116.95
3.6625e+07,-117.55
3.6750e+07,-118.15
3.6875e+07,-122.409
3.7000e+07,-126.666
3.7125e+07,-124.966
3.7250e+07,-123.266
3.7375e+07,-123.097
3.7500e+07,-122.925
3.7625e+07,-123.994
3.7750e+07,-125.062
3.7875e+07,-123.456
3.8000e+07,-121.85
3.8125e+07,-120.519
3.8250e+07,-119.188
3.8375e+07,-119.497
3.8500e+07,-119.803
3.8625e+07,-120.928
3.8750e+07,-122.053
3.8875e+07,-125.588
3.9000e+07,-129.122
3.9125e+07,-134.203
3.9250e+07,-139.284
3.9375e+07,-134.431
3.9500e+07,-129.575
3.9625e+07,-132.991
3.9750e+07,-136.406
3.9875e+07,-131.269
4.0000e+07,-126.131
4.0125e+07,-123.853
4.0250e+07,-121.572
4.0375e+07,-121.556
4.0500e+07,-121.537
4.0625e+07,-122.891
4.0750e+07,-124.241
4.0875e+07,-123.128
4.1000e+07,-122.013
4.1125e+07,-120.191
4.1250e+07,-118.366
4.1375e+07,-120.981
4.1500e+07,-123.594
4.1625e+07,-125.888
4.1750e+07,-128.181
4.1875e+07,-124.825
4.2000e+07,-121.469
4.2125e+07,-119.794
4.2250e+07,-118.119
4.2375e+07,-117.731
4.2500e+07,-117.341
4.2625e+07,-118.322
4.2750e+07,-119.3
4.2875e+07,-120.094
4.3000e+07,-120.888
4.3125e+07,-120.888
4.3250e+07,-120.884
4.3375e+07,-120.175
4.3500e+07,-119.466
4.3625e+07,-120.675
4.3750e+07,-121.884
4.3875e+07,-124.053
4.4000e+07,-126.219
4.4125e+07,-124.019
4.4250e+07,-121.819
4.4375e+07,-120.434
4.4500e+07,-119.05
4.4625e+07,-120.147
4.4750e+07,-121.241
4.4875e+07,-121.763
4.5000e+07,-122.284
4.5125e+07,-122.284
4.5250e+07,-122.281
4.5375e+07,-122.588
4.5500e+07,-122.891
4.5625e+07,-121.947
4.5750e+07,-121.003
4.5875e+07,-122.1
4.6000e+07,-123.194
4.6125e+07,-124.453
4.6250e+07,-125.709
4.6375e+07,-127.956
4.6500e+07,-130.2
4.6625e+07,-127.184
4.6750e+07,-124.166
4.6875e+07,-120.872
4.7000e+07,-117.578
4.7125e+07,-116.216
4.7250e+07,-114.85
4.7375e+07,-115.778
4.7500e+07,-116.706
4.7625e+07,-111.106
4.7750e+07,-105.506
4.7875e+07,-102.838
4.8000e+07,-100.166
4.8125e+07,-102.816
4.8250e+07,-105.463
4.8375e+07,-113.291
4.8500e+07,-121.116
4.8625e+07,-120
4.8750e+07,-118.884
4.8875e+07,-120.075
4.9000e+07,-121.263
4.9125e+07,-121.491
4.9250e+07,-121.716
4.9375e+07,-120.903
4.9500e+07,-120.088
4.9625e+07,-121.303
4.9750e+07,-122.516
4.9875e+07,-126.072
5.0000e+07,-129.628
5.0125e+07,-124.163
5.0250e+07,-118.694
5.0375e+07,-117.553
5.0500e+07,-116.412
5.0625e+07,-118.131
5.0750e+07,-119.85
5.0875e+07,-119.744
5.1000e+07,-119.638
5.1125e+07,-119.3
5.1250e+07,-118.959
5.1375e+07,-118.584
5.1500e+07,-118.209
5.1625e+07,-119.006
5.1750e+07,-119.8
5.1875e+07,-121.128
5.2000e+07,-122.453
5.2125e+07,-122.691
5.2250e+07,-122.925
5.2375e+07,-122.766
5.2500e+07,-122.606
5.2625e+07,-122.081
5.2750e+07,-121.556
5.2875e+07,-120.662
5.3000e+07,-119.769
5.3125e+07,-119.731
5.3250e+07,-119.694
5.3375e+07,-120.113
5.3500e+07,-120.531
5.3625e+07,-120.341
5.3750e+07,-120.147
5.3875e+07,-121.034
5.4000e+07,-121.922
5.4125e+07,-123.269
5.4250e+07,-124.612
5.4375e+07,-124.634
5.4500e+07,-124.653
5.4625e+07,-123.509
5.4750e+07,-122.363
5.4875e+07,-124.469
5.5000e+07,-126.572
5.5125e+07,-124.406
5.5250e+07,-122.241
5.5375e+07,-121.497
5.5500e+07,-120.753
5.5625e+07,-120.859
5.5750e+07,-120.963
5.5875e+07,-119.425
5.6000e+07,-117.888
5.6125e+07,-117.45
5.6250e+07,-117.013
5.6375e+07,-118.834
5.6500e+07,-120.653
5.6625e+07,-121.9
5.6750e+07,-123.147
5.6875e+07,-123.622
5.7000e+07,-124.094
5.7125e+07,-121.784
5.7250e+07,-119.472
5.7375e+07,-119.966
5.7500e+07,-120.456
5.7625e+07,-125.2
5.7750e+07,-129.941
5.7875e+07,-128.197
5.8000e+07,-126.453
5.8125e+07,-123.784
5.8250e+07,-121.116
5.8375e+07,-123.453
5.8500e+07,-125.788
5.8625e+07,-128.022
5.8750e+07,-130.253
5.8875e+07,-126.3
5.9000e+07,-122.344
5.9125e+07,-122.525
5.9250e+07,-122.703
5.9375e+07,-126.5
5.9500e+07,-130.297
5.9625e+07,-117.459
5.9750e+07,-104.619
5.9875e+07,-101.344
6.0000e+07,-98.0656
6.0125e+07,-100.812
6.0250e+07,-103.556
6.0375e+07,-114.953
6.0500e+07,-126.347
6.0625e+07,-123.375
6.0750e+07,-120.4
6.0875e+07,-124.034
6.1000e+07,-127.669
6.1125e+07,-126.897
6.1250e+07,-126.122
6.1375e+07,-130.647
6.1500e+07,-135.169
6.1625e+07,-128.569
6.1750e+07,-121.969
6.1875e+07,-119.016
6.2000e+07,-116.059
6.2125e+07,-116.503
6.2250e+07,-116.944
6.2375e+07,-118.912
6.2500e+07,-120.881
6.2625e+07,-121.422
6.2750e+07,-121.963
6.2875e+07,-119.662
6.3000e+07,-117.363
6.3125e+07,-116.544
6.3250e+07,-115.722
6.3375e+07,-116.05
6.3500e+07,-116.375
6.3625e+07,-117.125
6.3750e+07,-117.875
6.3875e+07,-118.409
6.4000e+07,-118.944
6.4125e+07,-120.713
6.4250e+07,-122.481
6.4375e+07,-124.253
6.4500e+07,-126.025
6.4625e+07,-130.147
6.4750e+07,-134.269
6.4875e+07,-133.616
6.5000e+07,-132.963
6.5125e+07,-126.419
6.5250e+07,-119.872
6.5375e+07,-117.787
6.5500e+07,-115.7
6.5625e+07,-116.572
6.5750e+07,-117.441
6.5875e+07,-120.062
6.6000e+07,-122.681
6.6125e+07,-122.084
6.6250e+07,-121.488
6.6375e+07,-119.628
6.6500e+07,-117.766
6.6625e+07,-117.694
6.6750e+07,-117.619
6.6875e+07,-118.606
6.7000e+07,-119.594
6.7125e+07,-119.088
6.7250e+07,-118.581
6.7375e+07,-117.4
6.7500e+07,-116.219
6.7625e+07,-116.869
6.7750e+07,-117.516
6.7875e+07,-120.425
6.8000e+07,-123.331
6.8125e+07,-122.378
6.8250e+07,-121.425
6.8375e+07,-119.484
6.8500e+07,-117.544
6.8625e+07,-117.159
6.8750e+07,-116.775
6.8875e+07,-119.412
6.9000e+07,-122.05
6.9125e+07,-124.147
6.9250e+07,-126.241
6.9375e+07,-125.656
6.9500e+07,-125.072
6.9625e+07,-125.356
6.9750e+07,-125.638
6.9875e+07,-124.45
7.0000e+07,-123.259
7.0125e+07,-121.225
7.0250e+07,-119.188
7.0375e+07,-118.916
7.0500e+07,-118.644
7.0625e+07,-120.041
7.0750e+07,-121.438
7.0875e+07,-121.356
7.1000e+07,-121.275
7.1125e+07,-120.822
7.1250e+07,-120.369
7.1375e+07,-119.369
7.1500e+07,-118.369
7.1625e+07,-108.403
7.1750e+07,-98.4344
7.1875e+07,-95.5312
7.2000e+07,-92.6281
7.2125e+07,-95.7
7.2250e+07,-98.7719
7.2375e+07,-112.225
7.2500e+07,-125.675
7.2625e+07,-133.044
7.2750e+07,-140.413
7.2875e+07,-133.266
7.3000e+07,-126.116
7.3125e+07,-124.484
7.3250e+07,-122.85
7.3375e+07,-123.809
7.3500e+07,-124.769
7.3625e+07,-126.2
7.3750e+07,-127.628
7.3875e+07,-128.766
7.4000e+07,-129.9
7.4125e+07,-129.075
7.4250e+07,-128.25
7.4375e+07,-125.144
7.4500e+07,-122.034
7.4625e+07,-121.463
7.4750e+07,-120.891
7.4875e+07,-123.522
7.5000e+07,-126.15
7.5125e+07,-126.375
7.5250e+07,-126.597
7.5375e+07,-123.541
7.5500e+07,-120.484
7.5625e+07,-120.153
7.5750e+07,-119.819
7.5875e+07,-119.028
7.6000e+07,-118.234
7.6125e+07,-118.953
7.6250e+07,-119.669
7.6375e+07,-119.531
7.6500e+07,-119.394
7.6625e+07,-117.803
7.6750e+07,-116.209
7.6875e+07,-117.047
7.7000e+07,-117.881
7.7125e+07,-119.863
7.7250e+07,-121.841
7.7375e+07,-122.363
7.7500e+07,-122.884
7.7625e+07,-132.822
7.7750e+07,-142.756
7.7875e+07,-133.619
7.8000e+07,-124.478
7.8125e+07,-124.906
7.8250e+07,-125.334
7.8375e+07,-122.322
7.8500e+07,-119.309
7.8625e+07,-120.266
7.8750e+07,-121.219
7.8875e+07,-120.091
7.9000e+07,-118.963
7.9125e+07,-118.416
7.9250e+07,-117.866
7.9375e+07,-119.053
7.9500e+07,-120.238
7.9625e+07,-125.706
7.9750e+07,-131.175
7.9875e+07,-129.978
8.0000e+07,-128.778
8.0125e+07,-129.266
8.0250e+07,-129.753
8.0375e+07,-126.103
8.0500e+07,-122.453
8.0625e+07,-129.366
8.0750e+07,-136.278
8.0875e+07,-129.491
8.1000e+07,-122.7
8.1125e+07,-118.763
8.1250e+07,-114.822
8.1375e+07,-115.003
8.1500e+07,-115.181
8.1625e+07,-115.734
8.1750e+07,-116.284
8.1875e+07,-116.763
8.2000e+07,-117.238
8.2125e+07,-120.206
8.2250e+07,-123.172
8.2375e+07,-126.9
8.2500e+07,-130.628
8.2625e+07,-125.675
8.2750e+07,-120.719
8.2875e+07,-120.381
8.3000e+07,-120.041
8.3125e+07,-119.269
8.3250e+07,-118.497
8.3375e+07,-119.709
8.3500e+07,-120.919
8.3625e+07,-106.55
8.3750e+07,-92.1813
8.3875e+07,-89.2062
8.4000e+07,-86.2313
8.4125e+07,-89.2406
8.4250e+07,-92.25
8.4375e+07,-108.941
8.4500e+07,-125.631
8.4625e+07,-123.372
8.4750e+07,-121.113
8.4875e+07,-120.628
8.5000e+07,-120.141
8.5125e+07,-121.978
8.5250e+07,-123.816
8.5375e+07,-123.997
8.5500e+07,-124.178
8.5625e+07,-125.131
8.5750e+07,-126.084
8.5875e+07,-126.525
8.6000e+07,-126.963
8.6125e+07,-123.959
8.6250e+07,-120.953
8.6375e+07,-119.772
8.6500e+07,-118.588
8.6625e+07,-118.616
8.6750e+07,-118.644
8.6875e+07,-118.075
8.7000e+07,-117.503
8.7125e+07,-119.831
8.7250e+07,-122.156
8.7375e+07,-122.891
8.7500e+07,-123.625
8.7625e+07,-121.009
8.7750e+07,-118.391
8.7875e+07,-116.888
8.8000e+07,-115.384
8.8125e+07,-115.8
8.8250e+07,-116.216
8.8375e+07,-117.166
8.8500e+07,-118.113
8.8625e+07,-118.312
8.8750e+07,-118.513
8.8875e+07,-119.578
8.9000e+07,-120.641
8.9125e+07,-121.675
8.9250e+07,-122.709
8.9375e+07,-124.066
8.9500e+07,-125.419
8.9625e+07,-121.997
8.9750e+07,-118.575
8.9875e+07,-116.866
9.0000e+07,-115.153
9.0125e+07,-117.159
9.0250e+07,-119.166
9.0375e+07,-121.925
9.0500e+07,-124.684
9.0625e+07,-122.391
9.0750e+07,-120.094
9.0875e+07,-118.922
9.1000e+07,-117.747
9.1125e+07,-117.809
9.1250e+07,-117.872
9.1375e+07,-118.178
9.1500e+07,-118.481
9.1625e+07,-120.909
9.1750e+07,-123.338
9.1875e+07,-126.05
9.2000e+07,-128.759
9.2125e+07,-124.444
9.2250e+07,-120.125
9.2375e+07,-119.056
9.2500e+07,-117.984
9.2625e+07,-121.931
9.2750e+07,-125.878
9.2875e+07,-115.531
9.3000e+07,-105.184
9.3125e+07,-101.497
9.3250e+07,-97.8094
9.3375e+07,-99.7812
9.3500e+07,-101.75
9.3625e+07,-110.113
9.3750e+07,-118.475
9.3875e+07,-118.472
9.4000e+07,-118.469
9.4125e+07,-116.431
9.4250e+07,-114.394
9.4375e+07,-114.613
9.4500e+07,-114.828
9.4625e+07,-115.669
9.4750e+07,-116.509
9.4875e+07,-120.688
9.5000e+07,-124.866
9.5125e+07,-124.659
9.5250e+07,-124.45
9.5375e+07,-122.956
9.5500e+07,-121.459
9.5625e+07,-108.312
9.5750e+07,-95.1656
9.5875e+07,-92.2219
9.6000e+07,-89.2781
9.6125e+07,-92.425
9.6250e+07,-95.5719
9.6375e+07,-108.963
9.6500e+07,-122.353
9.6625e+07,-121.759
9.6750e+07,-121.162
9.6875e+07,-119.338
9.7000e+07,-117.513
9.7125e+07,-116.847
9.7250e+07,-116.181
9.7375e+07,-118.756
9.7500e+07,-121.331
9.7625e+07,-123.206
9.7750e+07,-125.081
9.7875e+07,-130.197
9.8000e+07,-135.312
9.8125e+07,-132.519
9.8250e+07,-129.725
9.8375e+07,-128.372
9.8500e+07,-127.019
9.8625e+07,-128.7
9.8750e+07,-130.381
9.8875e+07,-130.381
9.9000e+07,-130.378
9.9125e+07,-131.572
9.9250e+07,-132.762
9.9375e+07,-129.456
9.9500e+07,-126.147
9.9625e+07,-124.741
9.9750e+07,-123.331
9.9875e+07,-125.597
1.0000e+08,-127.862
1.0012e+08,-130.053
1.0025e+08,-132.244
1.0038e+08,-127.656
1.0050e+08,-123.066
1.0063e+08,-122.688
1.0075e+08,-122.306
1.0088e+08,-120.959
1.0100e+08,-119.613
1.0113e+08,-118.584
1.0125e+08,-117.553
1.0138e+08,-117.603
1.0150e+08,-117.653
1.0162e+08,-118.062
1.0175e+08,-118.469
1.0188e+08,-118.869
1.0200e+08,-119.269
1.0213e+08,-119.675
1.0225e+08,-120.081
1.0238e+08,-120.978
1.0250e+08,-121.872
1.0263e+08,-121.391
1.0275e+08,-120.909
1.0288e+08,-121.809
1.0300e+08,-122.709
1.0312e+08,-123.312
1.0325e+08,-123.916
1.0338e+08,-122.113
1.0350e+08,-120.306
1.0363e+08,-120.141
1.0375e+08,-119.975
1.0388e+08,-120.05
1.0400e+08,-120.125
1.0413e+08,-119.091
1.0425e+08,-118.053
1.0438e+08,-117.841
1.0450e+08,-117.628
1.0462e+08,-118.741
1.0475e+08,-119.853
1.0488e+08,-119.662
1.0500e+08,-119.469
1.0512e+08,-118.619
1.0525e+08,-117.766
1.0538e+08,-118.287
1.0550e+08,-118.809
1.0563e+08,-120.266
1.0575e+08,-121.722
1.0588e+08,-121.791
1.0600e+08,-121.859
1.0612e+08,-123.319
1.0625e+08,-124.775
1.0638e+08,-126.194
1.0650e+08,-127.612
1.0662e+08,-125.047
1.0675e+08,-122.478
1.0688e+08,-119.934
1.0700e+08,-117.388
1.0713e+08,-119.244
1.0725e+08,-121.1
1.0738e+08,-122.15
1.0750e+08,-123.197
1.0763e+08,-105.256
1.0775e+08,-87.3156
1.0788e+08,-84.3531
1.0800e+08,-81.3875
1.0812e+08,-84.3563
1.0825e+08,-87.325
1.0838e+08,-104.972
1.0850e+08,-122.619
1.0863e+08,-123.141
1.0875e+08,-123.662
1.0888e+08,-121.903
1.0900e+08,-120.144
1.0913e+08,-118.912
1.0925e+08,-117.678
1.0938e+08,-116.394
1.0950e+08,-115.109
1.0962e+08,-115.297
1.0975e+08,-115.484
1.0988e+08,-117.056
1.1000e+08,-118.625
1.1013e+08,-119.259
1.1025e+08,-119.894
1.1038e+08,-121.425
1.1050e+08,-122.956
1.1063e+08,-121.841
1.1075e+08,-120.722
1.1088e+08,-118.228
1.1100e+08,-115.734
1.1112e+08,-115.897
1.1125e+08,-116.059
1.1138e+08,-116.919
1.1150e+08,-117.775
1.1163e+08,-119.253
1.1175e+08,-120.731
1.1188e+08,-120.975
1.1200e+08,-121.216
1.1213e+08,-119.734
1.1225e+08,-118.25
1.1238e+08,-118.359
1.1250e+08,-118.466
1.1262e+08,-119.153
1.1275e+08,-119.838
1.1288e+08,-118.953
1.1300e+08,-118.066
1.1312e+08,-118.922
1.1325e+08,-119.778
1.1338e+08,-120.594
1.1350e+08,-121.406
1.1363e+08,-122.416
1.1375e+08,-123.422
1.1388e+08,-121.613
1.1400e+08,-119.803
1.1413e+08,-120.15
1.1425e+08,-120.494
1.1438e+08,-119.469
1.1450e+08,-118.441
1.1462e+08,-118.722
1.1475e+08,-119
1.1488e+08,-120.069
1.1500e+08,-121.138
1.1513e+08,-123.784
1.1525e+08,-126.428
1.1538e+08,-127.9
1.1550e+08,-129.369
1.1563e+08,-130.9
1.1575e+08,-132.431
1.1588e+08,-128.453
1.1600e+08,-124.472
1.1612e+08,-122.375
1.1625e+08,-120.278
1.1638e+08,-122.203
1.1650e+08,-124.128
1.1663e+08,-124.694
1.1675e+08,-125.256
1.1688e+08,-124.125
1.1700e+08,-122.991
1.1713e+08,-123.4
1.1725e+08,-123.806
1.1738e+08,-122.691
1.1750e+08,-121.575
1.1762e+08,-124.416
1.1775e+08,-127.253
1.1788e+08,-127.331
1.1800e+08,-127.409
1.1813e+08,-124.909
1.1825e+08,-122.409
1.1838e+08,-122.106
1.1850e+08,-121.8
1.1863e+08,-121.844
1.1875e+08,-121.888
1.1888e+08,-122.541
1.1900e+08,-123.194
1.1912e+08,-121.809
1.1925e+08,-120.425
1.1938e+08,-120.306
1.1950e+08,-120.184
1.1963e+08,-109.916
1.1975e+08,-99.6438
1.1988e+08,-96.6438
1.2000e+08,-93.6406
1.2013e+08,-97.0188
1.2025e+08,-100.397
1.2038e+08,-110.331
1.2050e+08,-120.263
1.2062e+08,-122.631
1.2075e+08,-124.997
1.2088e+08,-126.078
1.2100e+08,-127.159
1.2112e+08,-124.622
1.2125e+08,-122.081
1.2138e+08,-121.659
1.2150e+08,-121.234
1.2163e+08,-120.662
1.2175e+08,-120.088
1.2188e+08,-119.266
1.2200e+08,-118.444
1.2213e+08,-121.125
1.2225e+08,-123.803
1.2238e+08,-126.722
1.2250e+08,-129.637
1.2262e+08,-125.184
1.2275e+08,-120.731
1.2288e+08,-120.594
1.2300e+08,-120.456
1.2313e+08,-120.053
1.2325e+08,-119.647
