casb1/risetimes/latest/ch14.csv

Model,MSO4034B
Firmware Version,2.52

Waveform Type,ANALOG,
Point Format,Y,
Horizontal Units,s,
Horizontal Scale,4e-07,
Horizontal Delay,2.62e-08,
Sample Interval,4e-10,
Record Length,10000,
Gating,49.1100% to 51.6100%,
Probe Attenuation,1,
Vertical Units,V,
Vertical Offset,0,
Vertical Scale,0.02,
Vertical Position,-4.98,
,,
,,
,,
Label,,
TIME,CH1,CH4
-9.4000e-09,0.0536531,-0.007625
-9.0000e-09,0.05365,-0.0075
-8.6000e-09,0.053675,-0.00764063
-8.2000e-09,0.0536656,-0.00739063
-7.8000e-09,0.0536906,-0.00723438
-7.4000e-09,0.0536844,-0.00739063
-7.0000e-09,0.0536281,-0.00771875
-6.6000e-09,0.0537375,-0.00701562
-6.2000e-09,0.0536594,-0.00725
-5.8000e-09,0.053625,-0.00754688
-5.4000e-09,0.0536688,-0.00759375
-5.0000e-09,0.0536969,-0.00753125
-4.6000e-09,0.053725,-0.0073125
-4.2000e-09,0.0536875,-0.00745313
-3.8000e-09,0.0536281,-0.0075625
-3.4000e-09,0.0536375,-0.00732813
-3.0000e-09,0.0536719,-0.00732813
-2.6000e-09,0.0536281,-0.00751562
-2.2000e-09,0.0536625,-0.00759375
-1.8000e-09,0.0536969,-0.007375
-1.4000e-09,0.0537,-0.0075
-1.0000e-09,0.0536531,-0.00765625
-6.0000e-10,0.0536969,-0.00357813
-2.0000e-10,0.0537125,0.0539375
2.0000e-10,0.053675,0.204391
6.0000e-10,0.0536594,0.359359
1.0000e-09,0.0536344,0.439891
1.4000e-09,0.0536875,0.465078
1.8000e-09,0.053675,0.474672
2.2000e-09,0.0537563,0.481469
2.6000e-09,0.0536406,0.483672
3.0000e-09,0.0536375,0.482547
3.4000e-09,0.0536375,0.480672
3.8000e-09,0.0536344,0.479656
4.2000e-09,0.0536188,0.479328
4.6000e-09,0.0536781,0.480453
5.0000e-09,0.0536594,0.481719
5.4000e-09,0.0536844,0.481688
5.8000e-09,0.0536375,0.481688
6.2000e-09,0.0537438,0.483234
6.6000e-09,0.0536625,0.482859
7.0000e-09,0.0536531,0.48325
7.4000e-09,0.0536188,0.483297
7.8000e-09,0.0536281,0.483391
8.2000e-09,0.0537094,0.483047
8.6000e-09,0.0536656,0.483531
9.0000e-09,0.0536125,0.483281
9.4000e-09,0.0536531,0.485375
9.8000e-09,0.0536906,0.489828
1.0200e-08,0.0536469,0.49075
1.0600e-08,0.0536438,0.483734
1.1000e-08,0.0536844,0.478
1.1400e-08,0.0536656,0.476953
1.1800e-08,0.0536375,0.477953
1.2200e-08,0.0536313,0.478406
1.2600e-08,0.0536531,0.479219
1.3000e-08,0.0536875,0.478719
1.3400e-08,0.0536906,0.478062
1.3800e-08,0.0536656,0.477828
1.4200e-08,0.0537,0.478172
1.4600e-08,0.0536406,0.477875
1.5000e-08,0.0537281,0.47725
1.5400e-08,0.0536125,0.476266
1.5800e-08,0.0536438,0.477422
1.6200e-08,0.0536188,0.477953
1.6600e-08,0.05365,0.476469
1.7000e-08,0.0536688,0.474484
1.7400e-08,0.0536531,0.473187
1.7800e-08,0.0536563,0.473453
1.8200e-08,0.0536906,0.473766
1.8600e-08,0.0536219,0.473719
1.9000e-08,0.0537219,0.474422
1.9400e-08,0.0536875,0.473313
1.9800e-08,0.0536406,0.472984
2.0200e-08,0.0536938,0.472359
2.0600e-08,0.0536844,0.472141
2.1000e-08,0.0537031,0.471781
2.1400e-08,0.0536844,0.471562
2.1800e-08,0.0536688,0.470703
2.2200e-08,0.0536594,0.470938
2.2600e-08,0.0536813,0.470906
2.3000e-08,0.0537031,0.470406
2.3400e-08,0.05365,0.469656
2.3800e-08,0.0536594,0.469516
2.4200e-08,0.0536563,0.469281
2.4600e-08,0.0536469,0.468797
2.5000e-08,0.05365,0.468437
2.5400e-08,0.053675,0.468266
2.5800e-08,0.0536813,0.468266
2.6200e-08,0.0536813,0.467719
2.6600e-08,0.0536438,0.467453
2.7000e-08,0.0536656,0.467375
2.7400e-08,0.0536438,0.466953
2.7800e-08,0.0537469,0.466953
2.8200e-08,0.053625,0.466016
2.8600e-08,0.0536125,0.465828
2.9000e-08,0.0536375,0.464953
2.9400e-08,0.0536406,0.464766
2.9800e-08,0.0536219,0.464531
3.0200e-08,0.0536344,0.464266
3.0600e-08,0.0536719,0.464281
3.1000e-08,0.0537031,0.464453
3.1400e-08,0.0536219,0.464031
3.1800e-08,0.0537094,0.46425
3.2200e-08,0.0536844,0.464016
3.2600e-08,0.0536375,0.463719
3.3000e-08,0.0536313,0.463766
3.3400e-08,0.0536125,0.463359
3.3800e-08,0.0536906,0.463016
3.4200e-08,0.0536594,0.463375
3.4600e-08,0.05365,0.462297
3.5000e-08,0.0536844,0.462016
3.5400e-08,0.0537031,0.461969
3.5800e-08,0.0536594,0.461422
3.6200e-08,0.05365,0.460609
3.6600e-08,0.0536406,0.460703
3.7000e-08,0.0536469,0.460453
3.7400e-08,0.0536719,0.460156
3.7800e-08,0.0536969,0.459906
3.8200e-08,0.0536969,0.459797
3.8600e-08,0.0536938,0.459719
3.9000e-08,0.0536906,0.459281
3.9400e-08,0.05365,0.459109
3.9800e-08,0.0536813,0.459109
4.0200e-08,0.0536,0.458437
4.0600e-08,0.0537031,0.458688
4.1000e-08,0.0536156,0.45825
4.1400e-08,0.0536063,0.45825
4.1800e-08,0.0536063,0.457578
4.2200e-08,0.053625,0.457328
4.2600e-08,0.0536938,0.456844
4.3000e-08,0.0536906,0.456766
4.3400e-08,0.053675,0.456813
4.3800e-08,0.0536719,0.456547
4.4200e-08,0.0536688,0.456031
4.4600e-08,0.0543656,0.456234
4.5000e-08,0.0574031,0.455844
4.5400e-08,0.0662875,0.455578
4.5800e-08,0.0836281,0.455219
4.6200e-08,0.108506,0.455063
4.6600e-08,0.136213,0.454531
4.7000e-08,0.159959,0.454469
4.7400e-08,0.175275,0.453734
4.7800e-08,0.180438,0.453484
4.8200e-08,0.1778,0.453422
4.8600e-08,0.171631,0.453
4.9000e-08,0.166131,0.453
4.9400e-08,0.163322,0.444203
4.9800e-08,0.162913,0.368563
5.0200e-08,0.163478,0.210078
5.0600e-08,0.163388,0.0670937
5.1000e-08,0.161909,-0.000234375
5.1400e-08,0.159569,-0.0250313
5.1800e-08,0.157559,-0.0359844
5.2200e-08,0.157263,-0.041875
5.2600e-08,0.158813,-0.0432656
5.3000e-08,0.1613,-0.04275
5.3400e-08,0.163784,-0.040625
5.3800e-08,0.164903,-0.0400469
5.4200e-08,0.164519,-0.0405938
5.4600e-08,0.163084,-0.0417187
5.5000e-08,0.161581,-0.0425312
5.5400e-08,0.160644,-0.0433281
5.5800e-08,0.160788,-0.0437656
5.6200e-08,0.161672,-0.0438125
5.6600e-08,0.162647,-0.0442813
5.7000e-08,0.163266,-0.0446875
5.7400e-08,0.163169,-0.0447344
5.7800e-08,0.162494,-0.0450781
5.8200e-08,0.161609,-0.04475
5.8600e-08,0.161066,-0.0452813
5.9000e-08,0.161144,-0.0465625
5.9400e-08,0.161569,-0.0482813
5.9800e-08,0.162106,-0.0523125
6.0200e-08,0.162434,-0.0525156
6.0600e-08,0.162347,-0.0461562
6.1000e-08,0.162072,-0.0418125
6.1400e-08,0.161509,-0.0420781
6.1800e-08,0.161172,-0.0436094
6.2200e-08,0.161056,-0.0435469
6.2600e-08,0.161103,-0.0437344
6.3000e-08,0.161234,-0.0439844
6.3400e-08,0.161219,-0.0438906
6.3800e-08,0.16135,-0.0439531
6.4200e-08,0.16115,-0.0442344
6.4600e-08,0.161025,-0.0443906
6.5000e-08,0.160931,-0.0438281
6.5400e-08,0.161053,-0.0436719
6.5800e-08,0.160994,-0.0448437
6.6200e-08,0.161225,-0.0451719
6.6600e-08,0.161063,-0.0438594
6.7000e-08,0.161016,-0.0422969
6.7400e-08,0.160813,-0.0425781
6.7800e-08,0.160703,-0.04275
6.8200e-08,0.160416,-0.0431719
6.8600e-08,0.160334,-0.0433437
6.9000e-08,0.160297,-0.0435
6.9400e-08,0.16015,-0.04325
6.9800e-08,0.160109,-0.0433594
7.0200e-08,0.160116,-0.043
7.0600e-08,0.159972,-0.042875
7.1000e-08,0.159897,-0.0424531
7.1400e-08,0.159703,-0.0428125
7.1800e-08,0.159684,-0.0428437
7.2200e-08,0.159569,-0.0425156
7.2600e-08,0.159603,-0.0421563
7.3000e-08,0.159425,-0.0427656
7.3400e-08,0.159416,-0.04275
7.3800e-08,0.15935,-0.0421563
7.4200e-08,0.159203,-0.0423125
7.4600e-08,0.159128,-0.0428125
7.5000e-08,0.159047,-0.0421875
7.5400e-08,0.158841,-0.0422969
7.5800e-08,0.15875,-0.0423437
7.6200e-08,0.158619,-0.0425
7.6600e-08,0.158694,-0.0414219
7.7000e-08,0.1586,-0.0417031
7.7400e-08,0.158494,-0.0417344
7.7800e-08,0.158416,-0.0420312
7.8200e-08,0.158328,-0.0417344
7.8600e-08,0.158184,-0.0419219
7.9000e-08,0.158181,-0.0414844
7.9400e-08,0.158022,-0.041625
7.9800e-08,0.157931,-0.0415469
8.0200e-08,0.157763,-0.042
8.0600e-08,0.157731,-0.0417187
8.1000e-08,0.157631,-0.0415156
8.1400e-08,0.157572,-0.0416875
8.1800e-08,0.157519,-0.0409063
8.2200e-08,0.157419,-0.0411563
8.2600e-08,0.15725,-0.0407344
8.3000e-08,0.157316,-0.0409844
8.3400e-08,0.157203,-0.0414844
8.3800e-08,0.157053,-0.0413125
8.4200e-08,0.156947,-0.0411719
8.4600e-08,0.156822,-0.0409219
8.5000e-08,0.156738,-0.0411719
8.5400e-08,0.156769,-0.0408281
8.5800e-08,0.156584,-0.0410469
8.6200e-08,0.1565,-0.0408437
8.6600e-08,0.156419,-0.0406875
8.7000e-08,0.156297,-0.0407344
8.7400e-08,0.156141,-0.0406719
8.7800e-08,0.156019,-0.0408906
8.8200e-08,0.156006,-0.0408437
8.8600e-08,0.15585,-0.0407187
8.9000e-08,0.155741,-0.0409063
8.9400e-08,0.155822,-0.0406563
8.9800e-08,0.155725,-0.0406406
9.0200e-08,0.155572,-0.0405312

