casb1/risetimes/latest/ch8.csv

Model,MSO4034B
Firmware Version,2.52

Waveform Type,ANALOG,
Point Format,Y,
Horizontal Units,s,
Horizontal Scale,4e-07,
Horizontal Delay,2.62e-08,
Sample Interval,4e-10,
Record Length,10000,
Gating,49.1100% to 51.6100%,
Probe Attenuation,1,
Vertical Units,V,
Vertical Offset,0,
Vertical Scale,0.02,
Vertical Position,-4.98,
,,
,,
,,
Label,,
TIME,CH1,CH4
-9.4000e-09,0.0537094,-0.00782813
-9.0000e-09,0.053675,-0.007875
-8.6000e-09,0.0537,-0.00779688
-8.2000e-09,0.0537063,-0.00759375
-7.8000e-09,0.053725,-0.007625
-7.4000e-09,0.0537406,-0.00746875
-7.0000e-09,0.0536281,-0.00778125
-6.6000e-09,0.0537813,-0.00723438
-6.2000e-09,0.0537188,-0.00764063
-5.8000e-09,0.0536344,-0.00770313
-5.4000e-09,0.0536813,-0.00778125
-5.0000e-09,0.0536969,-0.00782813
-4.6000e-09,0.0537625,-0.0075
-4.2000e-09,0.0537156,-0.00773438
-3.8000e-09,0.0536813,-0.00795313
-3.4000e-09,0.0537219,-0.00767188
-3.0000e-09,0.053725,-0.00735938
-2.6000e-09,0.0536813,-0.00767188
-2.2000e-09,0.0536844,-0.00779688
-1.8000e-09,0.0537375,-0.00760938
-1.4000e-09,0.0536625,-0.00760938
-1.0000e-09,0.0536781,-0.00778125
-6.0000e-10,0.0537406,-0.00385937
-2.0000e-10,0.0537188,0.0550625
2.0000e-10,0.0537,0.205953
6.0000e-10,0.0536781,0.360453
1.0000e-09,0.0537094,0.440406
1.4000e-09,0.0537344,0.464953
1.8000e-09,0.0537031,0.4745
2.2000e-09,0.0538219,0.481625
2.6000e-09,0.0537,0.483563
3.0000e-09,0.0537125,0.482187
3.4000e-09,0.0536719,0.480437
3.8000e-09,0.0536844,0.479422
4.2000e-09,0.0537219,0.479187
4.6000e-09,0.0537156,0.48025
5.0000e-09,0.0537188,0.481641
5.4000e-09,0.0537531,0.481016
5.8000e-09,0.0536594,0.480938
6.2000e-09,0.0538125,0.482812
6.6000e-09,0.053725,0.482594
7.0000e-09,0.0536688,0.482875
7.4000e-09,0.053675,0.483125
7.8000e-09,0.0537,0.483125
8.2000e-09,0.0537188,0.482734
8.6000e-09,0.0537313,0.483219
9.0000e-09,0.0537188,0.482969
9.4000e-09,0.0537188,0.485219
9.8000e-09,0.0537375,0.488062
1.0200e-08,0.0537188,0.485922
1.0600e-08,0.0536844,0.478203
1.1000e-08,0.0536875,0.475234
1.1400e-08,0.053675,0.476234
1.1800e-08,0.053675,0.478047
1.2200e-08,0.0537125,0.478609
1.2600e-08,0.0537688,0.479406
1.3000e-08,0.0537563,0.479703
1.3400e-08,0.0537531,0.478859
1.3800e-08,0.0537094,0.4785
1.4200e-08,0.0537156,0.479234
1.4600e-08,0.0536875,0.478531
1.5000e-08,0.0538344,0.477766
1.5400e-08,0.0536281,0.476766
1.5800e-08,0.0536813,0.478156
1.6200e-08,0.0537281,0.478656
1.6600e-08,0.0536938,0.477063
1.7000e-08,0.0537219,0.475172
1.7400e-08,0.0537031,0.473578
1.7800e-08,0.0536969,0.474234
1.8200e-08,0.0537156,0.474422
1.8600e-08,0.0536125,0.474953
1.9000e-08,0.0537438,0.474891
1.9400e-08,0.0537406,0.474313
1.9800e-08,0.0536656,0.473781
2.0200e-08,0.053675,0.473156
2.0600e-08,0.0536969,0.472828
2.1000e-08,0.05375,0.472047
2.1400e-08,0.0537531,0.471922
2.1800e-08,0.0536656,0.471406
2.2200e-08,0.0536719,0.471531
2.2600e-08,0.0537063,0.471281
2.3000e-08,0.0536844,0.470891
2.3400e-08,0.0536625,0.470313
2.3800e-08,0.0537188,0.470078
2.4200e-08,0.0537219,0.469609
2.4600e-08,0.0536969,0.469547
2.5000e-08,0.0537156,0.468922
2.5400e-08,0.0537563,0.469172
2.5800e-08,0.0537,0.468547
2.6200e-08,0.0537125,0.468359
2.6600e-08,0.0537,0.468141
2.7000e-08,0.0538031,0.467953
2.7400e-08,0.0537281,0.467641
2.7800e-08,0.0538313,0.467531
2.8200e-08,0.0537031,0.466578
2.8600e-08,0.0536594,0.466547
2.9000e-08,0.0536625,0.466078
2.9400e-08,0.0536656,0.465453
2.9800e-08,0.0536969,0.464922
3.0200e-08,0.0537,0.465109
3.0600e-08,0.053725,0.464859
3.1000e-08,0.0537063,0.464547
3.1400e-08,0.0536719,0.464219
3.1800e-08,0.0537344,0.464562
3.2200e-08,0.0536875,0.464328
3.2600e-08,0.0536594,0.464078
3.3000e-08,0.053675,0.464031
3.3400e-08,0.0536938,0.463766
3.3800e-08,0.0536969,0.463656
3.4200e-08,0.0536906,0.463641
3.4600e-08,0.0536844,0.462953
3.5000e-08,0.0537156,0.462812
3.5400e-08,0.05375,0.462844
3.5800e-08,0.0537,0.462391
3.6200e-08,0.053675,0.461422
3.6600e-08,0.0537531,0.46125
3.7000e-08,0.0536844,0.461078
3.7400e-08,0.0536375,0.460594
3.7800e-08,0.0537219,0.460172
3.8200e-08,0.0537094,0.460016
3.8600e-08,0.0537188,0.459984
3.9000e-08,0.0537094,0.459625
3.9400e-08,0.0536813,0.459828
3.9800e-08,0.0537969,0.4595
4.0200e-08,0.053725,0.458969
4.0600e-08,0.0538156,0.459406
4.1000e-08,0.0536906,0.458937
4.1400e-08,0.0537219,0.458766
4.1800e-08,0.0536656,0.458391
4.2200e-08,0.0536844,0.458141
4.2600e-08,0.0537063,0.457703
4.3000e-08,0.0537156,0.457234
4.3400e-08,0.0537156,0.457344
4.3800e-08,0.0537063,0.456875
4.4200e-08,0.0537125,0.456422
4.4600e-08,0.054925,0.456953
4.5000e-08,0.059175,0.456437
4.5400e-08,0.0702438,0.456078
4.5800e-08,0.0904063,0.455922
4.6200e-08,0.117528,0.455703
4.6600e-08,0.145791,0.455562
4.7000e-08,0.168341,0.4555
4.7400e-08,0.180841,0.454594
4.7800e-08,0.182734,0.454437
4.8200e-08,0.177844,0.454375
4.8600e-08,0.170734,0.453875
4.9000e-08,0.165606,0.454016
4.9400e-08,0.163556,0.444875
4.9800e-08,0.163622,0.368453
5.0200e-08,0.163941,0.209453
5.0600e-08,0.163381,0.067125
5.1000e-08,0.161488,-3.125e-05
5.1400e-08,0.159022,-0.0243125
5.1800e-08,0.157681,-0.0354688
5.2200e-08,0.158041,-0.04125
5.2600e-08,0.160125,-0.0426563
5.3000e-08,0.162722,-0.0420469
5.3400e-08,0.164969,-0.04
5.3800e-08,0.165594,-0.0395
5.4200e-08,0.164744,-0.0400469
5.4600e-08,0.162934,-0.0409219
5.5000e-08,0.161428,-0.0418125
5.5400e-08,0.160784,-0.042875
5.5800e-08,0.161219,-0.0431719
5.6200e-08,0.162416,-0.043625
5.6600e-08,0.163288,-0.04375
5.7000e-08,0.163381,-0.044125
5.7400e-08,0.163078,-0.0442188
5.7800e-08,0.162169,-0.0443594
5.8200e-08,0.161488,-0.0444844
5.8600e-08,0.161166,-0.0449219
5.9000e-08,0.161513,-0.0460156
5.9400e-08,0.162119,-0.0479219
5.9800e-08,0.162609,-0.04975
6.0200e-08,0.162728,-0.0477656
6.0600e-08,0.162578,-0.0414219
6.1000e-08,0.162128,-0.0392187
6.1400e-08,0.161634,-0.0409375
6.1800e-08,0.161338,-0.0434844
6.2200e-08,0.161347,-0.0437031
6.2600e-08,0.161356,-0.0440156
6.3000e-08,0.161547,-0.0442969
6.3400e-08,0.161509,-0.0441406
6.3800e-08,0.161488,-0.0441406
6.4200e-08,0.161341,-0.0445312
6.4600e-08,0.161175,-0.0447031
6.5000e-08,0.161059,-0.0438281
6.5400e-08,0.161216,-0.0439063
6.5800e-08,0.161166,-0.0455625
6.6200e-08,0.161347,-0.0455312
6.6600e-08,0.161247,-0.0439844
6.7000e-08,0.161213,-0.0425312
6.7400e-08,0.160959,-0.0429688
6.7800e-08,0.160772,-0.0433594
6.8200e-08,0.160531,-0.0431406
6.8600e-08,0.160428,-0.0435938
6.9000e-08,0.160553,-0.0435469
6.9400e-08,0.160413,-0.0434688
6.9800e-08,0.160275,-0.04375
7.0200e-08,0.160328,-0.0433125
7.0600e-08,0.160244,-0.0432188
7.1000e-08,0.160041,-0.0434063
7.1400e-08,0.159938,-0.0432188
7.1800e-08,0.159844,-0.0430781
7.2200e-08,0.159781,-0.0428594
7.2600e-08,0.159784,-0.0425781
7.3000e-08,0.159619,-0.0430781
7.3400e-08,0.159603,-0.0428281
7.3800e-08,0.159556,-0.0427813
7.4200e-08,0.159384,-0.0426406
7.4600e-08,0.159266,-0.0430625
7.5000e-08,0.159256,-0.0427969
7.5400e-08,0.159116,-0.0427344
7.5800e-08,0.159013,-0.0426719
7.6200e-08,0.158841,-0.0428594
7.6600e-08,0.158959,-0.04225
7.7000e-08,0.158847,-0.0421094
7.7400e-08,0.158684,-0.0423125
7.7800e-08,0.158484,-0.0425156
7.8200e-08,0.158491,-0.0418594
7.8600e-08,0.158366,-0.0420938
7.9000e-08,0.158322,-0.041875
7.9400e-08,0.158178,-0.0420938
7.9800e-08,0.158094,-0.0417813
8.0200e-08,0.157903,-0.0420312
8.0600e-08,0.157859,-0.0418125
8.1000e-08,0.157791,-0.042
8.1400e-08,0.15765,-0.0420938
8.1800e-08,0.157653,-0.0415781
8.2200e-08,0.157578,-0.0416875
8.2600e-08,0.157491,-0.0415938
8.3000e-08,0.157453,-0.0411875
8.3400e-08,0.157319,-0.0416406
8.3800e-08,0.157191,-0.0417813
8.4200e-08,0.157034,-0.0418437
8.4600e-08,0.157028,-0.0414375
8.5000e-08,0.156953,-0.0415938
8.5400e-08,0.156859,-0.0413437
8.5800e-08,0.156747,-0.0417656
8.6200e-08,0.156681,-0.0413437
8.6600e-08,0.156616,-0.0411094
8.7000e-08,0.156509,-0.0411719
8.7400e-08,0.156297,-0.0411719
8.7800e-08,0.156241,-0.0410156
8.8200e-08,0.156181,-0.04125
8.8600e-08,0.156072,-0.0410781
8.9000e-08,0.155978,-0.0417656
8.9400e-08,0.155966,-0.0407031
8.9800e-08,0.155819,-0.0409844
9.0200e-08,0.155738,-0.0411875

