casb2/gain-delay/tek0003ALL.csv

Model,MSO4034B
Firmware Version,2.52

Waveform Type,ANALOG,,
Point Format,Y,,
Horizontal Units,s,,
Horizontal Scale,4e-09,,
Horizontal Delay,3.9e-08,,
Sample Interval,4e-10,,
Record Length,10000,,
Gating,49.4900% to 50.500%,,
Probe Attenuation,1,,
Vertical Units,V,,
Vertical Offset,0.0318,,
Vertical Scale,0.01,,
Vertical Position,-3.68,,
,,,
,,,
,,,
Label,,,
TIME,CH1,CH2,CH3
1.8600e-08,0.0883516,-1.80281,0.0530844
1.9000e-08,0.0883703,-1.79328,0.0533375
1.9400e-08,0.0883172,-1.79672,0.0530938
1.9800e-08,0.0882312,-1.79828,0.05265
2.0200e-08,0.0881234,-1.80281,0.0523125
2.0600e-08,0.0881953,-1.80031,0.0521031
2.1000e-08,0.0882344,-1.79688,0.0520547
2.1400e-08,0.0883031,-1.79656,0.0528016
2.1800e-08,0.08825,-1.80313,0.05495
2.2200e-08,0.0882594,-1.79781,0.0588578
2.2600e-08,0.0883156,-1.79656,0.0632281
2.3000e-08,0.0883078,-1.79578,0.0671063
2.3400e-08,0.0883063,-1.80141,0.0702125
2.3800e-08,0.0883266,-1.79781,0.0727344
2.4200e-08,0.0882797,-1.79875,0.075325
2.4600e-08,0.0882719,-1.79953,0.0779922
2.5000e-08,0.0882453,-1.80437,0.0797047
2.5400e-08,0.0882875,-1.79344,0.079975
2.5800e-08,0.0882281,-1.79297,0.0796453
2.6200e-08,0.0882219,-1.79891,0.0796563
2.6600e-08,0.0882266,-1.80109,0.0796719
2.7000e-08,0.0883359,-1.79875,0.0793531
2.7400e-08,0.0883687,-1.8025,0.0785
2.7800e-08,0.0883609,-1.79531,0.0775797
2.8200e-08,0.0882281,-1.79891,0.0767766
2.8600e-08,0.0881891,-1.79781,0.0764359
2.9000e-08,0.0881422,-1.80141,0.0767219
2.9400e-08,0.0882125,-1.79828,0.0778094
2.9800e-08,0.0882781,-1.80156,0.0792016
3.0200e-08,0.0883609,-1.80281,0.0801516
3.0600e-08,0.0884141,-1.79375,0.0806219
3.1000e-08,0.0883781,-1.79875,0.0807766
3.1400e-08,0.0883078,-1.80406,0.0808703
3.1800e-08,0.0882797,-1.79266,0.0809953
3.2200e-08,0.0881969,-1.79656,0.0805687
3.2600e-08,0.0881922,-1.79766,0.0790078
3.3000e-08,0.0881828,-1.80234,0.0754875
3.3400e-08,0.0882234,-1.79984,0.0707266
3.3800e-08,0.0881969,-1.79719,0.0662047
3.4200e-08,0.0882203,-1.79813,0.062725
3.4600e-08,0.0882031,-1.80281,0.0600828
3.5000e-08,0.0882766,-1.79891,0.0579859
3.5400e-08,0.0883188,-1.795,0.0564609
3.5800e-08,0.0882312,-1.79609,0.0556297
3.6200e-08,0.0881547,-1.79875,0.0552438
3.6600e-08,0.0881234,-1.79672,0.0549
3.7000e-08,0.0881453,-1.79797,0.0545578
3.7400e-08,0.0883297,-1.79969,0.0543953
3.7800e-08,0.0884578,-1.80187,0.0542859
3.8200e-08,0.0885484,-1.79188,0.0542578
3.8600e-08,0.0885344,-1.79391,0.0541375
3.9000e-08,0.0884656,-1.79641,0.0541063
3.9400e-08,0.0882766,-1.79922,0.0540922
3.9800e-08,0.0882109,-1.79828,0.0540469
4.0200e-08,0.0882719,-1.80141,0.0538484
4.0600e-08,0.0887844,-1.79766,0.0535422
4.1000e-08,0.0898266,-1.79875,0.0532047
4.1400e-08,0.0914141,-1.79937,0.0529328
4.1800e-08,0.0931734,-1.80156,0.0528062
4.2200e-08,0.0948078,-1.79891,0.0527953
4.2600e-08,0.0961641,-1.8,0.0527375
4.3000e-08,0.0971156,-1.80453,0.0525609
4.3400e-08,0.0978078,-1.79422,0.0526938
4.3800e-08,0.0982781,-1.79719,0.0529063
4.4200e-08,0.0985562,-1.80516,0.053125
4.4600e-08,0.0988062,-1.79469,0.0530188
4.5000e-08,0.0989297,-1.79688,0.0527047
4.5400e-08,0.0989797,-1.79813,0.0526719
4.5800e-08,0.0989234,-1.80344,0.0528406
4.6200e-08,0.0989437,-1.8,0.0529859
4.6600e-08,0.0988844,-1.80063,0.0530047
4.7000e-08,0.0988125,-1.7975,0.0530297
4.7400e-08,0.0986922,-1.80078,0.0529688
4.7800e-08,0.0987297,-1.80016,0.0529172
4.8200e-08,0.0989812,-1.79859,0.0527859
4.8600e-08,0.0993859,-1.79719,0.0525953
4.9000e-08,0.0999266,-1.80125,0.0524641
4.9400e-08,0.100459,-1.79609,0.0523203
4.9800e-08,0.100816,-1.79891,0.0521953
5.0200e-08,0.100856,-1.8025,0.0522188
5.0600e-08,0.100631,-1.80547,0.0524063
5.1000e-08,0.100289,-1.79312,0.0526141
5.1400e-08,0.0996062,-1.79563,0.0527406
5.1800e-08,0.098625,-1.79734,0.052675
5.2200e-08,0.0972609,-1.80031,0.0525438
5.2600e-08,0.0957516,-1.7975,0.0524109
5.3000e-08,0.0942297,-1.80141,0.0522266
5.3400e-08,0.0931656,-1.79625,0.0522531
5.3800e-08,0.092525,-1.79875,0.0522953
5.4200e-08,0.0922766,-1.7975,0.0524422
5.4600e-08,0.0921531,-1.80156,0.0524953
5.5000e-08,0.0920578,-1.79766,0.0525938
5.5400e-08,0.0917797,-1.80141,0.0526359
5.5800e-08,0.0914656,-1.80141,0.0525875
5.6200e-08,0.0910906,-1.79359,0.0525188
5.6600e-08,0.0906484,-1.79734,0.0523156
5.7000e-08,0.0901719,-1.80141,0.0521703
5.7400e-08,0.0898937,-1.79406,0.0523094
5.7800e-08,0.0895328,-1.79813,0.0524453
5.8200e-08,0.0893125,-1.79781,0.0525266
5.8600e-08,0.0891203,-1.80328,0.0525297

