casb2/gain-delay/tek0010ALL.csv

Model,MSO4034B
Firmware Version,2.52

Waveform Type,ANALOG,,
Point Format,Y,,
Horizontal Units,s,,
Horizontal Scale,4e-09,,
Horizontal Delay,3.9e-08,,
Sample Interval,4e-10,,
Record Length,10000,,
Gating,49.4900% to 50.500%,,
Probe Attenuation,1,,
Vertical Units,V,,
Vertical Offset,0.0318,,
Vertical Scale,0.01,,
Vertical Position,-3.68,,
,,,
,,,
,,,
Label,,,
TIME,CH1,CH2,CH3
1.8600e-08,0.0885469,-1.79891,0.0531469
1.9000e-08,0.0886203,-1.79094,0.0534172
1.9400e-08,0.0885437,-1.79359,0.053075
1.9800e-08,0.088425,-1.7975,0.0526
2.0200e-08,0.0883344,-1.79984,0.0523094
2.0600e-08,0.0883891,-1.79563,0.0521266
2.1000e-08,0.0884203,-1.79609,0.0521578
2.1400e-08,0.0884812,-1.79078,0.0529125
2.1800e-08,0.0885031,-1.80078,0.0551984
2.2200e-08,0.0885422,-1.79672,0.0591047
2.2600e-08,0.0886078,-1.79328,0.0634078
2.3000e-08,0.0885937,-1.79281,0.0671766
2.3400e-08,0.0885469,-1.79813,0.0702234
2.3800e-08,0.0885422,-1.79406,0.0727344
2.4200e-08,0.0884641,-1.79563,0.0752734
2.4600e-08,0.0884312,-1.79891,0.0778797
2.5000e-08,0.0884594,-1.80156,0.0796172
2.5400e-08,0.0884828,-1.78969,0.0800281
2.5800e-08,0.0884328,-1.79219,0.0799016
2.6200e-08,0.0884703,-1.79641,0.0799188
2.6600e-08,0.0884922,-1.79781,0.0798766
2.7000e-08,0.0885594,-1.79547,0.079425
2.7400e-08,0.0885719,-1.80094,0.0785047
2.7800e-08,0.0886187,-1.79328,0.0774984
2.8200e-08,0.0884625,-1.79641,0.0766172
2.8600e-08,0.0884094,-1.79547,0.0763297
2.9000e-08,0.0883797,-1.79844,0.0767719
2.9400e-08,0.0884125,-1.79703,0.0780516
2.9800e-08,0.0884828,-1.80094,0.0794109
3.0200e-08,0.0885516,-1.80141,0.0803438
3.0600e-08,0.088575,-1.79219,0.0807438
3.1000e-08,0.0885266,-1.79312,0.0808187
3.1400e-08,0.088475,-1.79891,0.0808016
3.1800e-08,0.0885641,-1.78953,0.0808625
3.2200e-08,0.0885984,-1.79422,0.0805344
3.2600e-08,0.0885422,-1.79719,0.0790703
3.3000e-08,0.0884609,-1.80156,0.0757109
3.3400e-08,0.0883375,-1.79641,0.0709406
3.3800e-08,0.0882859,-1.79547,0.0663594
3.4200e-08,0.0884172,-1.79188,0.0628063
3.4600e-08,0.0885484,-1.79891,0.0600547
3.5000e-08,0.0886469,-1.79547,0.0579031
3.5400e-08,0.088625,-1.79312,0.0563891
3.5800e-08,0.0885016,-1.79453,0.0556594
3.6200e-08,0.0883953,-1.79625,0.0553297
3.6600e-08,0.0883594,-1.79516,0.0550484
3.7000e-08,0.0884016,-1.79438,0.0546766
3.7400e-08,0.0885563,-1.79625,0.0545438
3.7800e-08,0.0886812,-1.8025,0.0544875
3.8200e-08,0.0887797,-1.79078,0.0543813
3.8600e-08,0.0887453,-1.79422,0.0542063
3.9000e-08,0.0886156,-1.79578,0.0541375
3.9400e-08,0.088425,-1.79609,0.0540453
3.9800e-08,0.0884469,-1.79641,0.0539078
4.0200e-08,0.0888234,-1.79828,0.0536484
4.0600e-08,0.0898344,-1.79328,0.0533969
4.1000e-08,0.0913641,-1.79672,0.0530516
4.1400e-08,0.0931406,-1.79609,0.0529109
4.1800e-08,0.0948937,-1.79781,0.0527594
4.2200e-08,0.0963813,-1.79516,0.0527047
4.2600e-08,0.0974,-1.79937,0.0525938
4.3000e-08,0.0981016,-1.79922,0.0525156
4.3400e-08,0.0985906,-1.79266,0.0525828
4.3800e-08,0.0989125,-1.79062,0.0527984
4.4200e-08,0.0991828,-1.79531,0.0529328
4.4600e-08,0.0993484,-1.79297,0.0529734
4.5000e-08,0.0993609,-1.79594,0.0527891
4.5400e-08,0.0993047,-1.79844,0.0527797
4.5800e-08,0.0991828,-1.80141,0.0529266
4.6200e-08,0.0990281,-1.79422,0.0531109
4.6600e-08,0.0988484,-1.79516,0.0531031
4.7000e-08,0.0987469,-1.79563,0.0530109
4.7400e-08,0.0987547,-1.79813,0.0528984
4.7800e-08,0.09905,-1.79797,0.0527938
4.8200e-08,0.0995875,-1.79141,0.0526453
4.8600e-08,0.100172,-1.79406,0.0525125
4.9000e-08,0.100678,-1.79781,0.0523797
4.9400e-08,0.100986,-1.79531,0.0523406
4.9800e-08,0.100986,-1.79438,0.0522937
5.0200e-08,0.100777,-1.79609,0.0523984
5.0600e-08,0.100406,-1.80156,0.0525703
5.1000e-08,0.0999156,-1.79125,0.0528688
5.1400e-08,0.0990859,-1.79266,0.0529969
5.1800e-08,0.0978359,-1.79578,0.0529359
5.2200e-08,0.0962266,-1.7975,0.0527547
5.2600e-08,0.0946453,-1.79781,0.0525688
5.3000e-08,0.0933187,-1.79813,0.0523516
5.3400e-08,0.0925187,-1.79312,0.0523563
5.3800e-08,0.0920719,-1.79656,0.0524578
5.4200e-08,0.0920187,-1.79453,0.0526219
5.4600e-08,0.0920078,-1.79813,0.0526328
5.5000e-08,0.0919687,-1.795,0.0527438
5.5400e-08,0.0917734,-1.79766,0.0528016
5.5800e-08,0.0914641,-1.80094,0.0526984
5.6200e-08,0.0910703,-1.79078,0.0524984
5.6600e-08,0.0905672,-1.79422,0.0523
5.7000e-08,0.0900531,-1.79813,0.0521219
5.7400e-08,0.0896812,-1.79297,0.0522891
5.7800e-08,0.0893906,-1.79609,0.0524141
5.8200e-08,0.0892344,-1.79797,0.0525188
5.8600e-08,0.08915,-1.80031,0.0525922

