casb2/gain-delay/tek0011ALL.csv

Model,MSO4034B
Firmware Version,2.52

Waveform Type,ANALOG,,
Point Format,Y,,
Horizontal Units,s,,
Horizontal Scale,4e-09,,
Horizontal Delay,3.9e-08,,
Sample Interval,4e-10,,
Record Length,10000,,
Gating,49.4900% to 50.500%,,
Probe Attenuation,1,,
Vertical Units,V,,
Vertical Offset,0.0318,,
Vertical Scale,0.01,,
Vertical Position,-3.68,,
,,,
,,,
,,,
Label,,,
TIME,CH1,CH2,CH3
1.8600e-08,0.0884594,-1.79391,0.0532
1.9000e-08,0.0885672,-1.79094,0.0534734
1.9400e-08,0.0885016,-1.79703,0.0532109
1.9800e-08,0.0884156,-1.7975,0.052775
2.0200e-08,0.0883953,-1.79953,0.0524312
2.0600e-08,0.0884266,-1.79531,0.0522078
2.1000e-08,0.0884437,-1.79453,0.0522016
2.1400e-08,0.0884422,-1.79266,0.0530047
2.1800e-08,0.088425,-1.79969,0.0552984
2.2200e-08,0.0884547,-1.79656,0.0591766
2.2600e-08,0.0884828,-1.79359,0.0635234
2.3000e-08,0.0884984,-1.79563,0.0673547
2.3400e-08,0.0884563,-1.79563,0.0704547
2.3800e-08,0.0884437,-1.79484,0.0729469
2.4200e-08,0.0884109,-1.795,0.0754766
2.4600e-08,0.0883578,-1.79594,0.0780984
2.5000e-08,0.0884484,-1.80375,0.0797188
2.5400e-08,0.0884828,-1.7925,0.0800406
2.5800e-08,0.0884703,-1.79234,0.0798438
2.6200e-08,0.0884641,-1.79672,0.0798156
2.6600e-08,0.0884625,-1.79609,0.0798438
2.7000e-08,0.0885141,-1.79609,0.0794719
2.7400e-08,0.0884719,-1.79969,0.0786047
2.7800e-08,0.0885406,-1.79453,0.0776625
2.8200e-08,0.0884422,-1.79766,0.0768125
2.8600e-08,0.0883859,-1.79719,0.0765031
2.9000e-08,0.0883063,-1.80031,0.0768953
2.9400e-08,0.0883656,-1.79719,0.0780094
2.9800e-08,0.0884906,-1.79937,0.0793875
3.0200e-08,0.0885719,-1.79984,0.0803688
3.0600e-08,0.0886359,-1.79141,0.0807859
3.1000e-08,0.0885344,-1.79531,0.0809141
3.1400e-08,0.08845,-1.79672,0.0809406
3.1800e-08,0.0884,-1.79312,0.0810375
3.2200e-08,0.0883484,-1.79688,0.0806016
3.2600e-08,0.0883703,-1.79734,0.0790375
3.3000e-08,0.0883969,-1.79875,0.0755781
3.3400e-08,0.0883469,-1.79594,0.0708078
3.3800e-08,0.0883359,-1.79703,0.0663453
3.4200e-08,0.0884172,-1.79453,0.0628719
3.4600e-08,0.0884875,-1.79922,0.06015
3.5000e-08,0.0885609,-1.79719,0.0580141
3.5400e-08,0.08855,-1.79125,0.056525
3.5800e-08,0.0884563,-1.79359,0.0557672
3.6200e-08,0.0883391,-1.79937,0.0553844
3.6600e-08,0.0883125,-1.79281,0.0550797
3.7000e-08,0.0883906,-1.79422,0.0547031
3.7400e-08,0.0885875,-1.79641,0.0545578
3.7800e-08,0.0887297,-1.79875,0.0544844
3.8200e-08,0.0887828,-1.79328,0.054375
3.8600e-08,0.0886891,-1.79359,0.0542656
3.9000e-08,0.0885031,-1.79641,0.0542328
3.9400e-08,0.0883063,-1.79625,0.0542141
3.9800e-08,0.0883547,-1.79359,0.0541703
4.0200e-08,0.0887625,-1.79828,0.0538906
4.0600e-08,0.0897609,-1.79359,0.0536422
4.1000e-08,0.0911469,-1.79547,0.0532875
4.1400e-08,0.0929547,-1.79734,0.0530562
4.1800e-08,0.0946328,-1.79875,0.0529109
4.2200e-08,0.0961469,-1.79656,0.0529281
4.2600e-08,0.0972578,-1.7975,0.0528688
4.3000e-08,0.0980219,-1.79875,0.0527594
4.3400e-08,0.09855,-1.79219,0.0527703
4.3800e-08,0.0988703,-1.79516,0.0530547
4.4200e-08,0.0990797,-1.79813,0.0531906
4.4600e-08,0.099175,-1.79109,0.0531219
4.5000e-08,0.0992281,-1.79516,0.0528844
4.5400e-08,0.0992344,-1.79719,0.052825
4.5800e-08,0.0991859,-1.8,0.0529828
4.6200e-08,0.0990734,-1.79453,0.0531781
4.6600e-08,0.0989437,-1.79438,0.0531875
4.7000e-08,0.0988312,-1.7925,0.0531656
4.7400e-08,0.0988047,-1.79937,0.0530859
4.7800e-08,0.0990391,-1.79656,0.0530172
4.8200e-08,0.0994969,-1.79359,0.0528719
4.8600e-08,0.100027,-1.79484,0.0526484
4.9000e-08,0.100502,-1.79844,0.0525156
4.9400e-08,0.100884,-1.79344,0.0524531
4.9800e-08,0.10097,-1.79578,0.0524
5.0200e-08,0.10082,-1.79641,0.0524094
5.0600e-08,0.100484,-1.80125,0.0525359
5.1000e-08,0.0999609,-1.79016,0.0527922
5.1400e-08,0.0990875,-1.79297,0.0529594
5.1800e-08,0.0977984,-1.79516,0.0529109
5.2200e-08,0.0961922,-1.79828,0.0527344
5.2600e-08,0.0946547,-1.79672,0.0525578
5.3000e-08,0.0933422,-1.79859,0.0524078
5.3400e-08,0.0925828,-1.79563,0.0524125
5.3800e-08,0.0921391,-1.79734,0.0524625
5.4200e-08,0.0920156,-1.79641,0.0526
5.4600e-08,0.0920062,-1.79937,0.0526484
5.5000e-08,0.0919578,-1.79734,0.0527984
5.5400e-08,0.0917156,-1.79922,0.0528422
5.5800e-08,0.0913719,-1.79969,0.0528109
5.6200e-08,0.0909797,-1.79203,0.0526438
5.6600e-08,0.0904484,-1.79406,0.0524359
5.7000e-08,0.089975,-1.79656,0.0523609
5.7400e-08,0.0896703,-1.79344,0.0524344
5.7800e-08,0.0894312,-1.79641,0.0525203
5.8200e-08,0.0892719,-1.80016,0.0526125
5.8600e-08,0.0891187,-1.80172,0.0526719

