casb2/gain-delay/tek0004ALL.csv

Model,MSO4034B
Firmware Version,2.52

Waveform Type,ANALOG,,
Point Format,Y,,
Horizontal Units,s,,
Horizontal Scale,4e-09,,
Horizontal Delay,3.9e-08,,
Sample Interval,4e-10,,
Record Length,10000,,
Gating,49.4900% to 50.500%,,
Probe Attenuation,1,,
Vertical Units,V,,
Vertical Offset,0.0318,,
Vertical Scale,0.01,,
Vertical Position,-3.68,,
,,,
,,,
,,,
Label,,,
TIME,CH1,CH2,CH3
1.8600e-08,0.0882859,-1.80641,0.0531594
1.9000e-08,0.0883141,-1.79406,0.0534766
1.9400e-08,0.0882953,-1.7975,0.0531531
1.9800e-08,0.088325,-1.80297,0.0526469
2.0200e-08,0.0882625,-1.80672,0.0522484
2.0600e-08,0.0882953,-1.80141,0.0520172
2.1000e-08,0.0882906,-1.8025,0.0519406
2.1400e-08,0.0883047,-1.79844,0.0527172
2.1800e-08,0.0882406,-1.8025,0.0549172
2.2200e-08,0.0882453,-1.79969,0.0588484
2.2600e-08,0.08825,-1.79766,0.0632641
2.3000e-08,0.0882234,-1.80063,0.0671656
2.3400e-08,0.088225,-1.80531,0.0703031
2.3800e-08,0.0883047,-1.8025,0.0728188
2.4200e-08,0.0882937,-1.80563,0.075375
2.4600e-08,0.0883063,-1.80453,0.0779578
2.5000e-08,0.0883188,-1.80563,0.0795156
2.5400e-08,0.0883375,-1.80125,0.0797969
2.5800e-08,0.0882953,-1.79937,0.0795813
2.6200e-08,0.08825,-1.80172,0.0797453
2.6600e-08,0.0882406,-1.80313,0.0798578
2.7000e-08,0.0882922,-1.79875,0.0795938
2.7400e-08,0.0882937,-1.80422,0.0787906
2.7800e-08,0.0883469,-1.79906,0.0777641
2.8200e-08,0.0883078,-1.8025,0.0766891
2.8600e-08,0.0882781,-1.79937,0.0761906
2.9000e-08,0.0882047,-1.80203,0.0764781
2.9400e-08,0.0882344,-1.80047,0.0776641
2.9800e-08,0.0883188,-1.80406,0.0791453
3.0200e-08,0.0884,-1.80609,0.0801859
3.0600e-08,0.0883844,-1.8025,0.0807609
3.1000e-08,0.0883625,-1.80391,0.0809859
3.1400e-08,0.0883094,-1.80844,0.0810469
3.1800e-08,0.0883063,-1.79406,0.0810016
3.2200e-08,0.0882859,-1.80344,0.0804609
3.2600e-08,0.0883375,-1.80156,0.0788156
3.3000e-08,0.088325,-1.80609,0.0753609
3.3400e-08,0.0882703,-1.80391,0.0706922
3.3800e-08,0.0882062,-1.80328,0.0662969
3.4200e-08,0.0882547,-1.8,0.0629281
3.4600e-08,0.0882625,-1.80313,0.060225
3.5000e-08,0.088375,-1.80141,0.0580344
3.5400e-08,0.0883609,-1.80031,0.0564031
3.5800e-08,0.0882797,-1.80078,0.0555266
3.6200e-08,0.0881781,-1.80313,0.0552094
3.6600e-08,0.0881109,-1.79937,0.0548625
3.7000e-08,0.0881109,-1.80156,0.0545172
3.7400e-08,0.0883031,-1.80266,0.0543656
3.7800e-08,0.0884891,-1.80609,0.0543484
3.8200e-08,0.0886594,-1.79969,0.0543422
3.8600e-08,0.088625,-1.79969,0.0542672
3.9000e-08,0.0884687,-1.80125,0.0541703
3.9400e-08,0.088225,-1.8025,0.0540703
3.9800e-08,0.08815,-1.8,0.0539516
4.0200e-08,0.0882375,-1.80156,0.0536672
4.0600e-08,0.0889562,-1.79859,0.0533578
4.1000e-08,0.0900875,-1.80156,0.0529453
4.1400e-08,0.09175,-1.8,0.0527094
4.1800e-08,0.0935547,-1.80313,0.0526
4.2200e-08,0.0952516,-1.80281,0.0526812
4.2600e-08,0.0965828,-1.80234,0.0526844
4.3000e-08,0.0974984,-1.80375,0.0526484
4.3400e-08,0.0981109,-1.80078,0.0527438
4.3800e-08,0.0984656,-1.80125,0.0529172
4.4200e-08,0.0987203,-1.80922,0.0530078
4.4600e-08,0.0988734,-1.79703,0.0528969
4.5000e-08,0.0989609,-1.79844,0.0526172
4.5400e-08,0.0990078,-1.80141,0.0526063
4.5800e-08,0.0990047,-1.80594,0.0528062
4.6200e-08,0.0990844,-1.80109,0.0529938
4.6600e-08,0.0990219,-1.80203,0.0530359
4.7000e-08,0.0988734,-1.79891,0.0530656
4.7400e-08,0.0986422,-1.80313,0.0530047
4.7800e-08,0.0986281,-1.80141,0.052925
4.8200e-08,0.0988969,-1.80047,0.0527656
4.8600e-08,0.0994141,-1.80078,0.0525203
4.9000e-08,0.100034,-1.80391,0.0523438
4.9400e-08,0.100687,-1.80203,0.0522328
4.9800e-08,0.10102,-1.80156,0.0521141
5.0200e-08,0.101005,-1.80375,0.0522125
5.0600e-08,0.100716,-1.80578,0.0524938
5.1000e-08,0.100211,-1.80203,0.0528219
5.1400e-08,0.0993844,-1.79922,0.0529906
5.1800e-08,0.0982187,-1.79969,0.0529672
5.2200e-08,0.0968187,-1.80453,0.0527766
5.2600e-08,0.0953469,-1.79953,0.0525984
5.3000e-08,0.0939531,-1.80219,0.0523172
5.3400e-08,0.0930312,-1.7975,0.0522672
5.3800e-08,0.0923953,-1.80109,0.0523078
5.4200e-08,0.0921344,-1.79922,0.0524125
5.4600e-08,0.0919984,-1.80391,0.05245
5.5000e-08,0.0918641,-1.80266,0.0525562
5.5400e-08,0.0916359,-1.80547,0.0526641
5.5800e-08,0.0913234,-1.80563,0.0526906
5.6200e-08,0.0910391,-1.80187,0.0525766
5.6600e-08,0.0905859,-1.80172,0.0523547
5.7000e-08,0.0901187,-1.805,0.0521891
5.7400e-08,0.0898422,-1.79484,0.0523031
5.7800e-08,0.0894578,-1.80187,0.0523219
5.8200e-08,0.0892937,-1.8025,0.0523672
5.8600e-08,0.0891375,-1.805,0.0523922

