casb2/averages/tek0018ALL.csv

Model,MSO4034B
Firmware Version,2.52

Waveform Type,ANALOG,,
Point Format,Y,,
Horizontal Units,s,,
Horizontal Scale,4e-09,,
Horizontal Delay,3.9e-08,,
Sample Interval,4e-10,,
Record Length,10000,,
Gating,49.4900% to 50.500%,,
Probe Attenuation,1,,
Vertical Units,V,,
Vertical Offset,0.0318,,
Vertical Scale,0.01,,
Vertical Position,-3.68,,
,,,
,,,
,,,
Label,,,
TIME,CH1,CH2,CH3
1.8600e-08,0.088725,-1.81078,0.0532688
1.9000e-08,0.0887359,-1.79641,0.0535469
1.9400e-08,0.0887,-1.79875,0.053325
1.9800e-08,0.0886687,-1.80453,0.05285
2.0200e-08,0.0886141,-1.80609,0.0525156
2.0600e-08,0.0886703,-1.80437,0.0523188
2.1000e-08,0.0886734,-1.80219,0.0522375
2.1400e-08,0.0886875,-1.80172,0.0529734
2.1800e-08,0.0886437,-1.80422,0.0550703
2.2200e-08,0.0887094,-1.80344,0.0589344
2.2600e-08,0.0887797,-1.80047,0.0632766
2.3000e-08,0.0887437,-1.80125,0.0671891
2.3400e-08,0.0886469,-1.80578,0.0703281
2.3800e-08,0.0886641,-1.80297,0.0729047
2.4200e-08,0.0885719,-1.80594,0.0754625
2.4600e-08,0.0886297,-1.80406,0.0780719
2.5000e-08,0.0886469,-1.80766,0.0797359
2.5400e-08,0.0887406,-1.80016,0.0801188
2.5800e-08,0.0887063,-1.80156,0.0799016
2.6200e-08,0.0886484,-1.80297,0.0798828
2.6600e-08,0.0886328,-1.80578,0.0798719
2.7000e-08,0.0886953,-1.80219,0.0796
2.7400e-08,0.0886687,-1.80391,0.0787531
2.7800e-08,0.0887266,-1.79984,0.077825
2.8200e-08,0.0886844,-1.80234,0.0769156
2.8600e-08,0.0886578,-1.80078,0.0765984
2.9000e-08,0.0886,-1.80359,0.0769609
2.9400e-08,0.0886172,-1.80313,0.0780406
2.9800e-08,0.0886687,-1.80578,0.0794188
3.0200e-08,0.0887344,-1.80656,0.08035
3.0600e-08,0.0887797,-1.79953,0.0808641
3.1000e-08,0.0887437,-1.80359,0.0810141
3.1400e-08,0.0887078,-1.81062,0.0811
3.1800e-08,0.0887562,-1.79516,0.0811375
3.2200e-08,0.0887266,-1.79984,0.0806844
3.2600e-08,0.0887281,-1.80172,0.0792531
3.3000e-08,0.0886547,-1.80625,0.0758656
3.3400e-08,0.0886437,-1.80328,0.0711734
3.3800e-08,0.0885797,-1.80359,0.0666547
3.4200e-08,0.0885531,-1.80016,0.0631547
3.4600e-08,0.0885891,-1.80563,0.0603938
3.5000e-08,0.0887047,-1.80422,0.0582047
3.5400e-08,0.088775,-1.80203,0.0566563
3.5800e-08,0.0887625,-1.80172,0.0558875
3.6200e-08,0.0886906,-1.80313,0.0555109
3.6600e-08,0.0886453,-1.80172,0.0551563
3.7000e-08,0.0885766,-1.80203,0.0547859
3.7400e-08,0.0886266,-1.80516,0.0545906
3.7800e-08,0.0887172,-1.80672,0.0545469
3.8200e-08,0.0888781,-1.8,0.0544781
3.8600e-08,0.0889719,-1.80078,0.0543047
3.9000e-08,0.0889328,-1.80219,0.0542891
3.9400e-08,0.0888203,-1.80453,0.0543109
3.9800e-08,0.0887125,-1.80234,0.0542797
4.0200e-08,0.0886437,-1.805,0.0539875
4.0600e-08,0.0889172,-1.80031,0.0537469
4.1000e-08,0.089575,-1.80328,0.0534109
4.1400e-08,0.0907828,-1.80078,0.0531734
4.1800e-08,0.0923547,-1.80359,0.0530203
4.2200e-08,0.0940187,-1.80422,0.0529953
4.2600e-08,0.0955922,-1.80375,0.0529391
4.3000e-08,0.0968828,-1.80437,0.0528281
4.3400e-08,0.09795,-1.80297,0.0528484
4.3800e-08,0.0986047,-1.80328,0.0530922
4.4200e-08,0.0990187,-1.80781,0.0532281
4.4600e-08,0.0992297,-1.79922,0.0531828
4.5000e-08,0.0992687,-1.80031,0.0529688
4.5400e-08,0.0992359,-1.80172,0.0528969
4.5800e-08,0.0992203,-1.80781,0.0529672
4.6200e-08,0.0992219,-1.80313,0.0531953
4.6600e-08,0.0992203,-1.80313,0.0532453
4.7000e-08,0.0991812,-1.80281,0.0532313
4.7400e-08,0.0990609,-1.805,0.0531578
4.7800e-08,0.09905,-1.80297,0.0530984
4.8200e-08,0.0991891,-1.80109,0.0529969
4.8600e-08,0.0995031,-1.8025,0.0527531
4.9000e-08,0.09995,-1.80344,0.0525984
4.9400e-08,0.100434,-1.80391,0.0524594
4.9800e-08,0.100837,-1.80266,0.0524391
5.0200e-08,0.101058,-1.80547,0.0524328
5.0600e-08,0.101053,-1.80625,0.0525516
5.1000e-08,0.100955,-1.80219,0.0527859
5.1400e-08,0.100477,-1.80281,0.0529297
5.1800e-08,0.0996563,-1.80297,0.0529125
5.2200e-08,0.0984766,-1.80531,0.05275
5.2600e-08,0.0970031,-1.80219,0.0525906
5.3000e-08,0.0954281,-1.80531,0.0524266
5.3400e-08,0.0942172,-1.79922,0.0524969
5.3800e-08,0.0932219,-1.80047,0.0525438
5.4200e-08,0.0926828,-1.8,0.0526641
5.4600e-08,0.0923578,-1.80469,0.0526906
5.5000e-08,0.0922687,-1.80281,0.0528266
5.5400e-08,0.0921391,-1.80641,0.0529016
5.5800e-08,0.0920203,-1.80594,0.0528703
5.6200e-08,0.0917687,-1.80047,0.0527469
5.6600e-08,0.0914062,-1.80344,0.0525109
5.7000e-08,0.0909203,-1.80984,0.0524344
5.7400e-08,0.0905625,-1.79563,0.0525219
5.7800e-08,0.0901609,-1.80047,0.0525953
5.8200e-08,0.0898609,-1.80328,0.0526906
5.8600e-08,0.0896156,-1.80547,0.0527828

