casb2/averages/tek0000ALL.csv

Model,MSO4034B
Firmware Version,2.52

Waveform Type,ANALOG,,
Point Format,Y,,
Horizontal Units,s,,
Horizontal Scale,4e-09,,
Horizontal Delay,3.9e-08,,
Sample Interval,4e-10,,
Record Length,10000,,
Gating,49.4900% to 50.500%,,
Probe Attenuation,1,,
Vertical Units,V,,
Vertical Offset,0.0318,,
Vertical Scale,0.01,,
Vertical Position,-3.68,,
,,,
,,,
,,,
Label,,,
TIME,CH1,CH2,CH3
1.8600e-08,0.0881437,-1.80703,0.0529078
1.9000e-08,0.0882875,-1.79266,0.0532297
1.9400e-08,0.0882875,-1.79641,0.0529984
1.9800e-08,0.0882203,-1.79969,0.0525328
2.0200e-08,0.0880891,-1.80313,0.0522141
2.0600e-08,0.0880266,-1.80172,0.0520469
2.1000e-08,0.0880297,-1.80234,0.0520516
2.1400e-08,0.0881328,-1.79672,0.0527641
2.1800e-08,0.0881234,-1.80297,0.0549219
2.2200e-08,0.088175,-1.80063,0.0588219
2.2600e-08,0.0882219,-1.79484,0.063175
2.3000e-08,0.08815,-1.79547,0.0669734
2.3400e-08,0.0880891,-1.80109,0.070075
2.3800e-08,0.0881281,-1.79922,0.0726188
2.4200e-08,0.0881312,-1.80141,0.0752141
2.4600e-08,0.0881344,-1.80266,0.0779359
2.5000e-08,0.0881094,-1.80375,0.0796422
2.5400e-08,0.0881656,-1.79328,0.0800047
2.5800e-08,0.0881578,-1.79391,0.0797687
2.6200e-08,0.0881687,-1.79797,0.0796969
2.6600e-08,0.0881766,-1.80078,0.0795859
2.7000e-08,0.0882516,-1.79844,0.07915
2.7400e-08,0.0882156,-1.80094,0.0783563
2.7800e-08,0.0882234,-1.79734,0.0774875
2.8200e-08,0.0881391,-1.79969,0.0766719
2.8600e-08,0.0880937,-1.79922,0.0763547
2.9000e-08,0.0880734,-1.79969,0.0767406
2.9400e-08,0.0881125,-1.79937,0.0779078
2.9800e-08,0.0881453,-1.80281,0.0791672
3.0200e-08,0.0882187,-1.80375,0.0800672
3.0600e-08,0.0882812,-1.79609,0.0804406
3.1000e-08,0.0882437,-1.79906,0.0806516
3.1400e-08,0.0881766,-1.80547,0.0807688
3.1800e-08,0.0882547,-1.79344,0.0808969
3.2200e-08,0.0881594,-1.79703,0.0805437
3.2600e-08,0.0881437,-1.79844,0.0790391
3.3000e-08,0.0880797,-1.80141,0.0756016
3.3400e-08,0.0880656,-1.80156,0.0707297
3.3800e-08,0.0880359,-1.80156,0.0661578
3.4200e-08,0.0880172,-1.79797,0.0626344
3.4600e-08,0.0881125,-1.80219,0.0599359
3.5000e-08,0.0882578,-1.79906,0.0578781
3.5400e-08,0.0883156,-1.79828,0.0563703
3.5800e-08,0.0882781,-1.79844,0.0555672
3.6200e-08,0.0881016,-1.8,0.0552438
3.6600e-08,0.0880281,-1.79828,0.0549234
3.7000e-08,0.0879891,-1.80031,0.0545281
3.7400e-08,0.0881219,-1.79937,0.0543391
3.7800e-08,0.0882469,-1.80328,0.0542219
3.8200e-08,0.0884094,-1.79359,0.0541641
3.8600e-08,0.0884312,-1.79516,0.0540156
3.9000e-08,0.0883219,-1.79781,0.0539422
3.9400e-08,0.0881687,-1.80125,0.0540078
3.9800e-08,0.0880781,-1.79969,0.0539469
4.0200e-08,0.0881375,-1.80125,0.0537281
4.0600e-08,0.0886937,-1.79875,0.0534172
4.1000e-08,0.0897031,-1.79953,0.0530516
4.1400e-08,0.0912687,-1.8,0.05285
4.1800e-08,0.0930344,-1.79984,0.0526797
4.2200e-08,0.0947141,-1.79797,0.0526344
4.2600e-08,0.096075,-1.79844,0.0525344
4.3000e-08,0.0970594,-1.80219,0.0524781
4.3400e-08,0.097775,-1.79875,0.0525313
4.3800e-08,0.098275,-1.80078,0.0528203
4.4200e-08,0.0985375,-1.80672,0.0529516
4.4600e-08,0.0988234,-1.79422,0.0529641
4.5000e-08,0.0989516,-1.79672,0.0527328
4.5400e-08,0.0989406,-1.79906,0.0526922
4.5800e-08,0.0988562,-1.80359,0.0528031
4.6200e-08,0.0987641,-1.80047,0.0529266
4.6600e-08,0.0986703,-1.79781,0.0529437
4.7000e-08,0.0986406,-1.79656,0.0528844
4.7400e-08,0.0985781,-1.80109,0.0528203
4.7800e-08,0.0986859,-1.79969,0.0527469
4.8200e-08,0.0989484,-1.79781,0.0526563
4.8600e-08,0.0993562,-1.79766,0.0525063
4.9000e-08,0.0998797,-1.80297,0.0523953
4.9400e-08,0.100355,-1.79578,0.0522844
4.9800e-08,0.100628,-1.79937,0.0521719
5.0200e-08,0.100684,-1.80203,0.0522281
5.0600e-08,0.100481,-1.80422,0.0523766
5.1000e-08,0.10015,-1.7975,0.0526
5.1400e-08,0.0995453,-1.79438,0.0527328
5.1800e-08,0.0985969,-1.79703,0.0526984
5.2200e-08,0.097275,-1.79969,0.0525313
5.2600e-08,0.0957172,-1.79844,0.0523844
5.3000e-08,0.0941531,-1.80156,0.0522047
5.3400e-08,0.0930016,-1.79672,0.0522578
5.3800e-08,0.0922375,-1.79875,0.0523609
5.4200e-08,0.0919813,-1.79844,0.0524266
5.4600e-08,0.0918922,-1.80109,0.0524563
5.5000e-08,0.0919125,-1.79953,0.0525047
5.5400e-08,0.0917562,-1.80125,0.0525781
5.5800e-08,0.0914562,-1.80297,0.0525375
5.6200e-08,0.0911047,-1.79594,0.0523719
5.6600e-08,0.0905984,-1.79953,0.0521391
5.7000e-08,0.09005,-1.80563,0.0520828
5.7400e-08,0.0897141,-1.79344,0.0523
5.7800e-08,0.08935,-1.7975,0.0523703
5.8200e-08,0.0890625,-1.80031,0.0524406
5.8600e-08,0.0889016,-1.80281,0.0525063

