data/casb2/noise/tek0003CH1.csv

Model,MSO4034B
Firmware Version,2.52

Waveform Type,ANALOG
Point Format,Y
Horizontal Units,s
Horizontal Scale,4e-08
Horizontal Delay,4e-08
Sample Interval,4e-10
Record Length,10000
Gating,44.9900% to 55.00%
Probe Attenuation,1
Vertical Units,V
Vertical Offset,0.06024
Vertical Scale,0.001
Vertical Position,-5
,
,
,
Label,
TIME,CH1
-1.6040e-07,0.0662
-1.6000e-07,0.06592
-1.5960e-07,0.06556
-1.5920e-07,0.06536
-1.5880e-07,0.06528
-1.5840e-07,0.06548
-1.5800e-07,0.0656
-1.5760e-07,0.06552
-1.5720e-07,0.0654
-1.5680e-07,0.06532
-1.5640e-07,0.06536
-1.5600e-07,0.0656
-1.5560e-07,0.06576
-1.5520e-07,0.06576
-1.5480e-07,0.06552
-1.5440e-07,0.06536
-1.5400e-07,0.06532
-1.5360e-07,0.0656
-1.5320e-07,0.06592
-1.5280e-07,0.0662
-1.5240e-07,0.06632
-1.5200e-07,0.066
-1.5160e-07,0.0656
-1.5120e-07,0.06528
-1.5080e-07,0.06532
-1.5040e-07,0.0656
-1.5000e-07,0.06596
-1.4960e-07,0.06616
-1.4920e-07,0.0664
-1.4880e-07,0.06648
-1.4840e-07,0.06656
-1.4800e-07,0.06636
-1.4760e-07,0.06604
-1.4720e-07,0.06596
-1.4680e-07,0.06616
-1.4640e-07,0.06644
-1.4600e-07,0.06644
-1.4560e-07,0.06632
-1.4520e-07,0.06584
-1.4480e-07,0.06536
-1.4440e-07,0.0652
-1.4400e-07,0.06536
-1.4360e-07,0.0656
-1.4320e-07,0.06568
-1.4280e-07,0.0658
-1.4240e-07,0.06592
-1.4200e-07,0.06612
-1.4160e-07,0.0664
-1.4120e-07,0.06656
-1.4080e-07,0.06648
-1.4040e-07,0.06632
-1.4000e-07,0.06632
-1.3960e-07,0.06648
-1.3920e-07,0.06628
-1.3880e-07,0.0658
-1.3840e-07,0.06524
-1.3800e-07,0.06512
-1.3760e-07,0.0658
-1.3720e-07,0.06692
-1.3680e-07,0.06776
-1.3640e-07,0.06756
-1.3600e-07,0.06628
-1.3560e-07,0.06488
-1.3520e-07,0.06392
-1.3480e-07,0.064
-1.3440e-07,0.06452
-1.3400e-07,0.06512
-1.3360e-07,0.06532
-1.3320e-07,0.06544
-1.3280e-07,0.06548
-1.3240e-07,0.06544
-1.3200e-07,0.06536
-1.3160e-07,0.06544
-1.3120e-07,0.06576
-1.3080e-07,0.06612
-1.3040e-07,0.06644
-1.3000e-07,0.06692
-1.2960e-07,0.0672
-1.2920e-07,0.06728
-1.2880e-07,0.06708
-1.2840e-07,0.06676
-1.2800e-07,0.06644
-1.2760e-07,0.06636
-1.2720e-07,0.06648
-1.2680e-07,0.06652
-1.2640e-07,0.06628
-1.2600e-07,0.066
-1.2560e-07,0.06592
-1.2520e-07,0.06608
-1.2480e-07,0.06648
-1.2440e-07,0.06676
-1.2400e-07,0.06664
-1.2360e-07,0.06612
-1.2320e-07,0.06564
-1.2280e-07,0.0656
-1.2240e-07,0.06592
-1.2200e-07,0.06628
-1.2160e-07,0.06636
-1.2120e-07,0.06624
-1.2080e-07,0.066
-1.2040e-07,0.06588
-1.2000e-07,0.06596
-1.1960e-07,0.06612
-1.1920e-07,0.06628
-1.1880e-07,0.06656
-1.1840e-07,0.06684
-1.1800e-07,0.067
-1.1760e-07,0.06676
-1.1720e-07,0.06624
-1.1680e-07,0.06536
-1.1640e-07,0.06468
-1.1600e-07,0.06436
-1.1560e-07,0.06472
-1.1520e-07,0.06532
-1.1480e-07,0.066
-1.1440e-07,0.06664
-1.1400e-07,0.06704
-1.1360e-07,0.06712
-1.1320e-07,0.067
-1.1280e-07,0.06676
-1.1240e-07,0.0664
-1.1200e-07,0.06596
-1.1160e-07,0.06556
-1.1120e-07,0.06524
-1.1080e-07,0.0652
-1.1040e-07,0.06528
-1.1000e-07,0.06552
-1.0960e-07,0.06552
-1.0920e-07,0.06524
-1.0880e-07,0.06508
-1.0840e-07,0.06528
-1.0800e-07,0.06564
-1.0760e-07,0.066
-1.0720e-07,0.06644
-1.0680e-07,0.06656
-1.0640e-07,0.06664
-1.0600e-07,0.06668
-1.0560e-07,0.06676
-1.0520e-07,0.06652
-1.0480e-07,0.066
-1.0440e-07,0.06552
-1.0400e-07,0.06532
-1.0360e-07,0.0654
-1.0320e-07,0.06576
-1.0280e-07,0.06608
-1.0240e-07,0.06604
-1.0200e-07,0.0658
-1.0160e-07,0.0656
-1.0120e-07,0.06564
-1.0080e-07,0.06568
-1.0040e-07,0.06564
-1.0000e-07,0.06552
-9.9600e-08,0.06552
-9.9200e-08,0.06536
-9.8800e-08,0.06516
-9.8400e-08,0.0648
-9.8000e-08,0.06456
-9.7600e-08,0.06488
-9.7200e-08,0.066
-9.6800e-08,0.06708
-9.6400e-08,0.0674
-9.6000e-08,0.06648
-9.5600e-08,0.06512
-9.5200e-08,0.06428
-9.4800e-08,0.06452
-9.4400e-08,0.06564
-9.4000e-08,0.06676
-9.3600e-08,0.06736
-9.3200e-08,0.06752
-9.2800e-08,0.06748
-9.2400e-08,0.0672
-9.2000e-08,0.0668
-9.1600e-08,0.06628
-9.1200e-08,0.0658
-9.0800e-08,0.06532
-9.0400e-08,0.0654
-9.0000e-08,0.06596
-8.9600e-08,0.06652
-8.9200e-08,0.06676
-8.8800e-08,0.06668
-8.8400e-08,0.06616
-8.8000e-08,0.0654
-8.7600e-08,0.06472
-8.7200e-08,0.06448
-8.6800e-08,0.06476
-8.6400e-08,0.06532
-8.6000e-08,0.06588
-8.5600e-08,0.06632
-8.5200e-08,0.06652
-8.4800e-08,0.0666
-8.4400e-08,0.06656
-8.4000e-08,0.0662
-8.3600e-08,0.06568
-8.3200e-08,0.06548
-8.2800e-08,0.066
-8.2400e-08,0.06708
-8.2000e-08,0.06788
-8.1600e-08,0.06812
-8.1200e-08,0.0676
-8.0800e-08,0.06676
-8.0400e-08,0.0662
-8.0000e-08,0.066
-7.9600e-08,0.06608
-7.9200e-08,0.06584
-7.8800e-08,0.06564
-7.8400e-08,0.06568
-7.8000e-08,0.06604
-7.7600e-08,0.0666
-7.7200e-08,0.06716
-7.6800e-08,0.06724
-7.6400e-08,0.06688
-7.6000e-08,0.06628
-7.5600e-08,0.06572
-7.5200e-08,0.06552
-7.4800e-08,0.0656
-7.4400e-08,0.06592
-7.4000e-08,0.0662
-7.3600e-08,0.06628
-7.3200e-08,0.06612
-7.2800e-08,0.06576
-7.2400e-08,0.06532
-7.2000e-08,0.06516
-7.1600e-08,0.06516
-7.1200e-08,0.06532
-7.0800e-08,0.06568
-7.0400e-08,0.06612
-7.0000e-08,0.06648
-6.9600e-08,0.06652
-6.9200e-08,0.0662
-6.8800e-08,0.0656
-6.8400e-08,0.06504
-6.8000e-08,0.06488
-6.7600e-08,0.06508
-6.7200e-08,0.06564
-6.6800e-08,0.06608
-6.6400e-08,0.0662
-6.6000e-08,0.06616
-6.5600e-08,0.0664
-6.5200e-08,0.06672
-6.4800e-08,0.06676
-6.4400e-08,0.06644
-6.4000e-08,0.06568
-6.3600e-08,0.06488
-6.3200e-08,0.06444
-6.2800e-08,0.06468
-6.2400e-08,0.06516
-6.2000e-08,0.06552
-6.1600e-08,0.06548
-6.1200e-08,0.06508
-6.0800e-08,0.06456
-6.0400e-08,0.06456
-6.0000e-08,0.06512
-5.9600e-08,0.06604
-5.9200e-08,0.06672
-5.8800e-08,0.06716
-5.8400e-08,0.06728
-5.8000e-08,0.06716
-5.7600e-08,0.06684
-5.7200e-08,0.06652
-5.6800e-08,0.06668
-5.6400e-08,0.06712
-5.6000e-08,0.06768
-5.5600e-08,0.06776
-5.5200e-08,0.06724
-5.4800e-08,0.06664
-5.4400e-08,0.06644
-5.4000e-08,0.06696
-5.3600e-08,0.06764
-5.3200e-08,0.06784
-5.2800e-08,0.06744
-5.2400e-08,0.06648
-5.2000e-08,0.0656
-5.1600e-08,0.06516
-5.1200e-08,0.06512
-5.0800e-08,0.06524
-5.0400e-08,0.0654
-5.0000e-08,0.06564
-4.9600e-08,0.06576
-4.9200e-08,0.06568
-4.8800e-08,0.06532
-4.8400e-08,0.06468
-4.8000e-08,0.0642
-4.7600e-08,0.06424
-4.7200e-08,0.06492
-4.6800e-08,0.06604
-4.6400e-08,0.06708
-4.6000e-08,0.0676
-4.5600e-08,0.06732
-4.5200e-08,0.06632
-4.4800e-08,0.06536
-4.4400e-08,0.06496
-4.4000e-08,0.0654
-4.3600e-08,0.06624
-4.3200e-08,0.06696
-4.2800e-08,0.06716
-4.2400e-08,0.06696
-4.2000e-08,0.06664
-4.1600e-08,0.06636
-4.1200e-08,0.06612
-4.0800e-08,0.06572
-4.0400e-08,0.0652
-4.0000e-08,0.06492
-3.9600e-08,0.0652
-3.9200e-08,0.0658
-3.8800e-08,0.06628
-3.8400e-08,0.0664
-3.8000e-08,0.06616
-3.7600e-08,0.06572
-3.7200e-08,0.0654
-3.6800e-08,0.06524
-3.6400e-08,0.06512
-3.6000e-08,0.06508
-3.5600e-08,0.06516
-3.5200e-08,0.06556
-3.4800e-08,0.06612
-3.4400e-08,0.06664
-3.4000e-08,0.06672
-3.3600e-08,0.0664
-3.3200e-08,0.06568
-3.2800e-08,0.06512
-3.2400e-08,0.06496
-3.2000e-08,0.0652
-3.1600e-08,0.06548
-3.1200e-08,0.06592
-3.0800e-08,0.06612
-3.0400e-08,0.066
-3.0000e-08,0.06568
-2.9600e-08,0.06548
-2.9200e-08,0.06528
-2.8800e-08,0.06508
-2.8400e-08,0.06504
-2.8000e-08,0.06516
-2.7600e-08,0.06544
-2.7200e-08,0.06576
-2.6800e-08,0.06592
-2.6400e-08,0.06596
-2.6000e-08,0.06596
-2.5600e-08,0.066
-2.5200e-08,0.06608
-2.4800e-08,0.06592
-2.4400e-08,0.0656
-2.4000e-08,0.06544
-2.3600e-08,0.0656
-2.3200e-08,0.06608
-2.2800e-08,0.06664
-2.2400e-08,0.06716
-2.2000e-08,0.06736
-2.1600e-08,0.06708
-2.1200e-08,0.06636
-2.0800e-08,0.06548
-2.0400e-08,0.06496
-2.0000e-08,0.06496
-1.9600e-08,0.06528
-1.9200e-08,0.0656
-1.8800e-08,0.06556
-1.8400e-08,0.06528
-1.8000e-08,0.06492
-1.7600e-08,0.06468
-1.7200e-08,0.06464
-1.6800e-08,0.06492
-1.6400e-08,0.06528
-1.6000e-08,0.06552
-1.5600e-08,0.0654
-1.5200e-08,0.06508
-1.4800e-08,0.06456
-1.4400e-08,0.06444
-1.4000e-08,0.06484
-1.3600e-08,0.06576
-1.3200e-08,0.0664
-1.2800e-08,0.06596
-1.2400e-08,0.06484
-1.2000e-08,0.06384
-1.1600e-08,0.06368
-1.1200e-08,0.0644
-1.0800e-08,0.0654
-1.0400e-08,0.06628
-1.0000e-08,0.06664
-9.6000e-09,0.0666
-9.2000e-09,0.06628
-8.8000e-09,0.06584
-8.4000e-09,0.06532
-8.0000e-09,0.06492
-7.6000e-09,0.06468
-7.2000e-09,0.06484
-6.8000e-09,0.06536
-6.4000e-09,0.06604
-6.0000e-09,0.0666
-5.6000e-09,0.06688
-5.2000e-09,0.0666
-4.8000e-09,0.066
-4.4000e-09,0.06548
-4.0000e-09,0.06536
-3.6000e-09,0.06552
-3.2000e-09,0.06568
-2.8000e-09,0.06564
-2.4000e-09,0.06532
-2.0000e-09,0.06504
-1.6000e-09,0.06496
-1.2000e-09,0.06508
-8.0000e-10,0.065
-4.0000e-10,0.0648
0.0000e+00,0.06456
4.0000e-10,0.06468
8.0000e-10,0.06524
1.2000e-09,0.06592
1.6000e-09,0.06652
2.0000e-09,0.0666
2.4000e-09,0.06624
2.8000e-09,0.06608
3.2000e-09,0.06612
3.6000e-09,0.06628
4.0000e-09,0.06644
4.4000e-09,0.06644
4.8000e-09,0.06612
5.2000e-09,0.06592
5.6000e-09,0.06608
6.0000e-09,0.06644
6.4000e-09,0.06672
6.8000e-09,0.06684
7.2000e-09,0.06664
7.6000e-09,0.06636
8.0000e-09,0.06608
8.4000e-09,0.06608
8.8000e-09,0.0662
9.2000e-09,0.0662
9.6000e-09,0.06632
1.0000e-08,0.06636
1.0400e-08,0.06656
1.0800e-08,0.0666
1.1200e-08,0.06636
1.1600e-08,0.06592
1.2000e-08,0.06532
1.2400e-08,0.065
1.2800e-08,0.06504
1.3200e-08,0.06544
1.3600e-08,0.06604
1.4000e-08,0.06648
1.4400e-08,0.0666
1.4800e-08,0.06624
1.5200e-08,0.06568
1.5600e-08,0.06516
1.6000e-08,0.06496
1.6400e-08,0.06504
1.6800e-08,0.06524
1.7200e-08,0.0654
1.7600e-08,0.06544
1.8000e-08,0.0654
1.8400e-08,0.06532
1.8800e-08,0.06516
1.9200e-08,0.06516
1.9600e-08,0.06524
2.0000e-08,0.06536
2.0400e-08,0.06552
2.0800e-08,0.06564
2.1200e-08,0.06572
2.1600e-08,0.06552
2.2000e-08,0.06524
2.2400e-08,0.06524
2.2800e-08,0.0654
2.3200e-08,0.06588
2.3600e-08,0.06616
2.4000e-08,0.06612
2.4400e-08,0.066
2.4800e-08,0.06584
2.5200e-08,0.06576
2.5600e-08,0.06588
2.6000e-08,0.06608
2.6400e-08,0.06648
2.6800e-08,0.06684
2.7200e-08,0.06724
2.7600e-08,0.06688
2.8000e-08,0.0658
2.8400e-08,0.06468
2.8800e-08,0.06436
2.9200e-08,0.06512
2.9600e-08,0.06636
3.0000e-08,0.0672
3.0400e-08,0.06708
3.0800e-08,0.06628
3.1200e-08,0.06524
3.1600e-08,0.06476
3.2000e-08,0.06464
3.2400e-08,0.06484
3.2800e-08,0.065
3.3200e-08,0.065
3.3600e-08,0.06504
3.4000e-08,0.06508
3.4400e-08,0.065
3.4800e-08,0.06476
3.5200e-08,0.06436
3.5600e-08,0.06428
3.6000e-08,0.06456
3.6400e-08,0.06536
3.6800e-08,0.0662
3.7200e-08,0.06684
3.7600e-08,0.067
3.8000e-08,0.06676
3.8400e-08,0.06628
3.8800e-08,0.06592
3.9200e-08,0.0656
3.9600e-08,0.0654
4.0000e-08,0.06532
4.0400e-08,0.06524
4.0800e-08,0.06524
4.1200e-08,0.06564
4.1600e-08,0.06624
4.2000e-08,0.06672
4.2400e-08,0.06676
4.2800e-08,0.06632
4.3200e-08,0.06568
4.3600e-08,0.06524
4.4000e-08,0.06528
4.4400e-08,0.06568
4.4800e-08,0.06616
4.5200e-08,0.0666
4.5600e-08,0.06692
4.6000e-08,0.06704
4.6400e-08,0.0668
4.6800e-08,0.0664
4.7200e-08,0.06584
4.7600e-08,0.0656
4.8000e-08,0.06568
4.8400e-08,0.06608
4.8800e-08,0.06656
4.9200e-08,0.06688
4.9600e-08,0.06684
5.0000e-08,0.06648
5.0400e-08,0.06604
5.0800e-08,0.0658
5.1200e-08,0.06564
5.1600e-08,0.06588
5.2000e-08,0.0664
5.2400e-08,0.06712
5.2800e-08,0.06752
5.3200e-08,0.06756
5.3600e-08,0.06716
5.4000e-08,0.06652
5.4400e-08,0.06592
5.4800e-08,0.06552
5.5200e-08,0.0652
5.5600e-08,0.065
5.6000e-08,0.06504
5.6400e-08,0.06528
5.6800e-08,0.0656
5.7200e-08,0.06576
5.7600e-08,0.06568
5.8000e-08,0.06528
5.8400e-08,0.065
5.8800e-08,0.06484
5.9200e-08,0.065
5.9600e-08,0.06532
6.0000e-08,0.06576
6.0400e-08,0.0662
6.0800e-08,0.06648
6.1200e-08,0.06664
6.1600e-08,0.06648
6.2000e-08,0.06584
6.2400e-08,0.065
6.2800e-08,0.06436
6.3200e-08,0.06416
6.3600e-08,0.0646
6.4000e-08,0.06524
6.4400e-08,0.06576
6.4800e-08,0.06596
6.5200e-08,0.06576
6.5600e-08,0.06532
6.6000e-08,0.06492
6.6400e-08,0.06476
6.6800e-08,0.0652
6.7200e-08,0.06592
6.7600e-08,0.06644
6.8000e-08,0.06644
6.8400e-08,0.06592
6.8800e-08,0.06524
6.9200e-08,0.06484
6.9600e-08,0.06512
7.0000e-08,0.06552
7.0400e-08,0.06564
7.0800e-08,0.06532
7.1200e-08,0.065
7.1600e-08,0.065
7.2000e-08,0.06524
7.2400e-08,0.06568
7.2800e-08,0.06608
7.3200e-08,0.06624
7.3600e-08,0.06632
7.4000e-08,0.06632
7.4400e-08,0.06616
7.4800e-08,0.06572
7.5200e-08,0.06516
7.5600e-08,0.06508
7.6000e-08,0.06532
7.6400e-08,0.06584
7.6800e-08,0.06632
7.7200e-08,0.0664
7.7600e-08,0.06592
7.8000e-08,0.06516
7.8400e-08,0.0644
7.8800e-08,0.06396
7.9200e-08,0.06404
7.9600e-08,0.06456
8.0000e-08,0.06512
8.0400e-08,0.06536
8.0800e-08,0.06532
8.1200e-08,0.06548
8.1600e-08,0.06572
8.2000e-08,0.06616
8.2400e-08,0.06648
8.2800e-08,0.06648
8.3200e-08,0.06636
8.3600e-08,0.06604
8.4000e-08,0.06604
8.4400e-08,0.06616
8.4800e-08,0.06632
8.5200e-08,0.06644
8.5600e-08,0.06648
8.6000e-08,0.06664
8.6400e-08,0.0666
8.6800e-08,0.06656
8.7200e-08,0.0666
8.7600e-08,0.06676
8.8000e-08,0.06704
8.8400e-08,0.06724
8.8800e-08,0.06708
8.9200e-08,0.06672
8.9600e-08,0.06632
9.0000e-08,0.06608
9.0400e-08,0.06572
9.0800e-08,0.06524
9.1200e-08,0.06484
9.1600e-08,0.06492
9.2000e-08,0.06532
9.2400e-08,0.06592
9.2800e-08,0.06628
9.3200e-08,0.06628
9.3600e-08,0.06584
9.4000e-08,0.06548
9.4400e-08,0.0654
9.4800e-08,0.06564
9.5200e-08,0.06592
9.5600e-08,0.06608
9.6000e-08,0.06616
9.6400e-08,0.06612
9.6800e-08,0.06612
9.7200e-08,0.06612
9.7600e-08,0.06592
9.8000e-08,0.06568
9.8400e-08,0.06568
9.8800e-08,0.066
9.9200e-08,0.06656
9.9600e-08,0.06692
1.0000e-07,0.06696
1.0040e-07,0.0666
1.0080e-07,0.06624
1.0120e-07,0.06596
1.0160e-07,0.06584
1.0200e-07,0.06572
1.0240e-07,0.06572
1.0280e-07,0.06576
1.0320e-07,0.0658
1.0360e-07,0.06568
1.0400e-07,0.06552
1.0440e-07,0.06548
1.0480e-07,0.06556
1.0520e-07,0.06564
1.0560e-07,0.06572
1.0600e-07,0.06576
1.0640e-07,0.06588
1.0680e-07,0.06608
1.0720e-07,0.06624
1.0760e-07,0.0662
1.0800e-07,0.066
1.0840e-07,0.06564
1.0880e-07,0.06528
1.0920e-07,0.06516
1.0960e-07,0.06536
1.1000e-07,0.06596
1.1040e-07,0.06672
1.1080e-07,0.0672
1.1120e-07,0.06692
1.1160e-07,0.0662
1.1200e-07,0.0656
1.1240e-07,0.06584
1.1280e-07,0.06664
1.1320e-07,0.0674
1.1360e-07,0.06744
1.1400e-07,0.06676
1.1440e-07,0.06592
1.1480e-07,0.06544
1.1520e-07,0.06552
1.1560e-07,0.06588
1.1600e-07,0.06616
1.1640e-07,0.06612
1.1680e-07,0.06568
1.1720e-07,0.06524
1.1760e-07,0.06488
1.1800e-07,0.0648
1.1840e-07,0.06488
1.1880e-07,0.06512
1.1920e-07,0.06532
1.1960e-07,0.06548
1.2000e-07,0.06572
1.2040e-07,0.06564
1.2080e-07,0.06544
1.2120e-07,0.06516
1.2160e-07,0.06512
1.2200e-07,0.0654
1.2240e-07,0.06564
1.2280e-07,0.06572
1.2320e-07,0.0654
1.2360e-07,0.06476
1.2400e-07,0.06428
1.2440e-07,0.06448
1.2480e-07,0.06548
1.2520e-07,0.06652
1.2560e-07,0.06684
1.2600e-07,0.0662
1.2640e-07,0.06524
1.2680e-07,0.06452
1.2720e-07,0.06464
1.2760e-07,0.06532
1.2800e-07,0.06596
1.2840e-07,0.06632
1.2880e-07,0.06612
1.2920e-07,0.06564
1.2960e-07,0.06516
1.3000e-07,0.06472
1.3040e-07,0.06444
1.3080e-07,0.06448
1.3120e-07,0.06496
1.3160e-07,0.06564
1.3200e-07,0.06636
1.3240e-07,0.06668
1.3280e-07,0.06648
1.3320e-07,0.06596
1.3360e-07,0.06532
1.3400e-07,0.06492
1.3440e-07,0.06492
1.3480e-07,0.06504
1.3520e-07,0.0652
1.3560e-07,0.0654
1.3600e-07,0.06564
1.3640e-07,0.06572
1.3680e-07,0.0658
1.3720e-07,0.06592
1.3760e-07,0.06612
1.3800e-07,0.06604
1.3840e-07,0.06576
1.3880e-07,0.06532
1.3920e-07,0.06516
1.3960e-07,0.06516
1.4000e-07,0.06528
1.4040e-07,0.06536
1.4080e-07,0.06544
1.4120e-07,0.06572
1.4160e-07,0.066
1.4200e-07,0.06628
1.4240e-07,0.0662
1.4280e-07,0.066
1.4320e-07,0.06576
1.4360e-07,0.0658
1.4400e-07,0.06592
1.4440e-07,0.0662
1.4480e-07,0.0664
1.4520e-07,0.06648
1.4560e-07,0.0666
1.4600e-07,0.06688
1.4640e-07,0.06696
1.4680e-07,0.06688
1.4720e-07,0.06656
1.4760e-07,0.06612
1.4800e-07,0.06572
1.4840e-07,0.06548
1.4880e-07,0.0654
1.4920e-07,0.06544
1.4960e-07,0.06572
1.5000e-07,0.06608
1.5040e-07,0.06632
1.5080e-07,0.06616
1.5120e-07,0.06572
1.5160e-07,0.06496
1.5200e-07,0.06428
1.5240e-07,0.0642
1.5280e-07,0.06508
1.5320e-07,0.06636
1.5360e-07,0.06716
1.5400e-07,0.06664
1.5440e-07,0.0654
1.5480e-07,0.06432
1.5520e-07,0.06404
1.5560e-07,0.06468
1.5600e-07,0.06584
1.5640e-07,0.06684
1.5680e-07,0.06736
1.5720e-07,0.0674
1.5760e-07,0.06712
1.5800e-07,0.06644
1.5840e-07,0.06544
1.5880e-07,0.0646
1.5920e-07,0.06408
1.5960e-07,0.06416
1.6000e-07,0.06472
1.6040e-07,0.0652
1.6080e-07,0.06532
1.6120e-07,0.06512
1.6160e-07,0.0648
1.6200e-07,0.06452
1.6240e-07,0.06432
1.6280e-07,0.0644
1.6320e-07,0.06472
1.6360e-07,0.06496
1.6400e-07,0.06508
1.6440e-07,0.06528
1.6480e-07,0.06576
1.6520e-07,0.06628
1.6560e-07,0.0666
1.6600e-07,0.0666
1.6640e-07,0.06588
1.6680e-07,0.06508
1.6720e-07,0.0648
1.6760e-07,0.06524
1.6800e-07,0.066
1.6840e-07,0.0666
1.6880e-07,0.06668
1.6920e-07,0.06628
1.6960e-07,0.06568
1.7000e-07,0.06532
1.7040e-07,0.06512
1.7080e-07,0.06496
1.7120e-07,0.06492
1.7160e-07,0.0652
1.7200e-07,0.06552
1.7240e-07,0.0658
1.7280e-07,0.066
1.7320e-07,0.06608
1.7360e-07,0.06568
1.7400e-07,0.06524
1.7440e-07,0.065
1.7480e-07,0.06516
1.7520e-07,0.06532
1.7560e-07,0.0656
1.7600e-07,0.06596
1.7640e-07,0.06616
1.7680e-07,0.06596
1.7720e-07,0.0658
1.7760e-07,0.06568
1.7800e-07,0.0656
1.7840e-07,0.0656
1.7880e-07,0.06564
1.7920e-07,0.06576
1.7960e-07,0.06584
1.8000e-07,0.06608
1.8040e-07,0.0662
1.8080e-07,0.06596
1.8120e-07,0.06576
1.8160e-07,0.06572
1.8200e-07,0.06564
1.8240e-07,0.06564
1.8280e-07,0.06564
1.8320e-07,0.06568
1.8360e-07,0.06564
1.8400e-07,0.0656
1.8440e-07,0.06576
1.8480e-07,0.06604
1.8520e-07,0.06624
1.8560e-07,0.06632
1.8600e-07,0.06624
1.8640e-07,0.06604
1.8680e-07,0.0658
1.8720e-07,0.06592
1.8760e-07,0.06616
1.8800e-07,0.06636
1.8840e-07,0.06648
1.8880e-07,0.06644
1.8920e-07,0.06624
1.8960e-07,0.06608
1.9000e-07,0.06624
1.9040e-07,0.06636
1.9080e-07,0.06632
1.9120e-07,0.06604
1.9160e-07,0.06564
1.9200e-07,0.06508
1.9240e-07,0.06444
1.9280e-07,0.06436
1.9320e-07,0.06496
1.9360e-07,0.06584
1.9400e-07,0.0666
1.9440e-07,0.06664
1.9480e-07,0.06592
1.9520e-07,0.06512
1.9560e-07,0.06528
1.9600e-07,0.06632
1.9640e-07,0.06744
1.9680e-07,0.06764
1.9720e-07,0.06688
1.9760e-07,0.0656
1.9800e-07,0.06464
1.9840e-07,0.0642
1.9880e-07,0.06436
1.9920e-07,0.06472
1.9960e-07,0.06504
2.0000e-07,0.06536
2.0040e-07,0.06568
2.0080e-07,0.06584
2.0120e-07,0.06572
2.0160e-07,0.06524
2.0200e-07,0.06468
2.0240e-07,0.06468
2.0280e-07,0.06516
2.0320e-07,0.06612
2.0360e-07,0.06696
2.0400e-07,0.0674
2.0440e-07,0.06736
2.0480e-07,0.06704
2.0520e-07,0.06652
2.0560e-07,0.0662
2.0600e-07,0.06596
2.0640e-07,0.06592
2.0680e-07,0.06588
2.0720e-07,0.06576
2.0760e-07,0.06568
2.0800e-07,0.06572
2.0840e-07,0.06584
2.0880e-07,0.06576
2.0920e-07,0.06532
2.0960e-07,0.0648
2.1000e-07,0.06468
2.1040e-07,0.06504
2.1080e-07,0.06552
2.1120e-07,0.06588
2.1160e-07,0.06588
2.1200e-07,0.0656
2.1240e-07,0.06568
2.1280e-07,0.06596
2.1320e-07,0.06608
2.1360e-07,0.06588
2.1400e-07,0.06544
2.1440e-07,0.0652
2.1480e-07,0.06512
2.1520e-07,0.06524
2.1560e-07,0.06532
2.1600e-07,0.06524
2.1640e-07,0.06524
2.1680e-07,0.06536
2.1720e-07,0.06552
2.1760e-07,0.06572
2.1800e-07,0.06576
2.1840e-07,0.06576
2.1880e-07,0.06592
2.1920e-07,0.06608
2.1960e-07,0.0662
2.2000e-07,0.06612
2.2040e-07,0.066
2.2080e-07,0.06592
2.2120e-07,0.06588
2.2160e-07,0.06588
2.2200e-07,0.06592
2.2240e-07,0.066
2.2280e-07,0.066
2.2320e-07,0.066
2.2360e-07,0.066
2.2400e-07,0.06592
2.2440e-07,0.06572
2.2480e-07,0.06572
2.2520e-07,0.06584
2.2560e-07,0.06588
2.2600e-07,0.06576
2.2640e-07,0.06552
2.2680e-07,0.06548
2.2720e-07,0.06568
2.2760e-07,0.06596
2.2800e-07,0.06612
2.2840e-07,0.06604
2.2880e-07,0.06584
2.2920e-07,0.06584
2.2960e-07,0.06596
2.3000e-07,0.06596
2.3040e-07,0.0658
2.3080e-07,0.06568
2.3120e-07,0.0654
2.3160e-07,0.06516
2.3200e-07,0.065
2.3240e-07,0.06496
2.3280e-07,0.06504
2.3320e-07,0.06528
2.3360e-07,0.06588
2.3400e-07,0.06656
2.3440e-07,0.06692
2.3480e-07,0.06664
2.3520e-07,0.06556
2.3560e-07,0.06448
2.3600e-07,0.06428
2.3640e-07,0.06504
2.3680e-07,0.06604
2.3720e-07,0.06648
2.3760e-07,0.06612
2.3800e-07,0.06548
2.3840e-07,0.06496
2.3880e-07,0.06484
2.3920e-07,0.06496
2.3960e-07,0.06536

