data/casb2/noise/tek0002CH1.csv

Model,MSO4034B
Firmware Version,2.52

Waveform Type,ANALOG
Point Format,Y
Horizontal Units,s
Horizontal Scale,4e-08
Horizontal Delay,4e-08
Sample Interval,4e-10
Record Length,10000
Gating,44.9900% to 55.00%
Probe Attenuation,1
Vertical Units,V
Vertical Offset,0.06024
Vertical Scale,0.001
Vertical Position,-5
,
,
,
Label,
TIME,CH1
-1.6040e-07,0.06488
-1.6000e-07,0.0646
-1.5960e-07,0.06424
-1.5920e-07,0.06384
-1.5880e-07,0.0636
-1.5840e-07,0.06396
-1.5800e-07,0.06496
-1.5760e-07,0.06616
-1.5720e-07,0.06716
-1.5680e-07,0.06752
-1.5640e-07,0.06748
-1.5600e-07,0.06716
-1.5560e-07,0.06688
-1.5520e-07,0.06672
-1.5480e-07,0.06644
-1.5440e-07,0.06592
-1.5400e-07,0.06528
-1.5360e-07,0.06492
-1.5320e-07,0.0648
-1.5280e-07,0.06524
-1.5240e-07,0.06576
-1.5200e-07,0.06608
-1.5160e-07,0.06612
-1.5120e-07,0.06616
-1.5080e-07,0.06616
-1.5040e-07,0.066
-1.5000e-07,0.06564
-1.4960e-07,0.06524
-1.4920e-07,0.06464
-1.4880e-07,0.06428
-1.4840e-07,0.06436
-1.4800e-07,0.06476
-1.4760e-07,0.06524
-1.4720e-07,0.0656
-1.4680e-07,0.06584
-1.4640e-07,0.06596
-1.4600e-07,0.06604
-1.4560e-07,0.06604
-1.4520e-07,0.06592
-1.4480e-07,0.06556
-1.4440e-07,0.06508
-1.4400e-07,0.06468
-1.4360e-07,0.0648
-1.4320e-07,0.06548
-1.4280e-07,0.06628
-1.4240e-07,0.06672
-1.4200e-07,0.0664
-1.4160e-07,0.0658
-1.4120e-07,0.06516
-1.4080e-07,0.0648
-1.4040e-07,0.06472
-1.4000e-07,0.06504
-1.3960e-07,0.06568
-1.3920e-07,0.0664
-1.3880e-07,0.06684
-1.3840e-07,0.0668
-1.3800e-07,0.06632
-1.3760e-07,0.0656
-1.3720e-07,0.06496
-1.3680e-07,0.0646
-1.3640e-07,0.06456
-1.3600e-07,0.06468
-1.3560e-07,0.06496
-1.3520e-07,0.06528
-1.3480e-07,0.0658
-1.3440e-07,0.06628
-1.3400e-07,0.06664
-1.3360e-07,0.06656
-1.3320e-07,0.06608
-1.3280e-07,0.06548
-1.3240e-07,0.06524
-1.3200e-07,0.06544
-1.3160e-07,0.06572
-1.3120e-07,0.0656
-1.3080e-07,0.06508
-1.3040e-07,0.06472
-1.3000e-07,0.0652
-1.2960e-07,0.06648
-1.2920e-07,0.06768
-1.2880e-07,0.06808
-1.2840e-07,0.0674
-1.2800e-07,0.06616
-1.2760e-07,0.06508
-1.2720e-07,0.06468
-1.2680e-07,0.0648
-1.2640e-07,0.065
-1.2600e-07,0.06524
-1.2560e-07,0.06544
-1.2520e-07,0.06572
-1.2480e-07,0.06584
-1.2440e-07,0.06588
-1.2400e-07,0.06564
-1.2360e-07,0.06528
-1.2320e-07,0.0652
-1.2280e-07,0.06524
-1.2240e-07,0.06568
-1.2200e-07,0.06616
-1.2160e-07,0.06648
-1.2120e-07,0.06644
-1.2080e-07,0.06616
-1.2040e-07,0.06592
-1.2000e-07,0.06596
-1.1960e-07,0.06608
-1.1920e-07,0.06612
-1.1880e-07,0.0658
-1.1840e-07,0.06516
-1.1800e-07,0.0646
-1.1760e-07,0.06464
-1.1720e-07,0.06524
-1.1680e-07,0.06604
-1.1640e-07,0.06652
-1.1600e-07,0.06656
-1.1560e-07,0.06632
-1.1520e-07,0.0662
-1.1480e-07,0.06624
-1.1440e-07,0.066
-1.1400e-07,0.06552
-1.1360e-07,0.06504
-1.1320e-07,0.06488
-1.1280e-07,0.06496
-1.1240e-07,0.06516
-1.1200e-07,0.06512
-1.1160e-07,0.06472
-1.1120e-07,0.06448
-1.1080e-07,0.06448
-1.1040e-07,0.06476
-1.1000e-07,0.06528
-1.0960e-07,0.06568
-1.0920e-07,0.06592
-1.0880e-07,0.06588
-1.0840e-07,0.06564
-1.0800e-07,0.0654
-1.0760e-07,0.06524
-1.0720e-07,0.06524
-1.0680e-07,0.06556
-1.0640e-07,0.06608
-1.0600e-07,0.06648
-1.0560e-07,0.06644
-1.0520e-07,0.0662
-1.0480e-07,0.06616
-1.0440e-07,0.06624
-1.0400e-07,0.06624
-1.0360e-07,0.06608
-1.0320e-07,0.06576
-1.0280e-07,0.06532
-1.0240e-07,0.06492
-1.0200e-07,0.06472
-1.0160e-07,0.0646
-1.0120e-07,0.06464
-1.0080e-07,0.06472
-1.0040e-07,0.0648
-1.0000e-07,0.065
-9.9600e-08,0.06532
-9.9200e-08,0.0656
-9.8800e-08,0.06552
-9.8400e-08,0.06524
-9.8000e-08,0.06488
-9.7600e-08,0.06504
-9.7200e-08,0.06544
-9.6800e-08,0.06588
-9.6400e-08,0.06604
-9.6000e-08,0.06576
-9.5600e-08,0.06536
-9.5200e-08,0.06524
-9.4800e-08,0.06556
-9.4400e-08,0.06592
-9.4000e-08,0.06608
-9.3600e-08,0.06584
-9.3200e-08,0.0654
-9.2800e-08,0.06532
-9.2400e-08,0.06572
-9.2000e-08,0.06652
-9.1600e-08,0.06724
-9.1200e-08,0.0674
-9.0800e-08,0.0668
-9.0400e-08,0.06572
-9.0000e-08,0.06476
-8.9600e-08,0.06428
-8.9200e-08,0.0646
-8.8800e-08,0.06528
-8.8400e-08,0.06556
-8.8000e-08,0.06524
-8.7600e-08,0.06468
-8.7200e-08,0.06444
-8.6800e-08,0.06476
-8.6400e-08,0.06556
-8.6000e-08,0.06644
-8.5600e-08,0.06712
-8.5200e-08,0.06748
-8.4800e-08,0.06752
-8.4400e-08,0.0672
-8.4000e-08,0.06652
-8.3600e-08,0.06572
-8.3200e-08,0.06524
-8.2800e-08,0.06532
-8.2400e-08,0.066
-8.2000e-08,0.06708
-8.1600e-08,0.06788
-8.1200e-08,0.068
-8.0800e-08,0.0674
-8.0400e-08,0.06624
-8.0000e-08,0.06528
-7.9600e-08,0.06508
-7.9200e-08,0.0654
-7.8800e-08,0.06596
-7.8400e-08,0.06608
-7.8000e-08,0.06564
-7.7600e-08,0.06504
-7.7200e-08,0.06484
-7.6800e-08,0.06524
-7.6400e-08,0.06584
-7.6000e-08,0.06592
-7.5600e-08,0.0652
-7.5200e-08,0.06424
-7.4800e-08,0.06396
-7.4400e-08,0.0646
-7.4000e-08,0.06576
-7.3600e-08,0.06676
-7.3200e-08,0.0672
-7.2800e-08,0.06704
-7.2400e-08,0.0666
-7.2000e-08,0.0662
-7.1600e-08,0.06584
-7.1200e-08,0.06548
-7.0800e-08,0.06528
-7.0400e-08,0.06544
-7.0000e-08,0.06612
-6.9600e-08,0.06688
-6.9200e-08,0.06728
-6.8800e-08,0.06692
-6.8400e-08,0.06596
-6.8000e-08,0.06512
-6.7600e-08,0.0648
-6.7200e-08,0.065
-6.6800e-08,0.06528
-6.6400e-08,0.06536
-6.6000e-08,0.06516
-6.5600e-08,0.06484
-6.5200e-08,0.06484
-6.4800e-08,0.06512
-6.4400e-08,0.06552
-6.4000e-08,0.06572
-6.3600e-08,0.0656
-6.3200e-08,0.06524
-6.2800e-08,0.065
-6.2400e-08,0.06488
-6.2000e-08,0.06476
-6.1600e-08,0.0648
-6.1200e-08,0.06488
-6.0800e-08,0.06516
-6.0400e-08,0.06552
-6.0000e-08,0.06596
-5.9600e-08,0.06624
-5.9200e-08,0.06636
-5.8800e-08,0.0662
-5.8400e-08,0.06604
-5.8000e-08,0.06592
-5.7600e-08,0.0658
-5.7200e-08,0.06552
-5.6800e-08,0.06536
-5.6400e-08,0.06524
-5.6000e-08,0.06528
-5.5600e-08,0.0654
-5.5200e-08,0.0656
-5.4800e-08,0.06588
-5.4400e-08,0.06604
-5.4000e-08,0.06604
-5.3600e-08,0.06568
-5.3200e-08,0.0652
-5.2800e-08,0.06476
-5.2400e-08,0.06488
-5.2000e-08,0.0656
-5.1600e-08,0.06636
-5.1200e-08,0.06684
-5.0800e-08,0.06688
-5.0400e-08,0.06636
-5.0000e-08,0.0656
-4.9600e-08,0.06516
-4.9200e-08,0.06528
-4.8800e-08,0.06596
-4.8400e-08,0.06668
-4.8000e-08,0.06684
-4.7600e-08,0.06628
-4.7200e-08,0.06544
-4.6800e-08,0.06504
-4.6400e-08,0.06552
-4.6000e-08,0.06636
-4.5600e-08,0.06688
-4.5200e-08,0.06672
-4.4800e-08,0.066
-4.4400e-08,0.06508
-4.4000e-08,0.0644
-4.3600e-08,0.06416
-4.3200e-08,0.06436
-4.2800e-08,0.06468
-4.2400e-08,0.0652
-4.2000e-08,0.06564
-4.1600e-08,0.0658
-4.1200e-08,0.06548
-4.0800e-08,0.06492
-4.0400e-08,0.0644
-4.0000e-08,0.06448
-3.9600e-08,0.06492
-3.9200e-08,0.0654
-3.8800e-08,0.06556
-3.8400e-08,0.06572
-3.8000e-08,0.06564
-3.7600e-08,0.06536
-3.7200e-08,0.06508
-3.6800e-08,0.06488
-3.6400e-08,0.06492
-3.6000e-08,0.06516
-3.5600e-08,0.06544
-3.5200e-08,0.06552
-3.4800e-08,0.06532
-3.4400e-08,0.06508
-3.4000e-08,0.0652
-3.3600e-08,0.06576
-3.3200e-08,0.06628
-3.2800e-08,0.06648
-3.2400e-08,0.06612
-3.2000e-08,0.0656
-3.1600e-08,0.06528
-3.1200e-08,0.06552
-3.0800e-08,0.06588
-3.0400e-08,0.066
-3.0000e-08,0.06568
-2.9600e-08,0.0654
-2.9200e-08,0.06528
-2.8800e-08,0.06552
-2.8400e-08,0.06572
-2.8000e-08,0.06576
-2.7600e-08,0.0656
-2.7200e-08,0.0654
-2.6800e-08,0.06556
-2.6400e-08,0.06588
-2.6000e-08,0.0662
-2.5600e-08,0.06608
-2.5200e-08,0.06572
-2.4800e-08,0.06552
-2.4400e-08,0.0656
-2.4000e-08,0.06592
-2.3600e-08,0.06628
-2.3200e-08,0.06632
-2.2800e-08,0.06592
-2.2400e-08,0.06548
-2.2000e-08,0.0656
-2.1600e-08,0.06604
-2.1200e-08,0.06652
-2.0800e-08,0.0664
-2.0400e-08,0.06576
-2.0000e-08,0.0652
-1.9600e-08,0.06512
-1.9200e-08,0.06568
-1.8800e-08,0.06652
-1.8400e-08,0.06704
-1.8000e-08,0.067
-1.7600e-08,0.06656
-1.7200e-08,0.06572
-1.6800e-08,0.06476
-1.6400e-08,0.06392
-1.6000e-08,0.06356
-1.5600e-08,0.06388
-1.5200e-08,0.06472
-1.4800e-08,0.06556
-1.4400e-08,0.06604
-1.4000e-08,0.0664
-1.3600e-08,0.06636
-1.3200e-08,0.06624
-1.2800e-08,0.06604
-1.2400e-08,0.06584
-1.2000e-08,0.06556
-1.1600e-08,0.06532
-1.1200e-08,0.0652
-1.0800e-08,0.06532
-1.0400e-08,0.06572
-1.0000e-08,0.066
-9.6000e-09,0.06628
-9.2000e-09,0.06648
-8.8000e-09,0.06652
-8.4000e-09,0.06648
-8.0000e-09,0.06632
-7.6000e-09,0.06596
-7.2000e-09,0.06524
-6.8000e-09,0.06452
-6.4000e-09,0.06464
-6.0000e-09,0.06564
-5.6000e-09,0.0668
-5.2000e-09,0.06688
-4.8000e-09,0.06576
-4.4000e-09,0.0642
-4.0000e-09,0.06336
-3.6000e-09,0.06372
-3.2000e-09,0.06492
-2.8000e-09,0.066
-2.4000e-09,0.06652
-2.0000e-09,0.06664
-1.6000e-09,0.06664
-1.2000e-09,0.06644
-8.0000e-10,0.06592
-4.0000e-10,0.06516
0.0000e+00,0.06456
4.0000e-10,0.06452
8.0000e-10,0.06528
1.2000e-09,0.06616
1.6000e-09,0.06668
2.0000e-09,0.06644
2.4000e-09,0.06552
2.8000e-09,0.0648
3.2000e-09,0.0646
3.6000e-09,0.065
4.0000e-09,0.0656
4.4000e-09,0.06628
4.8000e-09,0.06644
5.2000e-09,0.06616
5.6000e-09,0.06564
6.0000e-09,0.06524
6.4000e-09,0.06504
6.8000e-09,0.06488
7.2000e-09,0.06484
7.6000e-09,0.06472
8.0000e-09,0.06488
8.4000e-09,0.06544
8.8000e-09,0.06628
9.2000e-09,0.067
9.6000e-09,0.06736
1.0000e-08,0.06732
1.0400e-08,0.067
1.0800e-08,0.06656
1.1200e-08,0.06604
1.1600e-08,0.0656
1.2000e-08,0.06536
1.2400e-08,0.06568
1.2800e-08,0.06632
1.3200e-08,0.06704
1.3600e-08,0.06728
1.4000e-08,0.06712
1.4400e-08,0.06672
1.4800e-08,0.066
1.5200e-08,0.06532
1.5600e-08,0.06484
1.6000e-08,0.06464
1.6400e-08,0.0648
1.6800e-08,0.06524
1.7200e-08,0.06588
1.7600e-08,0.06636
1.8000e-08,0.0666
1.8400e-08,0.0666
1.8800e-08,0.06656
1.9200e-08,0.06632
1.9600e-08,0.0656
2.0000e-08,0.0648
2.0400e-08,0.06428
2.0800e-08,0.06452
2.1200e-08,0.0656
2.1600e-08,0.06688
2.2000e-08,0.06748
2.2400e-08,0.0672
2.2800e-08,0.06624
2.3200e-08,0.06532
2.3600e-08,0.06492
2.4000e-08,0.06488
2.4400e-08,0.06492
2.4800e-08,0.06476
2.5200e-08,0.06472
2.5600e-08,0.0648
2.6000e-08,0.06508
2.6400e-08,0.06524
2.6800e-08,0.0652
2.7200e-08,0.065
2.7600e-08,0.06488
2.8000e-08,0.06496
2.8400e-08,0.06516
2.8800e-08,0.06536
2.9200e-08,0.06528
2.9600e-08,0.0652
3.0000e-08,0.06536
3.0400e-08,0.06568
3.0800e-08,0.06596
3.1200e-08,0.06608
3.1600e-08,0.066
3.2000e-08,0.06584
3.2400e-08,0.06568
3.2800e-08,0.06592
3.3200e-08,0.06624
3.3600e-08,0.06636
3.4000e-08,0.06628
3.4400e-08,0.06608
3.4800e-08,0.06612
3.5200e-08,0.06636
3.5600e-08,0.06644
3.6000e-08,0.06612
3.6400e-08,0.06564
3.6800e-08,0.06576
3.7200e-08,0.06652
3.7600e-08,0.06724
3.8000e-08,0.06712
3.8400e-08,0.0662
3.8800e-08,0.06508
3.9200e-08,0.06452
3.9600e-08,0.06472
4.0000e-08,0.06536
4.0400e-08,0.06572
4.0800e-08,0.06572
4.1200e-08,0.06552
4.1600e-08,0.06536
4.2000e-08,0.06516
4.2400e-08,0.06488
4.2800e-08,0.06452
4.3200e-08,0.06424
4.3600e-08,0.06444
4.4000e-08,0.0652
4.4400e-08,0.06628
4.4800e-08,0.06716
4.5200e-08,0.06752
4.5600e-08,0.06728
4.6000e-08,0.06664
4.6400e-08,0.0658
4.6800e-08,0.06508
4.7200e-08,0.06464
4.7600e-08,0.0646
4.8000e-08,0.06492
4.8400e-08,0.06532
4.8800e-08,0.06564
4.9200e-08,0.06612
4.9600e-08,0.06656
5.0000e-08,0.06672
5.0400e-08,0.06636
5.0800e-08,0.0658
5.1200e-08,0.06548
5.1600e-08,0.06564
5.2000e-08,0.06592
5.2400e-08,0.0662
5.2800e-08,0.06616
5.3200e-08,0.06592
5.3600e-08,0.06568
5.4000e-08,0.06572
5.4400e-08,0.0662
5.4800e-08,0.06672
5.5200e-08,0.06716
5.5600e-08,0.0672
5.6000e-08,0.06684
5.6400e-08,0.0662
5.6800e-08,0.06564
5.7200e-08,0.06544
5.7600e-08,0.06544
5.8000e-08,0.06568
5.8400e-08,0.0658
5.8800e-08,0.06588
5.9200e-08,0.06576
5.9600e-08,0.06552
6.0000e-08,0.06516
6.0400e-08,0.06456
6.0800e-08,0.06408
6.1200e-08,0.06412
6.1600e-08,0.06472
6.2000e-08,0.0658
6.2400e-08,0.0666
6.2800e-08,0.06672
6.3200e-08,0.06616
6.3600e-08,0.0652
6.4000e-08,0.06436
6.4400e-08,0.06396
6.4800e-08,0.06404
6.5200e-08,0.06452
6.5600e-08,0.06524
6.6000e-08,0.06592
6.6400e-08,0.06636
6.6800e-08,0.06648
6.7200e-08,0.06604
6.7600e-08,0.06532
6.8000e-08,0.06484
6.8400e-08,0.065
6.8800e-08,0.06544
6.9200e-08,0.06576
6.9600e-08,0.06576
7.0000e-08,0.0656
7.0400e-08,0.06536
7.0800e-08,0.06528
7.1200e-08,0.0656
7.1600e-08,0.06608
7.2000e-08,0.06644
7.2400e-08,0.06652
7.2800e-08,0.06648
7.3200e-08,0.06616
7.3600e-08,0.0658
7.4000e-08,0.06544
7.4400e-08,0.06516
7.4800e-08,0.06508
7.5200e-08,0.06516
7.5600e-08,0.06528
7.6000e-08,0.06508
7.6400e-08,0.06468
7.6800e-08,0.06448
7.7200e-08,0.06484
7.7600e-08,0.06544
7.8000e-08,0.06568
7.8400e-08,0.06552
7.8800e-08,0.06508
7.9200e-08,0.06496
7.9600e-08,0.06536
8.0000e-08,0.06608
8.0400e-08,0.06664
8.0800e-08,0.06696
8.1200e-08,0.06704
8.1600e-08,0.06696
8.2000e-08,0.06688
8.2400e-08,0.06684
8.2800e-08,0.06656
8.3200e-08,0.06616
8.3600e-08,0.06584
8.4000e-08,0.06584
8.4400e-08,0.06628
8.4800e-08,0.06668
8.5200e-08,0.06676
8.5600e-08,0.06628
8.6000e-08,0.0654
8.6400e-08,0.06468
8.6800e-08,0.06432
8.7200e-08,0.06432
8.7600e-08,0.0646
8.8000e-08,0.06504
8.8400e-08,0.06536
8.8800e-08,0.06548
8.9200e-08,0.0656
8.9600e-08,0.06572
9.0000e-08,0.06592
9.0400e-08,0.066
9.0800e-08,0.06604
9.1200e-08,0.06604
9.1600e-08,0.0662
9.2000e-08,0.06644
9.2400e-08,0.0668
9.2800e-08,0.067
9.3200e-08,0.067
9.3600e-08,0.0668
9.4000e-08,0.06664
9.4400e-08,0.06644
9.4800e-08,0.066
9.5200e-08,0.0654
9.5600e-08,0.06488
9.6000e-08,0.06472
9.6400e-08,0.0648
9.6800e-08,0.06524
9.7200e-08,0.06572
9.7600e-08,0.06608
9.8000e-08,0.06616
9.8400e-08,0.0658
9.8800e-08,0.06532
9.9200e-08,0.06508
9.9600e-08,0.06532
1.0000e-07,0.06576
1.0040e-07,0.06612
1.0080e-07,0.066
1.0120e-07,0.06552
1.0160e-07,0.06492
1.0200e-07,0.06452
1.0240e-07,0.06444
1.0280e-07,0.06456
1.0320e-07,0.0648
1.0360e-07,0.065
1.0400e-07,0.0652
1.0440e-07,0.06528
1.0480e-07,0.06532
1.0520e-07,0.06524
1.0560e-07,0.06508
1.0600e-07,0.06488
1.0640e-07,0.06484
1.0680e-07,0.065
1.0720e-07,0.06516
1.0760e-07,0.06528
1.0800e-07,0.06524
1.0840e-07,0.06516
1.0880e-07,0.06532
1.0920e-07,0.06564
1.0960e-07,0.06588
1.1000e-07,0.06584
1.1040e-07,0.06556
1.1080e-07,0.0654
1.1120e-07,0.06556
1.1160e-07,0.06584
1.1200e-07,0.06628
1.1240e-07,0.06664
1.1280e-07,0.06672
1.1320e-07,0.06656
1.1360e-07,0.06632
1.1400e-07,0.06608
1.1440e-07,0.0658
1.1480e-07,0.06576
1.1520e-07,0.0658
1.1560e-07,0.06584
1.1600e-07,0.06588
1.1640e-07,0.06576
1.1680e-07,0.06552
1.1720e-07,0.0654
1.1760e-07,0.06568
1.1800e-07,0.06628
1.1840e-07,0.06704
1.1880e-07,0.0672
1.1920e-07,0.0666
1.1960e-07,0.0658
1.2000e-07,0.06548
1.2040e-07,0.06604
1.2080e-07,0.06704
1.2120e-07,0.0674
1.2160e-07,0.06676
1.2200e-07,0.06556
1.2240e-07,0.06432
1.2280e-07,0.06364
1.2320e-07,0.06352
1.2360e-07,0.06388
1.2400e-07,0.06456
1.2440e-07,0.06524
1.2480e-07,0.0658
1.2520e-07,0.06596
1.2560e-07,0.0656
1.2600e-07,0.06496
1.2640e-07,0.06428
1.2680e-07,0.06408
1.2720e-07,0.06432
1.2760e-07,0.06524
1.2800e-07,0.06628
1.2840e-07,0.06692
1.2880e-07,0.0668
1.2920e-07,0.06624
1.2960e-07,0.06552
1.3000e-07,0.06516
1.3040e-07,0.06516
1.3080e-07,0.06544
1.3120e-07,0.06548
1.3160e-07,0.06556
1.3200e-07,0.06572
1.3240e-07,0.06608
1.3280e-07,0.06656
1.3320e-07,0.06672
1.3360e-07,0.06648
1.3400e-07,0.06604
1.3440e-07,0.06552
1.3480e-07,0.06524
1.3520e-07,0.06536
1.3560e-07,0.06568
1.3600e-07,0.06612
1.3640e-07,0.06624
1.3680e-07,0.06612
1.3720e-07,0.06588
1.3760e-07,0.06572
1.3800e-07,0.06564
1.3840e-07,0.0656
1.3880e-07,0.06572
1.3920e-07,0.06612
1.3960e-07,0.06648
1.4000e-07,0.06668
1.4040e-07,0.06648
1.4080e-07,0.066
1.4120e-07,0.0654
1.4160e-07,0.06508
1.4200e-07,0.06516
1.4240e-07,0.06548
1.4280e-07,0.06584
1.4320e-07,0.06596
1.4360e-07,0.06576
1.4400e-07,0.06556
1.4440e-07,0.06544
1.4480e-07,0.06544
1.4520e-07,0.06564
1.4560e-07,0.06592
1.4600e-07,0.06588
1.4640e-07,0.06564
1.4680e-07,0.06528
1.4720e-07,0.06504
1.4760e-07,0.06488
1.4800e-07,0.06468
1.4840e-07,0.0646
1.4880e-07,0.06444
1.4920e-07,0.06432
1.4960e-07,0.06432
1.5000e-07,0.06448
1.5040e-07,0.06456
1.5080e-07,0.06472
1.5120e-07,0.065
1.5160e-07,0.06536
1.5200e-07,0.06576
1.5240e-07,0.06584
1.5280e-07,0.06572
1.5320e-07,0.06544
1.5360e-07,0.06516
1.5400e-07,0.06488
1.5440e-07,0.0646
1.5480e-07,0.0646
1.5520e-07,0.06484
1.5560e-07,0.06512
1.5600e-07,0.06536
1.5640e-07,0.06548
1.5680e-07,0.06564
1.5720e-07,0.06556
1.5760e-07,0.06532
1.5800e-07,0.0652
1.5840e-07,0.06532
1.5880e-07,0.06552
1.5920e-07,0.06564
1.5960e-07,0.06548
1.6000e-07,0.06524
1.6040e-07,0.06536
1.6080e-07,0.0658
1.6120e-07,0.06628
1.6160e-07,0.066
1.6200e-07,0.06508
1.6240e-07,0.06424
1.6280e-07,0.06408
1.6320e-07,0.06472
1.6360e-07,0.06564
1.6400e-07,0.06668
1.6440e-07,0.06728
1.6480e-07,0.06724
1.6520e-07,0.0668
1.6560e-07,0.06632
1.6600e-07,0.06592
1.6640e-07,0.06536
1.6680e-07,0.065
1.6720e-07,0.06504
1.6760e-07,0.06564
1.6800e-07,0.0666
1.6840e-07,0.06744
1.6880e-07,0.0678
1.6920e-07,0.06728
1.6960e-07,0.06616
1.7000e-07,0.06508
1.7040e-07,0.06436
1.7080e-07,0.06444
1.7120e-07,0.06504
1.7160e-07,0.0656
1.7200e-07,0.06584
1.7240e-07,0.06584
1.7280e-07,0.0658
1.7320e-07,0.06584
1.7360e-07,0.06584
1.7400e-07,0.0656
1.7440e-07,0.06516
1.7480e-07,0.06488
1.7520e-07,0.06512
1.7560e-07,0.06588
1.7600e-07,0.06684
1.7640e-07,0.06728
1.7680e-07,0.06728
1.7720e-07,0.06676
1.7760e-07,0.06616
1.7800e-07,0.06552
1.7840e-07,0.06504
1.7880e-07,0.06464
1.7920e-07,0.06468
1.7960e-07,0.06504
1.8000e-07,0.0656
1.8040e-07,0.06608
1.8080e-07,0.06612
1.8120e-07,0.06576
1.8160e-07,0.06524
1.8200e-07,0.0646
1.8240e-07,0.0644
1.8280e-07,0.06468
1.8320e-07,0.06524
1.8360e-07,0.0658
1.8400e-07,0.06608
1.8440e-07,0.06604
1.8480e-07,0.06584
1.8520e-07,0.06576
1.8560e-07,0.0658
1.8600e-07,0.06576
1.8640e-07,0.06568
1.8680e-07,0.06548
1.8720e-07,0.06564
1.8760e-07,0.06612
1.8800e-07,0.06668
1.8840e-07,0.06692
1.8880e-07,0.06664
1.8920e-07,0.06608
1.8960e-07,0.06564
1.9000e-07,0.06544
1.9040e-07,0.06548
1.9080e-07,0.0656
1.9120e-07,0.06576
1.9160e-07,0.06576
1.9200e-07,0.06592
1.9240e-07,0.06608
1.9280e-07,0.06612
1.9320e-07,0.06596
1.9360e-07,0.06576
1.9400e-07,0.06572
1.9440e-07,0.06588
1.9480e-07,0.06604
1.9520e-07,0.06612
1.9560e-07,0.066
1.9600e-07,0.0656
1.9640e-07,0.06524
1.9680e-07,0.06512
1.9720e-07,0.06528
1.9760e-07,0.06564
1.9800e-07,0.06616
1.9840e-07,0.06664
1.9880e-07,0.06684
1.9920e-07,0.06684
1.9960e-07,0.06668
2.0000e-07,0.06624
2.0040e-07,0.06572
2.0080e-07,0.06544
2.0120e-07,0.06556
2.0160e-07,0.06588
2.0200e-07,0.06608
2.0240e-07,0.06572
2.0280e-07,0.0652
2.0320e-07,0.06508
2.0360e-07,0.06584
2.0400e-07,0.0672
2.0440e-07,0.06816
2.0480e-07,0.06804
2.0520e-07,0.06708
2.0560e-07,0.06576
2.0600e-07,0.06508
2.0640e-07,0.06504
2.0680e-07,0.06524
2.0720e-07,0.06532
2.0760e-07,0.06508
2.0800e-07,0.06468
2.0840e-07,0.0644
2.0880e-07,0.06428
2.0920e-07,0.06416
2.0960e-07,0.06424
2.1000e-07,0.06444
2.1040e-07,0.06488
2.1080e-07,0.06544
2.1120e-07,0.06592
2.1160e-07,0.06612
2.1200e-07,0.06604
2.1240e-07,0.06572
2.1280e-07,0.06524
2.1320e-07,0.06492
2.1360e-07,0.06492
2.1400e-07,0.06532
2.1440e-07,0.0658
2.1480e-07,0.06604
2.1520e-07,0.06616
2.1560e-07,0.06628
2.1600e-07,0.06664
2.1640e-07,0.0668
2.1680e-07,0.0666
2.1720e-07,0.06584
2.1760e-07,0.06508
2.1800e-07,0.06468
2.1840e-07,0.06488
2.1880e-07,0.06528
2.1920e-07,0.0656
2.1960e-07,0.06568
2.2000e-07,0.06568
2.2040e-07,0.06592
2.2080e-07,0.0664
2.2120e-07,0.06664
2.2160e-07,0.0666
2.2200e-07,0.06616
2.2240e-07,0.06576
2.2280e-07,0.06556
2.2320e-07,0.06564
2.2360e-07,0.06584
2.2400e-07,0.06608
2.2440e-07,0.06612
2.2480e-07,0.06608
2.2520e-07,0.06596
2.2560e-07,0.06592
2.2600e-07,0.06588
2.2640e-07,0.0658
2.2680e-07,0.06568
2.2720e-07,0.06564
2.2760e-07,0.06556
2.2800e-07,0.06564
2.2840e-07,0.0658
2.2880e-07,0.06572
2.2920e-07,0.0656
2.2960e-07,0.06564
2.3000e-07,0.0658
2.3040e-07,0.06612
2.3080e-07,0.06652
2.3120e-07,0.06672
2.3160e-07,0.06664
2.3200e-07,0.0664
2.3240e-07,0.06612
2.3280e-07,0.066
2.3320e-07,0.06604
2.3360e-07,0.06612
2.3400e-07,0.06612
2.3440e-07,0.066
2.3480e-07,0.06584
2.3520e-07,0.06588
2.3560e-07,0.0662
2.3600e-07,0.06644
2.3640e-07,0.06656
2.3680e-07,0.0664
2.3720e-07,0.06608
2.3760e-07,0.0658
2.3800e-07,0.0658
2.3840e-07,0.06604
2.3880e-07,0.06636
2.3920e-07,0.06648
2.3960e-07,0.06648

